# This file uses meters as units for non-parametric coordinates.

g default
v -165.156036 160.000000 109.109528
v -146.937012 160.000000 109.109528
v -165.156036 160.000000 90.890472
v -146.937012 160.000000 90.890472
v -165.156036 167.500000 109.109512
v -165.156036 167.500000 90.890472
v -146.937012 167.500000 90.890472
v -146.937012 167.500000 109.109528
v -169.538788 172.500000 113.492264
v -169.538788 172.500000 86.507721
v -142.554260 172.500000 86.507721
v -142.554260 172.500000 113.492264
v -163.679810 157.500000 92.366699
v -148.413269 157.500000 92.366699
v -148.413269 157.500000 107.633301
v -163.679810 157.500000 107.633301
v -169.538788 175.000000 113.492264
v -169.538788 175.000000 86.507721
v -142.554260 175.000000 86.507721
v -142.554260 175.000000 113.492264
v -161.386047 147.500000 105.339539
v -150.706985 147.500000 105.339539
v -161.386047 147.500000 94.660477
v -150.706985 147.500000 94.660477
v -161.386047 157.500000 105.339539
v -161.386047 157.500000 94.660477
v -150.706985 157.500000 94.660477
v -150.706985 157.500000 105.339539
v -152.483414 52.500000 98.086258
v -153.962082 52.500000 96.607590
v -155.981995 52.500000 96.066360
v -158.001892 52.500000 96.607590
v -159.480560 52.500000 98.086258
v -160.021790 52.500000 100.106171
v -159.480560 52.500000 102.126068
v -158.001892 52.500000 103.604736
v -155.981995 52.500000 104.145966
v -153.962082 52.500000 103.604736
v -152.483414 52.500000 102.126068
v -151.942184 52.500000 100.106171
v -152.483414 147.500000 98.086258
v -153.962082 147.500000 96.607590
v -155.981995 147.500000 96.066360
v -158.001892 147.500000 96.607590
v -159.480560 147.500000 98.086258
v -160.021790 147.500000 100.106171
v -159.480560 147.500000 102.126068
v -158.001892 147.500000 103.604736
v -155.981995 147.500000 104.145966
v -153.962082 147.500000 103.604736
v -152.483414 147.500000 102.126068
v -151.942184 147.500000 100.106171
v -162.051422 -72.190857 106.385117
v -149.598938 -72.190857 106.385117
v -163.985931 28.839493 108.319626
v -147.664398 28.839493 108.319626
v -163.985931 28.839493 91.998093
v -147.664398 28.839493 91.998093
v -162.051422 -72.190857 93.932602
v -149.598938 -72.190857 93.932602
v -162.051422 27.231140 106.385117
v -162.051422 27.231140 93.932602
v -149.598938 27.231140 93.932602
v -149.598938 27.231140 106.385117
v -161.750336 30.666016 106.084030
v -149.899994 30.666016 106.084030
v -149.899994 30.666016 94.233688
v -161.750336 30.666016 94.233688
v -160.977386 50.000000 105.311081
v -150.672913 50.000000 105.311081
v -150.672913 50.000000 95.006638
v -160.977386 50.000000 95.006638
v -160.161713 52.500000 104.495422
v -151.488586 52.500000 104.495422
v -151.488586 52.500000 95.822296
v -160.161713 52.500000 95.822296
v -159.999969 -84.575096 95.984055
v -151.650391 -84.575096 95.984055
v -151.650391 -84.575096 104.333664
v -159.999969 -84.575096 104.333664
v -162.809814 -93.656082 93.174194
v -148.840546 -93.656082 93.174194
v -148.840546 -93.656082 107.143524
v -162.809814 -93.656082 107.143524
v -160.846375 -99.645004 95.137634
v -150.803986 -99.645004 95.137634
v -150.803986 -99.645004 105.180084
v -160.846375 -99.645004 105.180084
v 96.063110 52.500000 98.086258
v 94.584442 52.500000 96.607590
v 92.564514 52.500000 96.066360
v 90.544617 52.500000 96.607590
v 89.065979 52.500000 98.086258
v 88.524719 52.500000 100.106171
v 89.065979 52.500000 102.126068
v 90.544617 52.500000 103.604736
v 92.564514 52.500000 104.145966
v 94.584442 52.500000 103.604736
v 96.063110 52.500000 102.126068
v 96.604340 52.500000 100.106171
v 96.063110 147.500000 98.086258
v 94.584442 147.500000 96.607590
v 92.564514 147.500000 96.066360
v 90.544617 147.500000 96.607590
v 89.065979 147.500000 98.086258
v 88.524719 147.500000 100.106171
v 89.065979 147.500000 102.126068
v 90.544617 147.500000 103.604736
v 92.564514 147.500000 104.145966
v 94.584442 147.500000 103.604736
v 96.063110 147.500000 102.126068
v 96.604340 147.500000 100.106171
v 86.495117 -72.190857 106.385117
v 98.947571 -72.190857 106.385117
v 84.560608 28.839493 108.319626
v 100.882141 28.839493 108.319626
v 84.560608 28.839493 91.998093
v 100.882141 28.839493 91.998093
v 86.495117 -72.190857 93.932602
v 98.947571 -72.190857 93.932602
v 86.495117 27.231140 106.385117
v 86.495117 27.231140 93.932602
v 98.947571 27.231140 93.932602
v 98.947571 27.231140 106.385117
v 86.796204 30.666016 106.084030
v 98.646545 30.666016 106.084030
v 98.646545 30.666016 94.233688
v 86.796204 30.666016 94.233688
v 87.569153 50.000000 105.311081
v 97.873596 50.000000 105.311081
v 97.873596 50.000000 95.006638
v 87.569153 50.000000 95.006638
v 88.384827 52.500000 104.495422
v 97.057922 52.500000 104.495422
v 97.057922 52.500000 95.822296
v 88.384827 52.500000 95.822296
v 88.546570 -84.575096 95.984055
v 96.896118 -84.575096 95.984055
v 96.896118 -84.575096 104.333664
v 88.546570 -84.575096 104.333664
v 85.736694 -93.656082 93.174194
v 99.705994 -93.656082 93.174194
v 99.705994 -93.656082 107.143524
v 85.736694 -93.656082 107.143524
v 87.700134 -99.645004 95.137634
v 97.742554 -99.645004 95.137634
v 97.742554 -99.645004 105.180084
v 87.700134 -99.645004 105.180084
v 83.390503 160.000000 109.109528
v 101.609497 160.000000 109.109528
v 83.390503 160.000000 90.890472
v 101.609497 160.000000 90.890472
v 83.390503 167.500000 109.109512
v 83.390503 167.500000 90.890472
v 101.609497 167.500000 90.890472
v 101.609497 167.500000 109.109528
v 79.007751 172.500000 113.492264
v 79.007751 172.500000 86.507721
v 105.992249 172.500000 86.507721
v 105.992249 172.500000 113.492264
v 84.866699 157.500000 92.366699
v 100.133240 157.500000 92.366699
v 100.133240 157.500000 107.633301
v 84.866699 157.500000 107.633301
v 79.007751 175.000000 113.492264
v 79.007751 175.000000 86.507721
v 105.992249 175.000000 86.507721
v 105.992249 175.000000 113.492264
v 86.712067 27.720108 -89.486557
v 86.712006 32.914703 -85.991501
v 86.711884 34.933624 -80.000427
v 86.712067 32.814148 -71.263992
v 86.712372 31.541840 -54.765858
v 86.712738 33.245239 -39.875172
v 86.712616 36.989670 -24.600481
v 86.712494 40.727615 -10.357943
v 86.712555 41.460281 0.000017
v 91.597748 44.630127 0.000017
v 91.597015 43.328613 -12.660440
v 88.842743 43.328613 -11.893452
v 88.842743 44.630127 0.000015
v 91.597015 39.537750 -27.159405
v 88.842743 39.537750 -26.392353
v 91.597504 35.921249 -41.572109
v 88.842743 35.921310 -40.805077
v 91.597565 34.259430 -56.029369
v 88.842743 34.259430 -55.262287
v 91.597198 35.488220 -72.050232
v 88.842743 35.488220 -71.283218
v 91.597565 37.323029 -80.427078
v 88.842804 37.323029 -79.660049
v 91.597870 34.950378 -86.992599
v 88.842743 34.950378 -86.992615
v 88.789398 27.807457 -91.625549
v 91.597748 27.807457 -91.625534
v 86.712494 -28.465073 0.000019
v 86.712067 -28.465073 -89.487534
v 88.842743 -28.465073 -91.604187
v 91.597870 -28.465073 -91.601471
v 86.712128 27.720108 89.486572
v 86.712067 32.914703 85.991547
v 86.711884 34.933624 80.000458
v 86.712128 32.814148 71.264023
v 86.712433 31.541840 54.765915
v 86.712738 33.245239 39.875191
v 86.712616 36.989670 24.600531
v 86.712494 40.727615 10.357935
v 91.597076 43.328613 12.660474
v 88.842743 43.328613 11.893489
v 91.597137 39.537750 27.159435
v 88.842682 39.537750 26.392391
v 91.597565 35.921249 41.572159
v 88.842743 35.921310 40.805103
v 91.597565 34.259430 56.029419
v 88.842743 34.259430 55.262321
v 91.597198 35.488220 72.050323
v 88.842743 35.488220 71.283234
v 91.597565 37.323029 80.427155
v 88.842743 37.323029 79.660065
v 91.597870 34.950378 86.992661
v 88.842743 34.950378 86.992645
v 88.789520 27.807457 91.625610
v 91.597748 27.807457 91.625580
v 86.712067 -28.465073 89.487564
v 88.842743 -28.465073 91.604233
v 91.597809 -28.465073 91.601501
v -162.051422 -72.190857 -93.614868
v -149.598938 -72.190857 -93.614868
v -163.985931 28.839493 -91.680359
v -147.664398 28.839493 -91.680359
v -163.985931 28.839493 -108.001892
v -147.664398 28.839493 -108.001892
v -162.051422 -72.190857 -106.067383
v -149.598938 -72.190857 -106.067383
v -162.051422 27.231140 -93.614868
v -162.051422 27.231140 -106.067383
v -149.598938 27.231140 -106.067383
v -149.598938 27.231140 -93.614868
v -161.750336 30.666016 -93.915955
v -149.899994 30.666016 -93.915955
v -149.899994 30.666016 -105.766296
v -161.750336 30.666016 -105.766296
v -160.977386 50.000000 -94.688904
v -150.672913 50.000000 -94.688904
v -150.672913 50.000000 -104.993347
v -160.977386 50.000000 -104.993347
v -160.161713 52.500000 -95.504562
v -151.488586 52.500000 -95.504562
v -151.488586 52.500000 -104.177689
v -160.161713 52.500000 -104.177689
v -159.999969 -84.575096 -104.015930
v -151.650391 -84.575096 -104.015930
v -151.650391 -84.575096 -95.666321
v -159.999969 -84.575096 -95.666321
v -162.809814 -93.656082 -106.825790
v -148.840546 -93.656082 -106.825790
v -148.840546 -93.656082 -92.856461
v -162.809814 -93.656082 -92.856461
v -160.846375 -99.645004 -104.862350
v -150.803986 -99.645004 -104.862350
v -150.803986 -99.645004 -94.819901
v -160.846375 -99.645004 -94.819901
v -152.483414 52.500000 -101.913727
v -153.962082 52.500000 -103.392395
v -155.981995 52.500000 -103.933624
v -158.001892 52.500000 -103.392395
v -159.480560 52.500000 -101.913727
v -160.021790 52.500000 -99.893814
v -159.480560 52.500000 -97.873917
v -158.001892 52.500000 -96.395248
v -155.981995 52.500000 -95.854019
v -153.962082 52.500000 -96.395248
v -152.483414 52.500000 -97.873917
v -151.942184 52.500000 -99.893814
v -152.483414 147.500000 -101.913727
v -153.962082 147.500000 -103.392395
v -155.981995 147.500000 -103.933624
v -158.001892 147.500000 -103.392395
v -159.480560 147.500000 -101.913727
v -160.021790 147.500000 -99.893814
v -159.480560 147.500000 -97.873917
v -158.001892 147.500000 -96.395248
v -155.981995 147.500000 -95.854019
v -153.962082 147.500000 -96.395248
v -152.483414 147.500000 -97.873917
v -151.942184 147.500000 -99.893814
v -165.156036 160.000000 -90.890457
v -146.937012 160.000000 -90.890457
v -165.156036 160.000000 -109.109512
v -146.937012 160.000000 -109.109512
v -165.156036 167.500000 -90.890472
v -165.156036 167.500000 -109.109512
v -146.937012 167.500000 -109.109512
v -146.937012 167.500000 -90.890457
v -169.538788 172.500000 -86.507721
v -169.538788 172.500000 -113.492264
v -142.554260 172.500000 -113.492264
v -142.554260 172.500000 -86.507721
v -163.679810 157.500000 -107.633286
v -148.413269 157.500000 -107.633286
v -148.413269 157.500000 -92.366684
v -163.679810 157.500000 -92.366684
v -169.538788 175.000000 -86.507721
v -169.538788 175.000000 -113.492264
v -142.554260 175.000000 -113.492264
v -142.554260 175.000000 -86.507721
v -157.293213 152.500000 -104.999969
v -157.293213 152.500000 105.000046
v -159.793213 152.500000 -104.999969
v -159.793213 152.500000 105.000046
v -157.293213 155.000000 -104.999969
v -157.293213 155.000000 105.000046
v -159.793213 155.000000 105.000046
v -159.793213 155.000000 -104.999969
v -152.293213 160.000000 -104.999969
v -152.293213 160.000000 105.000046
v -162.293213 160.000000 -104.999969
v -162.293213 160.000000 105.000046
v -164.793213 172.500000 105.000046
v -164.793213 172.500000 -104.999969
v -152.293213 175.000000 -104.999969
v -152.293213 175.000000 105.000046
v -162.293213 170.000000 105.000046
v -162.293213 170.000000 -104.999969
v -164.793213 175.000000 -104.999969
v -164.793213 175.000000 105.000046
v -161.386047 147.500000 -94.660446
v -150.706985 147.500000 -94.660446
v -161.386047 147.500000 -105.339508
v -150.706985 147.500000 -105.339508
v -161.386047 157.500000 -94.660446
v -161.386047 157.500000 -105.339508
v -150.706985 157.500000 -105.339508
v -150.706985 157.500000 -94.660446
v 81.448853 160.000000 -94.793213
v -148.977142 160.000000 -94.793213
v 81.022888 160.000000 -104.793198
v -148.977142 160.000000 -104.793198
v -148.977142 172.500000 -107.293213
v 81.022888 172.500000 -107.293213
v 81.448853 175.000000 -94.793213
v -148.977142 175.000000 -94.793213
v -148.977142 170.000000 -104.793198
v 81.022888 170.000000 -104.793198
v 81.022888 175.000000 -107.293213
v -148.977142 175.000000 -107.293213
v -152.500000 152.500000 -102.706787
v 87.500000 152.500000 -102.706787
v -152.500000 152.500000 -100.206772
v 87.500000 152.500000 -100.206772
v -152.500000 155.000000 -102.706787
v 87.500000 155.000000 -102.706787
v 87.500000 155.000000 -100.206772
v -152.500000 155.000000 -100.206772
v 87.160461 147.500000 -94.660446
v 97.839539 147.500000 -94.660446
v 87.160461 147.500000 -105.339508
v 97.839539 147.500000 -105.339508
v 87.160461 157.500000 -94.660446
v 87.160461 157.500000 -105.339508
v 97.839539 157.500000 -105.339508
v 97.839539 157.500000 -94.660446
v 83.390503 160.000000 -90.890457
v 101.609497 160.000000 -90.890457
v 83.390503 160.000000 -109.109512
v 101.609497 160.000000 -109.109512
v 83.390503 167.500000 -90.890472
v 83.390503 167.500000 -109.109512
v 101.609497 167.500000 -109.109512
v 101.609497 167.500000 -90.890457
v 79.007751 172.500000 -86.507721
v 79.007751 172.500000 -113.492264
v 105.992249 172.500000 -113.492264
v 105.992249 172.500000 -86.507721
v 84.866699 157.500000 -107.633286
v 100.133240 157.500000 -107.633286
v 100.133240 157.500000 -92.366684
v 84.866699 157.500000 -92.366684
v 79.007751 175.000000 -86.507721
v 79.007751 175.000000 -113.492264
v 105.992249 175.000000 -113.492264
v 105.992249 175.000000 -86.507721
v 96.063110 52.500000 -101.913727
v 94.584442 52.500000 -103.392395
v 92.564514 52.500000 -103.933624
v 90.544617 52.500000 -103.392395
v 89.065979 52.500000 -101.913727
v 88.524719 52.500000 -99.893814
v 89.065979 52.500000 -97.873917
v 90.544617 52.500000 -96.395248
v 92.564514 52.500000 -95.854019
v 94.584442 52.500000 -96.395248
v 96.063110 52.500000 -97.873917
v 96.604340 52.500000 -99.893814
v 96.063110 147.500000 -101.913727
v 94.584442 147.500000 -103.392395
v 92.564514 147.500000 -103.933624
v 90.544617 147.500000 -103.392395
v 89.065979 147.500000 -101.913727
v 88.524719 147.500000 -99.893814
v 89.065979 147.500000 -97.873917
v 90.544617 147.500000 -96.395248
v 92.564514 147.500000 -95.854019
v 94.584442 147.500000 -96.395248
v 96.063110 147.500000 -97.873917
v 96.604340 147.500000 -99.893814
v 86.495117 -72.190857 -93.614868
v 98.947571 -72.190857 -93.614868
v 84.560608 28.839493 -91.680359
v 100.882141 28.839493 -91.680359
v 84.560608 28.839493 -108.001892
v 100.882141 28.839493 -108.001892
v 86.495117 -72.190857 -106.067383
v 98.947571 -72.190857 -106.067383
v 86.495117 27.231140 -93.614868
v 86.495117 27.231140 -106.067383
v 98.947571 27.231140 -106.067383
v 98.947571 27.231140 -93.614868
v 86.796204 30.666016 -93.915955
v 98.646545 30.666016 -93.915955
v 98.646545 30.666016 -105.766296
v 86.796204 30.666016 -105.766296
v 87.569153 50.000000 -94.688904
v 97.873596 50.000000 -94.688904
v 97.873596 50.000000 -104.993347
v 87.569153 50.000000 -104.993347
v 88.384827 52.500000 -95.504562
v 97.057922 52.500000 -95.504562
v 97.057922 52.500000 -104.177689
v 88.384827 52.500000 -104.177689
v 88.546570 -84.575096 -104.015930
v 96.896118 -84.575096 -104.015930
v 96.896118 -84.575096 -95.666321
v 88.546570 -84.575096 -95.666321
v 85.736694 -93.656082 -106.825790
v 99.705994 -93.656082 -106.825790
v 99.705994 -93.656082 -92.856461
v 85.736694 -93.656082 -92.856461
v 87.700134 -99.645004 -104.862350
v 97.742554 -99.645004 -104.862350
v 97.742554 -99.645004 -94.819901
v 87.700134 -99.645004 -94.819901
v 100.206787 160.000000 -104.999969
v 100.206787 160.000000 105.000046
v 90.206787 160.000000 -104.999969
v 90.206787 160.000000 105.000046
v 87.706787 172.500000 105.000046
v 87.706787 172.500000 -104.999969
v 100.206787 175.000000 -104.999969
v 100.206787 175.000000 105.000046
v 90.206787 170.000000 105.000046
v 90.206787 170.000000 -104.999969
v 87.706787 175.000000 -104.999969
v 87.706787 175.000000 105.000046
v -147.925980 160.000000 95.000031
v 82.500031 160.000000 95.000031
v -147.500000 160.000000 105.000015
v 82.500031 160.000000 105.000015
v 82.500031 172.500000 107.500031
v -147.500000 172.500000 107.500031
v -147.925980 175.000000 95.000031
v 82.500031 175.000000 95.000031
v 82.500031 170.000000 105.000015
v -147.500000 170.000000 105.000015
v -147.500000 175.000000 107.500031
v 82.500031 175.000000 107.500031
v -152.500000 152.500000 100.000015
v 87.500000 152.500000 100.000015
v -152.500000 152.500000 102.500015
v 87.500000 152.500000 102.500015
v -152.500000 155.000000 100.000015
v 87.500000 155.000000 100.000015
v 87.500000 155.000000 102.500015
v -152.500000 155.000000 102.500015
v 87.160461 147.500000 105.339539
v 97.839539 147.500000 105.339539
v 87.160461 147.500000 94.660477
v 97.839539 147.500000 94.660477
v 87.160461 157.500000 105.339539
v 87.160461 157.500000 94.660477
v 97.839539 157.500000 94.660477
v 97.839539 157.500000 105.339539
v 95.206787 152.500000 -104.999969
v 95.206787 152.500000 105.000046
v 92.706787 152.500000 -104.999969
v 92.706787 152.500000 105.000046
v 95.206787 155.000000 -104.999969
v 95.206787 155.000000 105.000046
v 92.706787 155.000000 105.000046
v 92.706787 155.000000 -104.999969
v -155.000000 -70.000000 100.000015
v 95.000000 -70.000000 100.000015
v -155.000000 -70.000000 -99.999985
v 95.000000 -70.000000 -99.999985
v -155.000000 -45.922905 100.000015
v -152.092133 -43.015038 97.092133
v 95.000000 -43.015038 97.092133
v 95.000000 -45.922905 100.000015
v -152.092133 -43.015038 -97.092117
v -155.000000 -45.922905 -99.999985
v 95.000000 -45.922905 -99.999985
v 95.000000 -43.015038 -97.092117
v 89.441376 -43.015038 92.723724
v -146.533493 -43.015038 92.723724
v 89.441376 -43.015038 -92.723694
v -146.533493 -43.015038 -92.723694
vt 0.205388 0.897309
vt 0.270754 0.897269
vt 0.270770 0.924177
vt 0.205404 0.924217
vt 0.140038 0.924258
vt 0.074673 0.924298
vt 0.074656 0.897390
vt 0.140022 0.897349
vt 0.145312 0.886930
vt 0.145278 0.832157
vt 0.200051 0.832123
vt 0.200085 0.886896
vt 0.336120 0.897229
vt 0.336136 0.924137
vt 0.105083 0.933394
vt 0.164991 0.933285
vt 0.179442 0.955122
vt 0.090712 0.955283
vt 0.016353 0.933556
vt 0.076261 0.933447
vt 0.001982 0.955445
vt 0.282544 0.933071
vt 0.342451 0.932962
vt 0.356903 0.954798
vt 0.268172 0.954960
vt 0.193814 0.933233
vt 0.253721 0.933123
vt 0.079946 0.886970
vt 0.134719 0.886936
vt 0.276044 0.886849
vt 0.330817 0.886816
vt 0.210678 0.886889
vt 0.265451 0.886856
vt 0.179457 0.963342
vt 0.090727 0.963504
vt 0.001997 0.963666
vt 0.356918 0.963019
vt 0.268187 0.963180
vt 0.573376 0.647388
vt 0.573335 0.696430
vt 0.527413 0.696392
vt 0.527453 0.647350
vt 0.527494 0.598309
vt 0.527535 0.549268
vt 0.573457 0.549306
vt 0.573417 0.598347
vt 0.622458 0.598388
vt 0.622417 0.647429
vt 0.573295 0.745471
vt 0.527372 0.745433
vt 0.099761 0.881608
vt 0.091577 0.881608
vt 0.091577 0.509792
vt 0.099761 0.509792
vt 0.083392 0.881608
vt 0.083392 0.509792
vt 0.075208 0.881608
vt 0.075208 0.509792
vt 0.067023 0.881608
vt 0.067023 0.509792
vt 0.058839 0.881608
vt 0.058839 0.509792
vt 0.050654 0.881608
vt 0.050654 0.509792
vt 0.042470 0.881608
vt 0.042470 0.509792
vt 0.034286 0.881608
vt 0.034286 0.509792
vt 0.026101 0.881608
vt 0.026101 0.509792
vt 0.017917 0.881608
vt 0.017917 0.509792
vt 0.009732 0.881608
vt 0.009732 0.509792
vt 0.001548 0.881608
vt 0.001548 0.509792
vt 0.083300 0.099097
vt 0.121712 0.098192
vt 0.124456 0.412938
vt 0.085544 0.411908
vt 0.109501 0.512363
vt 0.138806 0.512363
vt 0.138806 0.541669
vt 0.109501 0.541669
vt 0.046387 0.412925
vt 0.006960 0.414157
vt 0.006437 0.095774
vt 0.045038 0.098619
vt 0.160744 0.095277
vt 0.163504 0.413706
vt 0.084884 0.419040
vt 0.046302 0.419747
vt 0.001432 0.423051
vt 0.169103 0.423386
vt 0.123634 0.420230
vt 0.122519 0.428241
vt 0.084101 0.427442
vt 0.160686 0.432767
vt 0.046434 0.428336
vt 0.009691 0.432783
vt 0.115219 0.488243
vt 0.084528 0.486046
vt 0.144376 0.497525
vt 0.053311 0.487951
vt 0.022067 0.495801
vt 0.112928 0.496247
vt 0.084254 0.494288
vt 0.138657 0.504614
vt 0.055031 0.496123
vt 0.027576 0.503365
vt 0.021635 0.057610
vt 0.050922 0.059235
vt 0.115744 0.057881
vt 0.144717 0.055892
vt 0.083312 0.059453
vt 0.011815 0.024205
vt 0.050877 0.028723
vt 0.117794 0.029376
vt 0.156487 0.026973
vt 0.084387 0.030095
vt 0.021832 0.004989
vt 0.053036 0.009638
vt 0.116747 0.009582
vt 0.148463 0.006111
vt 0.084943 0.010401
vt 0.099761 0.881608
vt 0.091577 0.881608
vt 0.091577 0.509792
vt 0.099761 0.509792
vt 0.083392 0.881608
vt 0.083392 0.509792
vt 0.075208 0.881608
vt 0.075208 0.509792
vt 0.067023 0.881608
vt 0.067023 0.509792
vt 0.058839 0.881608
vt 0.058839 0.509792
vt 0.050654 0.881608
vt 0.050654 0.509792
vt 0.042470 0.881608
vt 0.042470 0.509792
vt 0.034286 0.881608
vt 0.034286 0.509792
vt 0.026101 0.881608
vt 0.026101 0.509792
vt 0.017917 0.881608
vt 0.017917 0.509792
vt 0.009732 0.881608
vt 0.009732 0.509792
vt 0.001548 0.881608
vt 0.001548 0.509792
vt 0.083300 0.099097
vt 0.121712 0.098192
vt 0.124456 0.412938
vt 0.085544 0.411908
vt 0.109501 0.512363
vt 0.138806 0.512363
vt 0.138806 0.541669
vt 0.109501 0.541669
vt 0.046387 0.412925
vt 0.006960 0.414157
vt 0.006437 0.095774
vt 0.045038 0.098619
vt 0.160744 0.095277
vt 0.163504 0.413706
vt 0.084884 0.419040
vt 0.046302 0.419747
vt 0.001432 0.423051
vt 0.169103 0.423386
vt 0.123634 0.420230
vt 0.122519 0.428241
vt 0.084101 0.427442
vt 0.160686 0.432767
vt 0.046434 0.428336
vt 0.009691 0.432783
vt 0.115219 0.488243
vt 0.084528 0.486046
vt 0.144376 0.497525
vt 0.053311 0.487951
vt 0.022067 0.495801
vt 0.112928 0.496247
vt 0.084254 0.494288
vt 0.138657 0.504614
vt 0.055031 0.496123
vt 0.027576 0.503365
vt 0.021635 0.057610
vt 0.050922 0.059235
vt 0.115744 0.057881
vt 0.144717 0.055892
vt 0.083312 0.059453
vt 0.011815 0.024205
vt 0.050877 0.028723
vt 0.117794 0.029376
vt 0.156487 0.026973
vt 0.084387 0.030095
vt 0.021832 0.004989
vt 0.053036 0.009638
vt 0.116747 0.009582
vt 0.148463 0.006111
vt 0.084943 0.010401
vt 0.205388 0.897309
vt 0.270754 0.897269
vt 0.270770 0.924177
vt 0.205404 0.924217
vt 0.140038 0.924258
vt 0.074673 0.924298
vt 0.074656 0.897390
vt 0.140022 0.897349
vt 0.145312 0.886930
vt 0.145278 0.832157
vt 0.200051 0.832123
vt 0.200085 0.886896
vt 0.336120 0.897229
vt 0.336136 0.924137
vt 0.105083 0.933394
vt 0.164991 0.933285
vt 0.179442 0.955122
vt 0.090712 0.955283
vt 0.016353 0.933556
vt 0.076261 0.933447
vt 0.001982 0.955445
vt 0.282544 0.933071
vt 0.342451 0.932962
vt 0.356903 0.954798
vt 0.268172 0.954960
vt 0.193814 0.933233
vt 0.253721 0.933123
vt 0.079946 0.886970
vt 0.134719 0.886936
vt 0.276044 0.886849
vt 0.330817 0.886816
vt 0.210678 0.886889
vt 0.265451 0.886856
vt 0.179457 0.963342
vt 0.090727 0.963504
vt 0.001997 0.963666
vt 0.356918 0.963019
vt 0.268187 0.963180
vt 0.311004 0.579635
vt 0.311010 0.584754
vt 0.288770 0.579657
vt 0.287358 0.584779
vt 0.260921 0.579475
vt 0.259509 0.584597
vt 0.233307 0.579314
vt 0.231895 0.584437
vt 0.206264 0.579334
vt 0.204851 0.584457
vt 0.176404 0.579385
vt 0.174991 0.584507
vt 0.160468 0.579323
vt 0.159055 0.584446
vt 0.146146 0.579166
vt 0.146083 0.584285
vt 0.130262 0.584089
vt 0.130327 0.578870
vt 0.312856 0.743525
vt 0.312856 0.752004
vt 0.289922 0.741916
vt 0.286307 0.749244
vt 0.254029 0.741031
vt 0.258304 0.733860
vt 0.222020 0.733192
vt 0.224343 0.725690
vt 0.190056 0.729412
vt 0.191288 0.721755
vt 0.154515 0.724075
vt 0.154380 0.731711
vt 0.135018 0.727972
vt 0.135265 0.735020
vt 0.121848 0.723237
vt 0.118272 0.729241
vt 0.114227 0.711963
vt 0.107655 0.712548
vt 0.312856 0.588873
vt 0.115185 0.588191
vt 0.108512 0.588161
vt 0.105008 0.578655
vt 0.104945 0.583775
vt 0.333239 0.579613
vt 0.334661 0.584732
vt 0.361088 0.579377
vt 0.362510 0.584496
vt 0.388701 0.579161
vt 0.390124 0.584282
vt 0.415745 0.579127
vt 0.417167 0.584248
vt 0.445605 0.579120
vt 0.447027 0.584239
vt 0.461540 0.579026
vt 0.462963 0.584146
vt 0.475862 0.578841
vt 0.475935 0.583960
vt 0.491755 0.583733
vt 0.491680 0.578514
vt 0.339405 0.749244
vt 0.335790 0.741916
vt 0.371683 0.741031
vt 0.367408 0.733860
vt 0.403692 0.733192
vt 0.401369 0.725690
vt 0.435656 0.729412
vt 0.434424 0.721755
vt 0.471332 0.731711
vt 0.471197 0.724075
vt 0.490447 0.735020
vt 0.490694 0.727972
vt 0.503864 0.723237
vt 0.507441 0.729241
vt 0.518057 0.712548
vt 0.511485 0.711963
vt 0.510527 0.588191
vt 0.517200 0.588161
vt 0.516999 0.578249
vt 0.517072 0.583369
vt 0.083300 0.099097
vt 0.121712 0.098192
vt 0.124456 0.412938
vt 0.085544 0.411908
vt 0.109501 0.512363
vt 0.138806 0.512363
vt 0.138806 0.541669
vt 0.109501 0.541669
vt 0.046387 0.412925
vt 0.006960 0.414157
vt 0.006437 0.095774
vt 0.045038 0.098619
vt 0.160744 0.095277
vt 0.163504 0.413706
vt 0.084884 0.419040
vt 0.046302 0.419747
vt 0.001432 0.423051
vt 0.169103 0.423386
vt 0.123634 0.420230
vt 0.122519 0.428241
vt 0.084101 0.427442
vt 0.160686 0.432767
vt 0.046434 0.428336
vt 0.009691 0.432783
vt 0.115219 0.488243
vt 0.084528 0.486046
vt 0.144376 0.497525
vt 0.053311 0.487951
vt 0.022067 0.495801
vt 0.112928 0.496247
vt 0.084254 0.494288
vt 0.138657 0.504614
vt 0.055031 0.496123
vt 0.027576 0.503365
vt 0.021635 0.057610
vt 0.050922 0.059235
vt 0.115744 0.057881
vt 0.144717 0.055892
vt 0.083312 0.059453
vt 0.011815 0.024205
vt 0.050877 0.028723
vt 0.117794 0.029376
vt 0.156487 0.026973
vt 0.084387 0.030095
vt 0.021832 0.004989
vt 0.053036 0.009638
vt 0.116747 0.009582
vt 0.148463 0.006111
vt 0.084943 0.010401
vt 0.099761 0.881608
vt 0.091577 0.881608
vt 0.091577 0.509792
vt 0.099761 0.509792
vt 0.083392 0.881608
vt 0.083392 0.509792
vt 0.075208 0.881608
vt 0.075208 0.509792
vt 0.067023 0.881608
vt 0.067023 0.509792
vt 0.058839 0.881608
vt 0.058839 0.509792
vt 0.050654 0.881608
vt 0.050654 0.509792
vt 0.042470 0.881608
vt 0.042470 0.509792
vt 0.034286 0.881608
vt 0.034286 0.509792
vt 0.026101 0.881608
vt 0.026101 0.509792
vt 0.017917 0.881608
vt 0.017917 0.509792
vt 0.009732 0.881608
vt 0.009732 0.509792
vt 0.001548 0.881608
vt 0.001548 0.509792
vt 0.205388 0.897309
vt 0.270754 0.897269
vt 0.270770 0.924177
vt 0.205404 0.924217
vt 0.140038 0.924258
vt 0.074673 0.924298
vt 0.074656 0.897390
vt 0.140022 0.897349
vt 0.145312 0.886930
vt 0.145278 0.832157
vt 0.200051 0.832123
vt 0.200085 0.886896
vt 0.336120 0.897229
vt 0.336136 0.924137
vt 0.105083 0.933394
vt 0.164991 0.933285
vt 0.179442 0.955122
vt 0.090712 0.955283
vt 0.016353 0.933556
vt 0.076261 0.933447
vt 0.001982 0.955445
vt 0.282544 0.933071
vt 0.342451 0.932962
vt 0.356903 0.954798
vt 0.268172 0.954960
vt 0.193814 0.933233
vt 0.253721 0.933123
vt 0.079946 0.886970
vt 0.134719 0.886936
vt 0.276044 0.886849
vt 0.330817 0.886816
vt 0.210678 0.886889
vt 0.265451 0.886856
vt 0.179457 0.963342
vt 0.090727 0.963504
vt 0.001997 0.963666
vt 0.356918 0.963019
vt 0.268187 0.963180
vt 0.356312 0.980155
vt 0.001132 0.980850
vt 0.001124 0.977072
vt 0.356305 0.976376
vt 0.356319 0.983933
vt 0.001139 0.984629
vt 0.356327 0.987712
vt 0.001147 0.988407
vt 0.360271 0.952139
vt 0.998413 0.952087
vt 0.998415 0.979833
vt 0.360273 0.979885
vt 0.359087 0.924394
vt 0.998411 0.924342
vt 0.359084 0.882776
vt 0.998408 0.882724
vt 0.998416 0.989642
vt 0.360274 0.989694
vt 0.998417 0.996578
vt 0.360275 0.996630
vt 0.573376 0.647388
vt 0.573335 0.696430
vt 0.527413 0.696392
vt 0.527453 0.647350
vt 0.527494 0.598309
vt 0.527535 0.549268
vt 0.573457 0.549306
vt 0.573417 0.598347
vt 0.622458 0.598388
vt 0.622417 0.647429
vt 0.573295 0.745471
vt 0.527372 0.745433
vt 0.360271 0.952139
vt 0.998413 0.952087
vt 0.998415 0.979833
vt 0.360273 0.979885
vt 0.359087 0.924394
vt 0.998411 0.924342
vt 0.359084 0.882776
vt 0.998408 0.882724
vt 0.998416 0.989642
vt 0.360274 0.989694
vt 0.998417 0.996578
vt 0.360275 0.996630
vt 0.356312 0.980155
vt 0.001132 0.980850
vt 0.001124 0.977072
vt 0.356305 0.976376
vt 0.356319 0.983933
vt 0.001139 0.984629
vt 0.356327 0.987712
vt 0.001147 0.988407
vt 0.573376 0.647388
vt 0.573335 0.696430
vt 0.527413 0.696392
vt 0.527453 0.647350
vt 0.527494 0.598309
vt 0.527535 0.549268
vt 0.573457 0.549306
vt 0.573417 0.598347
vt 0.622458 0.598388
vt 0.622417 0.647429
vt 0.573295 0.745471
vt 0.527372 0.745433
vt 0.205388 0.897309
vt 0.270754 0.897269
vt 0.270770 0.924177
vt 0.205404 0.924217
vt 0.140038 0.924258
vt 0.074673 0.924298
vt 0.074656 0.897390
vt 0.140022 0.897349
vt 0.145312 0.886930
vt 0.145278 0.832157
vt 0.200051 0.832123
vt 0.200085 0.886896
vt 0.336120 0.897229
vt 0.336136 0.924137
vt 0.105083 0.933394
vt 0.164991 0.933285
vt 0.179442 0.955122
vt 0.090712 0.955283
vt 0.016353 0.933556
vt 0.076261 0.933447
vt 0.001982 0.955445
vt 0.282544 0.933071
vt 0.342451 0.932962
vt 0.356903 0.954798
vt 0.268172 0.954960
vt 0.193814 0.933233
vt 0.253721 0.933123
vt 0.079946 0.886970
vt 0.134719 0.886936
vt 0.276044 0.886849
vt 0.330817 0.886816
vt 0.210678 0.886889
vt 0.265451 0.886856
vt 0.179457 0.963342
vt 0.090727 0.963504
vt 0.001997 0.963666
vt 0.356918 0.963019
vt 0.268187 0.963180
vt 0.099761 0.881608
vt 0.091577 0.881608
vt 0.091577 0.509792
vt 0.099761 0.509792
vt 0.083392 0.881608
vt 0.083392 0.509792
vt 0.075208 0.881608
vt 0.075208 0.509792
vt 0.067023 0.881608
vt 0.067023 0.509792
vt 0.058839 0.881608
vt 0.058839 0.509792
vt 0.050654 0.881608
vt 0.050654 0.509792
vt 0.042470 0.881608
vt 0.042470 0.509792
vt 0.034286 0.881608
vt 0.034286 0.509792
vt 0.026101 0.881608
vt 0.026101 0.509792
vt 0.017917 0.881608
vt 0.017917 0.509792
vt 0.009732 0.881608
vt 0.009732 0.509792
vt 0.001548 0.881608
vt 0.001548 0.509792
vt 0.083300 0.099097
vt 0.121712 0.098192
vt 0.124456 0.412938
vt 0.085544 0.411908
vt 0.109501 0.512363
vt 0.138806 0.512363
vt 0.138806 0.541669
vt 0.109501 0.541669
vt 0.046387 0.412925
vt 0.006960 0.414157
vt 0.006437 0.095774
vt 0.045038 0.098619
vt 0.160744 0.095277
vt 0.163504 0.413706
vt 0.084884 0.419040
vt 0.046302 0.419747
vt 0.001432 0.423051
vt 0.169103 0.423386
vt 0.123634 0.420230
vt 0.122519 0.428241
vt 0.084101 0.427442
vt 0.160686 0.432767
vt 0.046434 0.428336
vt 0.009691 0.432783
vt 0.115219 0.488243
vt 0.084528 0.486046
vt 0.144376 0.497525
vt 0.053311 0.487951
vt 0.022067 0.495801
vt 0.112928 0.496247
vt 0.084254 0.494288
vt 0.138657 0.504614
vt 0.055031 0.496123
vt 0.027576 0.503365
vt 0.021635 0.057610
vt 0.050922 0.059235
vt 0.115744 0.057881
vt 0.144717 0.055892
vt 0.083312 0.059453
vt 0.011815 0.024205
vt 0.050877 0.028723
vt 0.117794 0.029376
vt 0.156487 0.026973
vt 0.084387 0.030095
vt 0.021832 0.004989
vt 0.053036 0.009638
vt 0.116747 0.009582
vt 0.148463 0.006111
vt 0.084943 0.010401
vt 0.360271 0.952139
vt 0.998413 0.952087
vt 0.998415 0.979833
vt 0.360273 0.979885
vt 0.359087 0.924394
vt 0.998411 0.924342
vt 0.359084 0.882776
vt 0.998408 0.882724
vt 0.998416 0.989642
vt 0.360274 0.989694
vt 0.998417 0.996578
vt 0.360275 0.996630
vt 0.360271 0.952139
vt 0.998413 0.952087
vt 0.998415 0.979833
vt 0.360273 0.979885
vt 0.359087 0.924394
vt 0.998411 0.924342
vt 0.359084 0.882776
vt 0.998408 0.882724
vt 0.998416 0.989642
vt 0.360274 0.989694
vt 0.998417 0.996578
vt 0.360275 0.996630
vt 0.356312 0.980155
vt 0.001132 0.980850
vt 0.001124 0.977072
vt 0.356305 0.976376
vt 0.356319 0.983933
vt 0.001139 0.984629
vt 0.356327 0.987712
vt 0.001147 0.988407
vt 0.573376 0.647388
vt 0.573335 0.696430
vt 0.527413 0.696392
vt 0.527453 0.647350
vt 0.527494 0.598309
vt 0.527535 0.549268
vt 0.573457 0.549306
vt 0.573417 0.598347
vt 0.622458 0.598388
vt 0.622417 0.647429
vt 0.573295 0.745471
vt 0.527372 0.745433
vt 0.356312 0.980155
vt 0.001132 0.980850
vt 0.001124 0.977072
vt 0.356305 0.976376
vt 0.356319 0.983933
vt 0.001139 0.984629
vt 0.356327 0.987712
vt 0.001147 0.988407
vt 0.361850 0.129128
vt 0.370920 0.135542
vt 0.370920 0.563852
vt 0.361850 0.570266
vt 0.397197 0.564203
vt 0.388623 0.570266
vt 0.388613 0.049008
vt 0.397187 0.049007
vt 0.370931 0.049007
vt 0.379505 0.055071
vt 0.379495 0.570266
vt 0.370920 0.570266
vt 0.200216 0.570266
vt 0.200216 0.006828
vt 0.254480 0.006828
vt 0.254480 0.570266
vt 0.308743 0.006829
vt 0.308743 0.570266
vt 0.254480 0.570266
vt 0.254480 0.006829
vt 0.308743 0.570266
vt 0.308743 0.129128
vt 0.406296 0.060597
vt 0.406305 0.552613
vt 0.388613 0.066661
vt 0.388603 0.558676
vt 0.406305 0.570266
vt 0.406305 0.132621
vt 0.418833 0.142467
vt 0.418833 0.560421
vn -0.000000 0.000001 1.000000
vn -0.000000 0.000001 1.000000
vn -0.000000 0.000001 1.000000
vn -0.000000 0.000001 1.000000
vn 0.000000 0.000000 -1.000000
vn 0.000000 0.000000 -1.000000
vn 0.000000 0.000000 -1.000000
vn 0.000000 0.000000 -1.000000
vn 0.000000 -1.000000 0.000000
vn 0.000000 -1.000000 0.000000
vn 0.000000 -1.000000 0.000000
vn 0.000000 -1.000000 0.000000
vn 1.000000 0.000000 0.000000
vn 1.000000 0.000000 0.000000
vn 1.000000 0.000000 0.000000
vn 1.000000 0.000000 0.000000
vn -1.000000 0.000002 0.000000
vn -1.000000 0.000002 0.000000
vn -1.000000 0.000002 0.000000
vn -1.000000 0.000002 0.000000
vn -0.751998 -0.659165 0.000000
vn -0.751998 -0.659165 0.000000
vn -0.751999 -0.659165 0.000000
vn -0.751999 -0.659165 0.000000
vn 0.000000 -0.659165 -0.751999
vn 0.000000 -0.659165 -0.751999
vn 0.000000 -0.659165 -0.751999
vn 0.000000 -0.659165 -0.751999
vn 0.751999 -0.659164 0.000000
vn 0.751999 -0.659164 0.000000
vn 0.751999 -0.659164 0.000000
vn 0.751999 -0.659164 0.000000
vn 0.000000 -0.659164 0.751999
vn 0.000000 -0.659164 0.751999
vn 0.000000 -0.659164 0.751999
vn 0.000000 -0.659164 0.751999
vn 0.000000 -0.508464 -0.861083
vn 0.000000 -0.508464 -0.861083
vn 0.000000 -0.508464 -0.861083
vn 0.000000 -0.508464 -0.861083
vn 0.861079 -0.508472 0.000000
vn 0.861079 -0.508472 0.000000
vn 0.861079 -0.508472 0.000000
vn 0.861079 -0.508472 0.000000
vn 0.000000 -0.508464 0.861083
vn 0.000000 -0.508464 0.861083
vn 0.000000 -0.508464 0.861084
vn 0.000000 -0.508464 0.861083
vn -0.861082 -0.508466 0.000000
vn -0.861082 -0.508466 0.000000
vn -0.861082 -0.508466 0.000000
vn -0.861082 -0.508466 0.000000
vn -1.000000 0.000000 0.000000
vn -1.000000 0.000000 0.000000
vn -1.000000 0.000000 0.000000
vn -1.000000 0.000000 0.000000
vn 0.000000 0.000000 -1.000000
vn 0.000000 0.000000 -1.000000
vn 0.000000 0.000000 -1.000000
vn 0.000000 0.000000 -1.000000
vn 1.000000 0.000000 0.000000
vn 1.000000 0.000000 0.000000
vn 1.000000 0.000000 0.000000
vn 1.000000 0.000000 0.000000
vn 0.000000 0.000000 1.000000
vn 0.000000 0.000000 1.000000
vn 0.000000 0.000000 1.000000
vn 0.000000 0.000000 1.000000
vn 0.000000 0.000000 1.000000
vn 0.000000 0.000000 1.000000
vn 0.000000 0.000000 1.000000
vn 0.000000 0.000000 1.000000
vn 0.000000 0.000000 -1.000000
vn 0.000000 0.000000 -1.000000
vn 0.000000 0.000000 -1.000000
vn 0.000000 0.000000 -1.000000
vn 0.000000 -1.000000 0.000000
vn 0.000000 -1.000000 0.000000
vn 0.000000 -1.000000 0.000000
vn 0.000000 -1.000000 0.000000
vn 1.000000 0.000000 0.000000
vn 1.000000 0.000000 0.000000
vn 1.000000 0.000000 0.000000
vn 1.000000 0.000000 0.000000
vn -1.000000 0.000000 0.000000
vn -1.000000 0.000000 0.000000
vn -1.000000 0.000000 0.000000
vn -1.000000 0.000000 0.000000
vn 0.866026 0.000000 -0.499998
vn 0.499997 0.000000 -0.866027
vn 0.499997 0.000000 -0.866027
vn 0.866026 0.000000 -0.499998
vn -0.000000 0.000000 -1.000000
vn -0.000000 0.000000 -1.000000
vn -0.499999 0.000000 -0.866026
vn -0.499999 0.000000 -0.866026
vn -0.866026 0.000000 -0.499998
vn -0.866026 0.000000 -0.499998
vn -1.000000 0.000000 0.000000
vn -1.000000 0.000000 0.000000
vn -0.866026 0.000000 0.499999
vn -0.866026 0.000000 0.499999
vn -0.500001 0.000000 0.866025
vn -0.500001 0.000000 0.866025
vn 0.000000 0.000000 1.000000
vn 0.000000 0.000000 1.000000
vn 0.499999 0.000000 0.866026
vn 0.499999 0.000000 0.866026
vn 0.866026 0.000000 0.499999
vn 0.866026 0.000000 0.499999
vn 1.000000 0.000000 0.000000
vn 1.000000 0.000000 0.000000
vn 0.000000 0.000000 1.000000
vn 0.000000 0.000000 1.000000
vn 0.000000 -0.031025 0.999519
vn 0.000000 -0.031025 0.999519
vn 0.000000 1.000000 0.000000
vn 0.000000 1.000000 0.000000
vn 0.000000 1.000000 0.000000
vn 0.000000 1.000000 0.000000
vn 0.000000 -0.031025 -0.999519
vn 0.000000 -0.031025 -0.999519
vn 0.000000 0.000000 -1.000000
vn 0.000000 0.000000 -1.000000
vn 1.000000 0.000000 0.000000
vn 1.000000 0.000000 0.000000
vn 0.999519 -0.031025 0.000000
vn 0.999519 -0.031025 0.000000
vn -1.000000 0.000000 0.000000
vn -1.000000 0.000000 0.000000
vn -0.999519 -0.031024 0.000000
vn -0.999519 -0.031024 0.000000
vn -0.639309 -0.768950 0.000000
vn -0.639309 -0.768950 0.000000
vn 0.000000 -0.768952 -0.639307
vn 0.000000 -0.768952 -0.639307
vn 0.639301 -0.768957 0.000000
vn 0.639301 -0.768957 0.000000
vn 0.000000 -0.768952 0.639307
vn 0.000000 -0.768952 0.639307
vn 0.000000 0.774398 0.632698
vn 0.000000 0.774398 0.632698
vn 0.000000 0.774398 0.632698
vn 0.000000 0.774398 0.632698
vn 0.632696 0.774400 0.000000
vn 0.632696 0.774400 0.000000
vn 0.632696 0.774400 0.000000
vn 0.632696 0.774400 0.000000
vn 0.000000 0.774398 -0.632698
vn 0.000000 0.774398 -0.632698
vn 0.000000 0.774398 -0.632698
vn 0.000000 0.774398 -0.632698
vn -0.632698 0.774399 0.000000
vn -0.632698 0.774399 0.000000
vn -0.632698 0.774399 0.000000
vn -0.632698 0.774399 0.000000
vn 0.000000 0.039947 0.999202
vn 0.000000 0.039947 0.999202
vn 0.000000 0.039947 0.999202
vn 0.000000 0.039947 0.999202
vn 0.999202 0.039945 0.000000
vn 0.999202 0.039945 0.000000
vn 0.999202 0.039945 0.000000
vn 0.999202 0.039945 0.000000
vn 0.000000 0.039947 -0.999202
vn 0.000000 0.039947 -0.999202
vn 0.000000 0.039947 -0.999202
vn 0.000000 0.039947 -0.999202
vn -0.999202 0.039947 0.000000
vn -0.999202 0.039947 0.000000
vn -0.999202 0.039947 0.000000
vn -0.999202 0.039947 0.000000
vn 0.000000 0.310172 0.950680
vn 0.000000 0.310172 0.950680
vn 0.000000 0.310172 0.950680
vn 0.000000 0.310172 0.950680
vn 0.950678 0.310180 0.000000
vn 0.950678 0.310180 0.000000
vn 0.950678 0.310180 0.000000
vn 0.950678 0.310180 0.000000
vn 0.000000 0.310172 -0.950680
vn 0.000000 0.310172 -0.950680
vn 0.000000 0.310172 -0.950680
vn 0.000000 0.310172 -0.950680
vn -0.950680 0.310175 0.000000
vn -0.950680 0.310175 0.000000
vn -0.950680 0.310175 0.000000
vn -0.950680 0.310175 0.000000
vn 0.000000 -0.163423 -0.986556
vn 0.000000 -0.163423 -0.986556
vn 0.000000 -0.163423 -0.986556
vn 0.000000 -0.163423 -0.986556
vn 0.986556 -0.163424 0.000000
vn 0.986556 -0.163424 0.000000
vn 0.986556 -0.163424 0.000000
vn 0.986556 -0.163424 0.000000
vn 0.000000 -0.163423 0.986556
vn 0.000000 -0.163423 0.986556
vn 0.000000 -0.163423 0.986556
vn 0.000000 -0.163423 0.986556
vn -0.986556 -0.163424 0.000000
vn -0.986556 -0.163424 0.000000
vn -0.986556 -0.163424 0.000000
vn -0.986556 -0.163424 0.000000
vn 0.000000 0.295595 -0.955313
vn 0.000000 0.295595 -0.955313
vn 0.000000 0.046647 -0.998911
vn 0.000000 0.046647 -0.998911
vn 0.955313 0.295595 0.000000
vn 0.955313 0.295595 0.000000
vn 0.998911 0.046646 0.000000
vn 0.998911 0.046646 0.000000
vn 0.000000 0.295595 0.955313
vn 0.000000 0.295595 0.955313
vn 0.000000 0.046647 0.998911
vn 0.000000 0.046647 0.998911
vn -0.955314 0.295594 0.000000
vn -0.955314 0.295594 0.000000
vn -0.998912 0.046645 0.000000
vn -0.998912 0.046645 0.000000
vn 0.000000 -0.311530 -0.950236
vn 0.000000 -0.311530 -0.950236
vn 0.950236 -0.311531 0.000000
vn 0.950236 -0.311531 0.000000
vn 0.000000 -0.311530 0.950236
vn 0.000000 -0.311530 0.950236
vn -0.950236 -0.311531 0.000000
vn -0.950236 -0.311531 0.000000
vn 0.866026 0.000000 -0.499998
vn 0.499995 0.000000 -0.866028
vn 0.499995 0.000000 -0.866028
vn 0.866026 0.000000 -0.499998
vn -0.000000 0.000000 -1.000000
vn -0.000000 0.000000 -1.000000
vn -0.500002 0.000000 -0.866024
vn -0.500002 0.000000 -0.866024
vn -0.866026 0.000000 -0.499998
vn -0.866026 0.000000 -0.499998
vn -1.000000 0.000000 0.000000
vn -1.000000 0.000000 0.000000
vn -0.866026 0.000000 0.499999
vn -0.866026 0.000000 0.499999
vn -0.500004 0.000000 0.866023
vn -0.500004 0.000000 0.866023
vn -0.000000 0.000000 1.000000
vn -0.000000 0.000000 1.000000
vn 0.499997 0.000000 0.866027
vn 0.499997 0.000000 0.866027
vn 0.866026 0.000000 0.499999
vn 0.866026 0.000000 0.499999
vn 1.000000 0.000000 0.000000
vn 1.000000 0.000000 0.000000
vn 0.000000 0.000000 1.000000
vn 0.000000 0.000000 1.000000
vn 0.000000 -0.031025 0.999519
vn 0.000000 -0.031025 0.999519
vn 0.000000 1.000000 0.000000
vn 0.000000 1.000000 0.000000
vn 0.000000 1.000000 0.000000
vn 0.000000 1.000000 0.000000
vn 0.000000 -0.031025 -0.999519
vn 0.000000 -0.031025 -0.999519
vn 0.000000 0.000000 -1.000000
vn 0.000000 0.000000 -1.000000
vn 1.000000 0.000000 0.000000
vn 1.000000 0.000000 0.000000
vn 0.999519 -0.031025 0.000000
vn 0.999519 -0.031025 0.000000
vn -1.000000 0.000000 0.000000
vn -1.000000 0.000000 0.000000
vn -0.999519 -0.031024 0.000000
vn -0.999519 -0.031024 0.000000
vn -0.639308 -0.768951 0.000000
vn -0.639308 -0.768951 0.000000
vn 0.000000 -0.768952 -0.639307
vn 0.000000 -0.768952 -0.639307
vn 0.639296 -0.768961 0.000000
vn 0.639296 -0.768961 0.000000
vn 0.000000 -0.768952 0.639307
vn 0.000000 -0.768952 0.639307
vn 0.000000 0.774398 0.632698
vn 0.000000 0.774398 0.632698
vn 0.000000 0.774398 0.632698
vn 0.000000 0.774398 0.632698
vn 0.632697 0.774400 0.000000
vn 0.632697 0.774400 0.000000
vn 0.632697 0.774400 0.000000
vn 0.632697 0.774400 0.000000
vn 0.000000 0.774398 -0.632698
vn 0.000000 0.774398 -0.632698
vn 0.000000 0.774398 -0.632698
vn 0.000000 0.774398 -0.632698
vn -0.632699 0.774398 0.000000
vn -0.632699 0.774398 0.000000
vn -0.632699 0.774398 0.000000
vn -0.632699 0.774398 0.000000
vn 0.000000 0.039947 0.999202
vn 0.000000 0.039947 0.999202
vn 0.000000 0.039947 0.999202
vn 0.000000 0.039947 0.999202
vn 0.999202 0.039947 0.000000
vn 0.999202 0.039947 0.000000
vn 0.999202 0.039947 0.000000
vn 0.999202 0.039947 0.000000
vn 0.000000 0.039947 -0.999202
vn 0.000000 0.039947 -0.999202
vn 0.000000 0.039947 -0.999202
vn 0.000000 0.039947 -0.999202
vn -0.999202 0.039947 0.000000
vn -0.999202 0.039947 0.000000
vn -0.999202 0.039947 0.000000
vn -0.999202 0.039947 0.000000
vn 0.000000 0.310172 0.950680
vn 0.000000 0.310172 0.950680
vn 0.000000 0.310172 0.950680
vn 0.000000 0.310172 0.950680
vn 0.950679 0.310177 0.000000
vn 0.950679 0.310177 0.000000
vn 0.950679 0.310177 0.000000
vn 0.950679 0.310177 0.000000
vn 0.000000 0.310172 -0.950680
vn 0.000000 0.310172 -0.950680
vn 0.000000 0.310172 -0.950680
vn 0.000000 0.310172 -0.950680
vn -0.950678 0.310178 0.000000
vn -0.950678 0.310178 0.000000
vn -0.950678 0.310178 0.000000
vn -0.950678 0.310178 0.000000
vn 0.000000 -0.163423 -0.986556
vn 0.000000 -0.163423 -0.986556
vn 0.000000 -0.163423 -0.986556
vn 0.000000 -0.163423 -0.986556
vn 0.986556 -0.163424 0.000000
vn 0.986556 -0.163424 0.000000
vn 0.986556 -0.163424 0.000000
vn 0.986556 -0.163424 0.000000
vn 0.000000 -0.163423 0.986556
vn 0.000000 -0.163423 0.986556
vn 0.000000 -0.163423 0.986556
vn 0.000000 -0.163423 0.986556
vn -0.986556 -0.163424 0.000000
vn -0.986556 -0.163424 0.000000
vn -0.986556 -0.163424 0.000000
vn -0.986556 -0.163424 0.000000
vn 0.000000 0.295595 -0.955313
vn 0.000000 0.295595 -0.955313
vn 0.000000 0.046646 -0.998912
vn 0.000000 0.046646 -0.998912
vn 0.955313 0.295597 0.000000
vn 0.955313 0.295597 0.000000
vn 0.998911 0.046648 0.000000
vn 0.998911 0.046648 0.000000
vn 0.000000 0.295595 0.955313
vn 0.000000 0.295595 0.955313
vn 0.000000 0.046646 0.998912
vn 0.000000 0.046646 0.998912
vn -0.955313 0.295596 0.000000
vn -0.955313 0.295596 0.000000
vn -0.998911 0.046648 0.000000
vn -0.998911 0.046648 0.000000
vn 0.000000 -0.311530 -0.950236
vn 0.000000 -0.311530 -0.950236
vn 0.950236 -0.311530 0.000000
vn 0.950236 -0.311530 0.000000
vn 0.000000 -0.311530 0.950236
vn 0.000000 -0.311530 0.950236
vn -0.950237 -0.311529 0.000000
vn -0.950237 -0.311529 0.000000
vn -0.000000 0.000001 1.000000
vn -0.000000 0.000001 1.000000
vn -0.000000 0.000001 1.000000
vn -0.000000 0.000001 1.000000
vn 0.000000 0.000000 -1.000000
vn 0.000000 0.000000 -1.000000
vn 0.000000 0.000000 -1.000000
vn 0.000000 0.000000 -1.000000
vn 0.000000 -1.000000 0.000000
vn 0.000000 -1.000000 0.000000
vn 0.000000 -1.000000 0.000000
vn 0.000000 -1.000000 0.000000
vn 1.000000 0.000000 0.000000
vn 1.000000 0.000000 0.000000
vn 1.000000 0.000000 0.000000
vn 1.000000 0.000000 0.000000
vn -1.000000 0.000000 0.000000
vn -1.000000 0.000000 0.000000
vn -1.000000 0.000000 0.000000
vn -1.000000 0.000000 0.000000
vn -0.751999 -0.659165 0.000000
vn -0.751999 -0.659165 0.000000
vn -0.751999 -0.659165 0.000000
vn -0.751999 -0.659165 0.000000
vn 0.000000 -0.659166 -0.751998
vn 0.000000 -0.659166 -0.751998
vn 0.000000 -0.659166 -0.751998
vn 0.000000 -0.659166 -0.751998
vn 0.751998 -0.659165 0.000000
vn 0.751998 -0.659165 0.000000
vn 0.751998 -0.659165 0.000000
vn 0.751998 -0.659165 0.000000
vn 0.000000 -0.659165 0.751998
vn 0.000000 -0.659165 0.751998
vn 0.000000 -0.659165 0.751998
vn 0.000000 -0.659165 0.751998
vn 0.000000 -0.508464 -0.861083
vn 0.000000 -0.508464 -0.861083
vn 0.000000 -0.508464 -0.861083
vn 0.000000 -0.508464 -0.861083
vn 0.861080 -0.508470 0.000000
vn 0.861080 -0.508470 0.000000
vn 0.861080 -0.508470 0.000000
vn 0.861080 -0.508470 0.000000
vn 0.000000 -0.508463 0.861084
vn 0.000000 -0.508463 0.861084
vn 0.000000 -0.508463 0.861084
vn 0.000000 -0.508463 0.861084
vn -0.861089 -0.508455 0.000000
vn -0.861089 -0.508455 0.000000
vn -0.861089 -0.508455 0.000000
vn -0.861089 -0.508455 0.000000
vn -1.000000 0.000000 0.000000
vn -1.000000 0.000000 0.000000
vn -1.000000 0.000000 0.000000
vn -1.000000 0.000000 0.000000
vn 0.000000 0.000000 -1.000000
vn 0.000000 0.000000 -1.000000
vn 0.000000 0.000000 -1.000000
vn 0.000000 0.000000 -1.000000
vn 1.000000 0.000000 0.000000
vn 1.000000 0.000000 0.000000
vn 1.000000 0.000000 0.000000
vn 1.000000 0.000000 0.000000
vn 0.000000 0.000000 1.000000
vn 0.000000 0.000000 1.000000
vn 0.000000 0.000000 1.000000
vn 0.000000 0.000000 1.000000
vn 0.000000 0.994066 -0.108781
vn -0.004324 0.994164 -0.107791
vn -0.045956 0.984039 -0.171917
vn -0.054732 0.978966 -0.196543
vn -0.069176 0.966186 -0.248393
vn -0.068731 0.966626 -0.246801
vn -0.053038 0.980243 -0.190553
vn -0.046947 0.984552 -0.168680
vn -0.008571 0.999489 -0.030787
vn 0.000581 0.999998 0.002085
vn 0.031850 0.992927 0.114378
vn 0.037812 0.990016 0.135789
vn 0.002827 0.999945 0.010150
vn -0.012098 0.996688 -0.080419
vn -0.010642 0.766419 -0.642253
vn 0.000001 0.762044 -0.647525
vn 0.000032 0.072323 -0.997381
vn 0.000006 0.072310 -0.997382
vn -0.829350 0.557338 -0.039418
vn -0.821197 0.568834 -0.045426
vn -0.802673 0.587357 -0.103574
vn -0.801923 0.585041 -0.121023
vn -0.806187 0.573723 -0.144585
vn -0.806960 0.572331 -0.145786
vn -0.795508 0.596717 -0.105341
vn -0.796735 0.594033 -0.111076
vn -0.787241 0.616637 -0.003321
vn -0.788154 0.615343 -0.012902
vn -0.779373 0.621423 0.080078
vn -0.777021 0.623500 0.086527
vn -0.748429 0.662508 -0.030614
vn -0.745986 0.665946 -0.004629
vn -0.720582 0.540873 -0.433841
vn -0.720139 0.565033 -0.402663
vn -0.717337 0.058017 -0.694307
vn -0.717611 0.040204 -0.695283
vn -1.000000 0.000001 0.000000
vn -1.000000 -0.000000 -0.000002
vn -1.000000 0.000006 -0.000000
vn -1.000000 0.000000 -0.000020
vn -1.000000 0.000000 -0.000017
vn -1.000000 0.000006 0.000006
vn -1.000000 -0.000004 0.000007
vn -1.000000 -0.000005 0.000019
vn -1.000000 -0.000008 0.000023
vn -1.000000 0.000005 0.000004
vn -1.000000 -0.000001 -0.000008
vn -0.705195 -0.000020 -0.709013
vn -0.704769 0.000012 -0.709437
vn 0.000951 -0.000426 -0.999999
vn 0.000983 -0.000428 -1.000000
vn -0.000000 0.994066 0.108781
vn -0.045955 0.984039 0.171917
vn -0.004324 0.994164 0.107790
vn -0.054730 0.978967 0.196543
vn -0.069171 0.966186 0.248394
vn -0.068726 0.966626 0.246803
vn -0.053038 0.980243 0.190553
vn -0.046947 0.984552 0.168680
vn -0.008572 0.999489 0.030787
vn 0.000581 0.999998 -0.002085
vn 0.031853 0.992927 -0.114377
vn 0.037816 0.990016 -0.135790
vn 0.002827 0.999945 -0.010152
vn -0.012101 0.996687 0.080422
vn -0.010646 0.766421 0.642250
vn -0.000004 0.762040 0.647530
vn 0.000038 0.072323 0.997381
vn 0.000012 0.072311 0.997382
vn -0.801923 0.585041 0.121022
vn -0.821197 0.568834 0.045426
vn -0.802673 0.587357 0.103573
vn -0.829350 0.557337 0.039418
vn -0.806195 0.573712 0.144582
vn -0.806967 0.572321 0.145783
vn -0.795507 0.596717 0.105344
vn -0.796735 0.594033 0.111079
vn -0.787250 0.616626 0.003321
vn -0.788162 0.615333 0.012902
vn -0.777029 0.623489 -0.086527
vn -0.779381 0.621412 -0.080078
vn -0.745995 0.665935 0.004628
vn -0.748438 0.662498 0.030615
vn -0.720587 0.540865 0.433842
vn -0.720145 0.565023 0.402666
vn -0.717609 0.040204 0.695285
vn -0.717335 0.058016 0.694308
vn -1.000000 -0.000000 0.000002
vn -1.000000 0.000002 0.000030
vn -1.000000 0.000006 -0.000006
vn -1.000000 0.000001 0.000019
vn -1.000000 -0.000004 -0.000008
vn -1.000000 -0.000005 -0.000021
vn -1.000000 -0.000006 -0.000020
vn -1.000000 0.000005 -0.000004
vn -1.000000 -0.000001 0.000008
vn -0.704769 0.000013 0.709437
vn -0.705195 -0.000019 0.709013
vn 0.000957 -0.000426 1.000000
vn 0.000989 -0.000428 0.999999
vn 0.000000 0.000000 1.000000
vn 0.000000 0.000000 1.000000
vn 0.000000 -0.031025 0.999519
vn 0.000000 -0.031025 0.999519
vn 0.000000 1.000000 0.000000
vn 0.000000 1.000000 0.000000
vn 0.000000 1.000000 0.000000
vn 0.000000 1.000000 0.000000
vn 0.000000 -0.031025 -0.999519
vn 0.000000 -0.031025 -0.999519
vn 0.000000 0.000000 -1.000000
vn 0.000000 0.000000 -1.000000
vn 1.000000 0.000000 0.000000
vn 1.000000 0.000000 0.000000
vn 0.999519 -0.031025 0.000000
vn 0.999519 -0.031025 0.000000
vn -1.000000 0.000000 0.000000
vn -1.000000 0.000000 0.000000
vn -0.999519 -0.031024 0.000000
vn -0.999519 -0.031024 0.000000
vn -0.639308 -0.768951 0.000000
vn -0.639308 -0.768951 0.000000
vn 0.000000 -0.768952 -0.639307
vn 0.000000 -0.768952 -0.639307
vn 0.639301 -0.768957 0.000000
vn 0.639301 -0.768957 0.000000
vn 0.000000 -0.768952 0.639307
vn 0.000000 -0.768952 0.639307
vn 0.000000 0.774398 0.632698
vn 0.000000 0.774398 0.632698
vn 0.000000 0.774398 0.632698
vn 0.000000 0.774398 0.632698
vn 0.632696 0.774400 0.000000
vn 0.632696 0.774400 0.000000
vn 0.632696 0.774400 0.000000
vn 0.632696 0.774400 0.000000
vn 0.000000 0.774398 -0.632698
vn 0.000000 0.774398 -0.632698
vn 0.000000 0.774398 -0.632698
vn 0.000000 0.774398 -0.632698
vn -0.632698 0.774399 0.000000
vn -0.632698 0.774399 0.000000
vn -0.632698 0.774399 0.000000
vn -0.632698 0.774399 0.000000
vn 0.000000 0.039947 0.999202
vn 0.000000 0.039947 0.999202
vn 0.000000 0.039947 0.999202
vn 0.000000 0.039947 0.999202
vn 0.999202 0.039945 0.000000
vn 0.999202 0.039945 0.000000
vn 0.999202 0.039945 0.000000
vn 0.999202 0.039945 0.000000
vn 0.000000 0.039947 -0.999202
vn 0.000000 0.039947 -0.999202
vn 0.000000 0.039947 -0.999202
vn 0.000000 0.039947 -0.999202
vn -0.999202 0.039947 0.000000
vn -0.999202 0.039947 0.000000
vn -0.999202 0.039947 0.000000
vn -0.999202 0.039947 0.000000
vn 0.000000 0.310172 0.950680
vn 0.000000 0.310172 0.950680
vn 0.000000 0.310172 0.950680
vn 0.000000 0.310172 0.950680
vn 0.950678 0.310180 0.000000
vn 0.950678 0.310180 0.000000
vn 0.950678 0.310180 0.000000
vn 0.950678 0.310180 0.000000
vn 0.000000 0.310172 -0.950680
vn 0.000000 0.310172 -0.950680
vn 0.000000 0.310172 -0.950680
vn 0.000000 0.310172 -0.950680
vn -0.950680 0.310174 0.000000
vn -0.950680 0.310174 0.000000
vn -0.950680 0.310174 0.000000
vn -0.950680 0.310174 0.000000
vn 0.000000 -0.163423 -0.986556
vn 0.000000 -0.163423 -0.986556
vn 0.000000 -0.163423 -0.986556
vn 0.000000 -0.163423 -0.986556
vn 0.986556 -0.163424 0.000000
vn 0.986556 -0.163424 0.000000
vn 0.986556 -0.163424 0.000000
vn 0.986556 -0.163424 0.000000
vn 0.000000 -0.163423 0.986556
vn 0.000000 -0.163423 0.986556
vn 0.000000 -0.163423 0.986556
vn 0.000000 -0.163423 0.986556
vn -0.986556 -0.163424 0.000000
vn -0.986556 -0.163424 0.000000
vn -0.986556 -0.163424 0.000000
vn -0.986556 -0.163424 0.000000
vn 0.000000 0.295595 -0.955313
vn 0.000000 0.295595 -0.955313
vn 0.000000 0.046647 -0.998911
vn 0.000000 0.046647 -0.998911
vn 0.955313 0.295595 0.000000
vn 0.955313 0.295595 0.000000
vn 0.998911 0.046646 0.000000
vn 0.998911 0.046646 0.000000
vn 0.000000 0.295595 0.955313
vn 0.000000 0.295595 0.955313
vn 0.000000 0.046647 0.998911
vn 0.000000 0.046647 0.998911
vn -0.955314 0.295594 0.000000
vn -0.955314 0.295594 0.000000
vn -0.998912 0.046645 0.000000
vn -0.998912 0.046645 0.000000
vn 0.000000 -0.311530 -0.950236
vn 0.000000 -0.311530 -0.950236
vn 0.950236 -0.311531 0.000000
vn 0.950236 -0.311531 0.000000
vn 0.000000 -0.311530 0.950236
vn 0.000000 -0.311530 0.950236
vn -0.950236 -0.311531 0.000000
vn -0.950236 -0.311531 0.000000
vn 0.866026 0.000000 -0.499998
vn 0.499999 0.000000 -0.866026
vn 0.499999 0.000000 -0.866026
vn 0.866026 0.000000 -0.499998
vn 0.000000 0.000000 -1.000000
vn 0.000000 0.000000 -1.000000
vn -0.500001 0.000000 -0.866025
vn -0.500001 0.000000 -0.866025
vn -0.866026 0.000000 -0.499998
vn -0.866026 0.000000 -0.499998
vn -1.000000 0.000000 -0.000000
vn -1.000000 0.000000 -0.000000
vn -0.866025 0.000000 0.500000
vn -0.866025 0.000000 0.500000
vn -0.500001 0.000000 0.866025
vn -0.500001 0.000000 0.866025
vn 0.000000 0.000000 1.000000
vn 0.000000 0.000000 1.000000
vn 0.499999 0.000000 0.866026
vn 0.499999 0.000000 0.866026
vn 0.866025 0.000000 0.500000
vn 0.866025 0.000000 0.500000
vn 1.000000 0.000000 -0.000000
vn 1.000000 0.000000 -0.000000
vn -0.000000 0.000001 1.000000
vn -0.000000 0.000001 1.000000
vn -0.000000 0.000001 1.000000
vn -0.000000 0.000001 1.000000
vn 0.000000 0.000000 -1.000000
vn 0.000000 0.000000 -1.000000
vn 0.000000 0.000000 -1.000000
vn 0.000000 0.000000 -1.000000
vn 0.000000 -1.000000 0.000000
vn 0.000000 -1.000000 0.000000
vn 0.000000 -1.000000 0.000000
vn 0.000000 -1.000000 0.000000
vn 1.000000 0.000000 0.000000
vn 1.000000 0.000000 0.000000
vn 1.000000 0.000000 0.000000
vn 1.000000 0.000000 0.000000
vn -1.000000 0.000002 0.000000
vn -1.000000 0.000002 0.000000
vn -1.000000 0.000002 0.000000
vn -1.000000 0.000002 0.000000
vn -0.751998 -0.659165 0.000000
vn -0.751998 -0.659165 0.000000
vn -0.751999 -0.659165 0.000000
vn -0.751999 -0.659165 0.000000
vn 0.000000 -0.659165 -0.751999
vn 0.000000 -0.659165 -0.751999
vn 0.000000 -0.659165 -0.751999
vn 0.000000 -0.659165 -0.751999
vn 0.751999 -0.659164 0.000000
vn 0.751999 -0.659164 0.000000
vn 0.751999 -0.659164 0.000000
vn 0.751999 -0.659164 0.000000
vn -0.000000 -0.659164 0.751999
vn -0.000000 -0.659164 0.751999
vn -0.000000 -0.659164 0.751999
vn -0.000000 -0.659164 0.751999
vn 0.000000 -0.508464 -0.861083
vn 0.000000 -0.508464 -0.861083
vn 0.000000 -0.508464 -0.861083
vn 0.000000 -0.508464 -0.861083
vn 0.861079 -0.508472 0.000000
vn 0.861079 -0.508472 0.000000
vn 0.861079 -0.508472 0.000000
vn 0.861079 -0.508472 0.000000
vn 0.000000 -0.508464 0.861083
vn 0.000000 -0.508464 0.861083
vn 0.000000 -0.508464 0.861084
vn 0.000000 -0.508464 0.861083
vn -0.861082 -0.508466 0.000000
vn -0.861082 -0.508466 0.000000
vn -0.861082 -0.508466 0.000000
vn -0.861082 -0.508466 0.000000
vn -1.000000 0.000000 0.000000
vn -1.000000 0.000000 0.000000
vn -1.000000 0.000000 0.000000
vn -1.000000 0.000000 0.000000
vn 0.000000 0.000000 -1.000000
vn 0.000000 0.000000 -1.000000
vn 0.000000 0.000000 -1.000000
vn 0.000000 0.000000 -1.000000
vn 1.000000 0.000000 0.000000
vn 1.000000 0.000000 0.000000
vn 1.000000 0.000000 0.000000
vn 1.000000 0.000000 0.000000
vn 0.000000 0.000000 1.000000
vn 0.000000 0.000000 1.000000
vn 0.000000 0.000000 1.000000
vn 0.000000 0.000000 1.000000
vn -1.000000 0.000000 0.000000
vn -1.000000 0.000000 0.000000
vn -1.000000 0.000000 0.000000
vn -1.000000 0.000000 0.000000
vn 0.000000 -1.000000 0.000000
vn 0.000000 -1.000000 0.000000
vn 0.000000 -1.000000 0.000000
vn 0.000000 -1.000000 0.000000
vn 1.000000 0.000000 0.000000
vn 1.000000 0.000000 0.000000
vn 1.000000 0.000000 0.000000
vn 1.000000 0.000000 0.000000
vn -1.000000 0.000000 0.000000
vn -1.000000 0.000000 0.000000
vn -1.000000 0.000000 0.000000
vn -1.000000 0.000000 0.000000
vn 0.000000 -1.000000 0.000000
vn 0.000000 -1.000000 0.000000
vn 0.000000 -1.000000 0.000000
vn 0.000000 -1.000000 0.000000
vn 1.000000 0.000000 0.000000
vn 1.000000 0.000000 0.000000
vn 1.000000 0.000000 0.000000
vn 1.000000 0.000000 0.000000
vn -0.707107 -0.707107 0.000000
vn -0.707107 -0.707107 0.000000
vn -0.707107 -0.707107 0.000000
vn -0.707107 -0.707107 0.000000
vn -1.000000 0.000000 0.000000
vn -1.000000 0.000000 0.000000
vn -1.000000 0.000000 0.000000
vn -1.000000 0.000000 0.000000
vn 0.000000 0.000000 1.000000
vn 0.000000 0.000000 1.000000
vn 0.000000 0.000000 1.000000
vn 0.000000 0.000000 1.000000
vn 0.000000 0.000000 -1.000000
vn 0.000000 0.000000 -1.000000
vn 0.000000 0.000000 -1.000000
vn 0.000000 0.000000 -1.000000
vn 0.000000 -1.000000 0.000000
vn 0.000000 -1.000000 0.000000
vn 0.000000 -1.000000 0.000000
vn 0.000000 -1.000000 0.000000
vn 1.000000 0.000000 0.000000
vn 1.000000 0.000000 0.000000
vn 1.000000 0.000000 0.000000
vn 1.000000 0.000000 0.000000
vn -1.000000 0.000000 0.000000
vn -1.000000 0.000000 0.000000
vn -1.000000 0.000000 0.000000
vn -1.000000 0.000000 0.000000
vn 0.000000 0.000000 -1.000000
vn 0.000000 0.000000 -1.000000
vn 0.000000 0.000000 -1.000000
vn 0.000000 0.000000 -1.000000
vn 0.000000 -1.000000 0.000001
vn 0.000000 -1.000000 0.000001
vn 0.000000 -1.000000 0.000001
vn 0.000000 -1.000000 0.000001
vn 0.000000 0.000000 1.000000
vn 0.000000 0.000000 1.000000
vn 0.000000 0.000000 1.000000
vn 0.000000 0.000000 1.000000
vn 0.000000 -0.707109 -0.707105
vn 0.000000 -0.707109 -0.707105
vn 0.000000 -0.707109 -0.707105
vn 0.000000 -0.707109 -0.707105
vn 0.000000 0.000000 -1.000000
vn 0.000000 0.000000 -1.000000
vn 0.000000 0.000000 -1.000000
vn 0.000000 0.000000 -1.000000
vn 0.000000 0.000000 1.000000
vn 0.000000 0.000000 1.000000
vn 0.000000 0.000000 1.000000
vn 0.000000 0.000000 1.000000
vn 0.000000 -1.000000 0.000000
vn 0.000000 -1.000000 0.000000
vn 0.000000 -1.000000 0.000000
vn 0.000000 -1.000000 0.000000
vn 0.000000 0.000000 -1.000000
vn 0.000000 0.000000 -1.000000
vn 0.000000 0.000000 -1.000000
vn 0.000000 0.000000 -1.000000
vn 0.000000 0.000000 1.000000
vn 0.000000 0.000000 1.000000
vn 0.000000 0.000000 1.000000
vn 0.000000 0.000000 1.000000
vn 0.000000 0.000000 -1.000000
vn 0.000000 0.000000 -1.000000
vn 0.000000 0.000000 -1.000000
vn 0.000000 0.000000 -1.000000
vn 0.000000 -1.000000 0.000000
vn 0.000000 -1.000000 0.000000
vn 0.000000 -1.000000 0.000000
vn 0.000000 -1.000000 0.000000
vn 1.000000 0.000000 0.000000
vn 1.000000 0.000000 0.000000
vn 1.000000 0.000000 0.000000
vn 1.000000 0.000000 0.000000
vn -1.000000 0.000000 0.000000
vn -1.000000 0.000000 0.000000
vn -1.000000 0.000000 0.000000
vn -1.000000 0.000000 0.000000
vn -0.000000 0.000001 1.000000
vn -0.000000 0.000001 1.000000
vn -0.000000 0.000001 1.000000
vn -0.000000 0.000001 1.000000
vn 0.000000 0.000000 -1.000000
vn 0.000000 0.000000 -1.000000
vn 0.000000 0.000000 -1.000000
vn 0.000000 0.000000 -1.000000
vn 0.000000 -1.000000 0.000000
vn 0.000000 -1.000000 0.000000
vn 0.000000 -1.000000 0.000000
vn 0.000000 -1.000000 0.000000
vn 1.000000 0.000000 0.000000
vn 1.000000 0.000000 0.000000
vn 1.000000 0.000000 0.000000
vn 1.000000 0.000000 0.000000
vn -1.000000 0.000000 0.000000
vn -1.000000 0.000000 0.000000
vn -1.000000 0.000000 0.000000
vn -1.000000 0.000000 0.000000
vn -0.751999 -0.659165 0.000000
vn -0.751999 -0.659165 0.000000
vn -0.751999 -0.659165 0.000000
vn -0.751999 -0.659165 0.000000
vn 0.000000 -0.659166 -0.751998
vn 0.000000 -0.659166 -0.751998
vn 0.000000 -0.659166 -0.751998
vn 0.000000 -0.659166 -0.751998
vn 0.751999 -0.659165 0.000000
vn 0.751999 -0.659165 0.000000
vn 0.751999 -0.659165 0.000000
vn 0.751999 -0.659165 0.000000
vn -0.000000 -0.659165 0.751998
vn -0.000000 -0.659165 0.751998
vn -0.000000 -0.659165 0.751998
vn -0.000000 -0.659165 0.751998
vn 0.000000 -0.508464 -0.861083
vn 0.000000 -0.508464 -0.861083
vn 0.000000 -0.508464 -0.861083
vn 0.000000 -0.508464 -0.861083
vn 0.861080 -0.508470 0.000000
vn 0.861080 -0.508470 0.000000
vn 0.861080 -0.508470 0.000000
vn 0.861080 -0.508470 0.000000
vn 0.000000 -0.508463 0.861084
vn 0.000000 -0.508463 0.861084
vn 0.000000 -0.508463 0.861084
vn 0.000000 -0.508463 0.861084
vn -0.861089 -0.508455 0.000000
vn -0.861089 -0.508455 0.000000
vn -0.861089 -0.508455 0.000000
vn -0.861089 -0.508455 0.000000
vn -1.000000 0.000000 0.000000
vn -1.000000 0.000000 0.000000
vn -1.000000 0.000000 0.000000
vn -1.000000 0.000000 0.000000
vn 0.000000 0.000000 -1.000000
vn 0.000000 0.000000 -1.000000
vn 0.000000 0.000000 -1.000000
vn 0.000000 0.000000 -1.000000
vn 1.000000 0.000000 0.000000
vn 1.000000 0.000000 0.000000
vn 1.000000 0.000000 0.000000
vn 1.000000 0.000000 0.000000
vn 0.000000 0.000000 1.000000
vn 0.000000 0.000000 1.000000
vn 0.000000 0.000000 1.000000
vn 0.000000 0.000000 1.000000
vn 0.866026 0.000000 -0.499998
vn 0.499997 0.000000 -0.866027
vn 0.499997 0.000000 -0.866027
vn 0.866026 0.000000 -0.499998
vn -0.000000 0.000000 -1.000000
vn -0.000000 0.000000 -1.000000
vn -0.500004 0.000000 -0.866023
vn -0.500004 0.000000 -0.866023
vn -0.866026 0.000000 -0.499998
vn -0.866026 0.000000 -0.499998
vn -1.000000 0.000000 -0.000000
vn -1.000000 0.000000 -0.000000
vn -0.866025 0.000000 0.500000
vn -0.866025 0.000000 0.500000
vn -0.500004 0.000000 0.866023
vn -0.500004 0.000000 0.866023
vn -0.000000 0.000000 1.000000
vn -0.000000 0.000000 1.000000
vn 0.499997 0.000000 0.866027
vn 0.499997 0.000000 0.866027
vn 0.866025 0.000000 0.500000
vn 0.866025 0.000000 0.500000
vn 1.000000 0.000000 -0.000000
vn 1.000000 0.000000 -0.000000
vn 0.000000 0.000000 1.000000
vn 0.000000 0.000000 1.000000
vn 0.000000 -0.031025 0.999519
vn 0.000000 -0.031025 0.999519
vn 0.000000 1.000000 0.000000
vn 0.000000 1.000000 0.000000
vn 0.000000 1.000000 0.000000
vn 0.000000 1.000000 0.000000
vn 0.000000 -0.031025 -0.999519
vn 0.000000 -0.031025 -0.999519
vn 0.000000 0.000000 -1.000000
vn 0.000000 0.000000 -1.000000
vn 1.000000 0.000000 0.000000
vn 1.000000 0.000000 0.000000
vn 0.999519 -0.031025 0.000000
vn 0.999519 -0.031025 0.000000
vn -1.000000 0.000000 0.000000
vn -1.000000 0.000000 0.000000
vn -0.999519 -0.031024 0.000000
vn -0.999519 -0.031024 0.000000
vn -0.639308 -0.768951 0.000000
vn -0.639308 -0.768951 0.000000
vn 0.000000 -0.768952 -0.639307
vn 0.000000 -0.768952 -0.639307
vn 0.639295 -0.768961 0.000000
vn 0.639295 -0.768961 0.000000
vn 0.000000 -0.768952 0.639307
vn 0.000000 -0.768952 0.639307
vn 0.000000 0.774398 0.632698
vn 0.000000 0.774398 0.632698
vn 0.000000 0.774398 0.632698
vn 0.000000 0.774398 0.632698
vn 0.632697 0.774400 0.000000
vn 0.632697 0.774400 0.000000
vn 0.632697 0.774400 0.000000
vn 0.632697 0.774400 0.000000
vn 0.000000 0.774398 -0.632698
vn 0.000000 0.774398 -0.632698
vn 0.000000 0.774398 -0.632698
vn 0.000000 0.774398 -0.632698
vn -0.632699 0.774398 0.000000
vn -0.632699 0.774398 0.000000
vn -0.632699 0.774398 0.000000
vn -0.632699 0.774398 0.000000
vn 0.000000 0.039947 0.999202
vn 0.000000 0.039947 0.999202
vn 0.000000 0.039947 0.999202
vn 0.000000 0.039947 0.999202
vn 0.999202 0.039947 0.000000
vn 0.999202 0.039947 0.000000
vn 0.999202 0.039947 0.000000
vn 0.999202 0.039947 0.000000
vn 0.000000 0.039947 -0.999202
vn 0.000000 0.039947 -0.999202
vn 0.000000 0.039947 -0.999202
vn 0.000000 0.039947 -0.999202
vn -0.999202 0.039947 0.000000
vn -0.999202 0.039947 0.000000
vn -0.999202 0.039947 0.000000
vn -0.999202 0.039947 0.000000
vn 0.000000 0.310172 0.950680
vn 0.000000 0.310172 0.950680
vn 0.000000 0.310172 0.950680
vn 0.000000 0.310172 0.950680
vn 0.950679 0.310177 0.000000
vn 0.950679 0.310177 0.000000
vn 0.950679 0.310177 0.000000
vn 0.950679 0.310177 0.000000
vn 0.000000 0.310172 -0.950680
vn 0.000000 0.310172 -0.950680
vn 0.000000 0.310172 -0.950680
vn 0.000000 0.310172 -0.950680
vn -0.950678 0.310178 0.000000
vn -0.950678 0.310178 0.000000
vn -0.950678 0.310178 0.000000
vn -0.950678 0.310178 0.000000
vn 0.000000 -0.163423 -0.986556
vn 0.000000 -0.163423 -0.986556
vn 0.000000 -0.163423 -0.986556
vn 0.000000 -0.163423 -0.986556
vn 0.986556 -0.163424 0.000000
vn 0.986556 -0.163424 0.000000
vn 0.986556 -0.163424 0.000000
vn 0.986556 -0.163424 0.000000
vn 0.000000 -0.163423 0.986556
vn 0.000000 -0.163423 0.986556
vn 0.000000 -0.163423 0.986556
vn 0.000000 -0.163423 0.986556
vn -0.986556 -0.163424 0.000000
vn -0.986556 -0.163424 0.000000
vn -0.986556 -0.163424 0.000000
vn -0.986556 -0.163424 0.000000
vn 0.000000 0.295595 -0.955313
vn 0.000000 0.295595 -0.955313
vn 0.000000 0.046646 -0.998912
vn 0.000000 0.046646 -0.998912
vn 0.955313 0.295597 0.000000
vn 0.955313 0.295597 0.000000
vn 0.998911 0.046648 0.000000
vn 0.998911 0.046648 0.000000
vn 0.000000 0.295595 0.955313
vn 0.000000 0.295595 0.955313
vn 0.000000 0.046646 0.998912
vn 0.000000 0.046646 0.998912
vn -0.955313 0.295596 0.000000
vn -0.955313 0.295596 0.000000
vn -0.998911 0.046648 0.000000
vn -0.998911 0.046648 0.000000
vn 0.000000 -0.311530 -0.950236
vn 0.000000 -0.311530 -0.950236
vn 0.950236 -0.311530 0.000000
vn 0.950236 -0.311530 0.000000
vn 0.000000 -0.311530 0.950236
vn 0.000000 -0.311530 0.950236
vn -0.950237 -0.311529 0.000000
vn -0.950237 -0.311529 0.000000
vn -1.000000 0.000000 0.000000
vn -1.000000 0.000000 0.000000
vn -1.000000 0.000000 0.000000
vn -1.000000 0.000000 0.000000
vn 0.000000 -1.000000 0.000000
vn 0.000000 -1.000000 0.000000
vn 0.000000 -1.000000 0.000000
vn 0.000000 -1.000000 0.000000
vn 1.000000 0.000000 0.000000
vn 1.000000 0.000000 0.000000
vn 1.000000 0.000000 0.000000
vn 1.000000 0.000000 0.000000
vn -0.707107 -0.707107 0.000000
vn -0.707107 -0.707107 0.000000
vn -0.707107 -0.707107 0.000000
vn -0.707107 -0.707107 0.000000
vn -1.000000 0.000000 0.000000
vn -1.000000 0.000000 0.000000
vn -1.000000 0.000000 0.000000
vn -1.000000 0.000000 0.000000
vn 0.000000 0.000000 1.000000
vn 0.000000 0.000000 1.000000
vn 0.000000 0.000000 1.000000
vn 0.000000 0.000000 1.000000
vn 0.000000 -1.000000 0.000000
vn 0.000000 -1.000000 0.000000
vn 0.000000 -1.000000 0.000000
vn 0.000000 -1.000000 0.000000
vn 0.000000 0.000000 -1.000000
vn 0.000000 0.000000 -1.000000
vn 0.000000 0.000000 -1.000000
vn 0.000000 0.000000 -1.000000
vn 0.000000 -0.707109 0.707105
vn 0.000000 -0.707109 0.707105
vn 0.000000 -0.707109 0.707105
vn 0.000000 -0.707109 0.707105
vn 0.000000 0.000000 1.000000
vn 0.000000 0.000000 1.000000
vn 0.000000 0.000000 1.000000
vn 0.000000 0.000000 1.000000
vn 0.000000 0.000000 1.000000
vn 0.000000 0.000000 1.000000
vn 0.000000 0.000000 1.000000
vn 0.000000 0.000000 1.000000
vn 0.000000 -1.000000 0.000000
vn 0.000000 -1.000000 0.000000
vn 0.000000 -1.000000 0.000000
vn 0.000000 -1.000000 0.000000
vn 0.000000 0.000000 -1.000000
vn 0.000000 0.000000 -1.000000
vn 0.000000 0.000000 -1.000000
vn 0.000000 0.000000 -1.000000
vn 0.000000 0.000000 1.000000
vn 0.000000 0.000000 1.000000
vn 0.000000 0.000000 1.000000
vn 0.000000 0.000000 1.000000
vn 0.000000 0.000000 -1.000000
vn 0.000000 0.000000 -1.000000
vn 0.000000 0.000000 -1.000000
vn 0.000000 0.000000 -1.000000
vn 0.000000 -1.000000 0.000000
vn 0.000000 -1.000000 0.000000
vn 0.000000 -1.000000 0.000000
vn 0.000000 -1.000000 0.000000
vn 1.000000 0.000000 0.000000
vn 1.000000 0.000000 0.000000
vn 1.000000 0.000000 0.000000
vn 1.000000 0.000000 0.000000
vn -1.000000 0.000000 0.000000
vn -1.000000 0.000000 0.000000
vn -1.000000 0.000000 0.000000
vn -1.000000 0.000000 0.000000
vn -1.000000 0.000000 0.000000
vn -1.000000 0.000000 0.000000
vn -1.000000 0.000000 0.000000
vn -1.000000 0.000000 0.000000
vn 0.000000 -1.000000 0.000000
vn 0.000000 -1.000000 0.000000
vn 0.000000 -1.000000 0.000000
vn 0.000000 -1.000000 0.000000
vn 1.000000 0.000000 0.000000
vn 1.000000 0.000000 0.000000
vn 1.000000 0.000000 0.000000
vn 1.000000 0.000000 0.000000
vn -0.707107 0.707106 0.000000
vn -0.707107 0.707106 0.000000
vn -0.707107 0.707106 0.000000
vn -0.707107 0.707106 0.000000
vn 0.000000 0.707109 0.707105
vn 0.000000 0.707109 0.707105
vn 0.000000 0.707109 0.707105
vn 0.000000 0.707109 0.707105
vn 0.000000 0.707107 -0.707107
vn 0.000000 0.707107 -0.707107
vn 0.000000 0.707107 -0.707107
vn 0.000000 0.707107 -0.707107
vn 0.000000 0.000000 1.000000
vn 0.000000 0.000000 1.000000
vn 0.000000 0.000000 1.000000
vn 0.000000 0.000000 1.000000
vn 0.000000 0.000000 -1.000000
vn 0.000000 0.000000 -1.000000
vn 0.000000 0.000000 -1.000000
vn 0.000000 0.000000 -1.000000
vn -1.000000 0.000000 0.000000
vn -1.000000 0.000000 0.000000
vn -1.000000 0.000000 0.000000
vn -1.000000 0.000000 0.000000
vn 0.000000 1.000000 0.000000
vn 0.000000 1.000000 0.000000
vn 0.000000 1.000000 0.000000
vn 0.000000 1.000000 0.000000
vn 0.000000 1.000000 -0.000000
vn 0.000000 1.000000 -0.000000
vn 0.000000 1.000000 -0.000000
vn 0.000000 1.000000 -0.000000
vn 0.000000 1.000000 0.000000
vn 0.000000 1.000000 0.000000
vn 0.000000 1.000000 0.000000
vn 0.000000 1.000000 0.000000
s off
g polySurface369
f 1/1/1 2/2/2 8/3/3 5/4/4
f 6/5/5 7/6/6 4/7/7 3/8/8
f 13/9/9 14/10/10 15/11/11 16/12/12
f 2/2/13 4/13/14 7/14/15 8/3/16
f 3/8/17 1/1/18 5/4/19 6/5/20
f 6/15/21 5/16/22 9/17/23 10/18/24
f 7/19/25 6/20/26 10/18/27 11/21/28
f 8/22/29 7/23/30 11/24/31 12/25/32
f 5/26/33 8/27/34 12/25/35 9/17/36
f 3/8/37 4/7/38 14/28/39 13/29/40
f 4/13/41 2/2/42 15/30/43 14/31/44
f 2/2/45 1/1/46 16/32/47 15/33/48
f 1/1/49 3/8/50 13/9/51 16/12/52
f 10/18/53 9/17/54 17/34/55 18/35/56
f 11/21/57 10/18/58 18/35/59 19/36/60
f 12/25/61 11/24/62 19/37/63 20/38/64
f 9/17/65 12/25/66 20/38/67 17/34/68
f 21/39/69 22/40/70 28/41/71 25/42/72
f 26/43/73 27/44/74 24/45/75 23/46/76
f 23/46/77 24/47/78 22/48/79 21/39/80
f 22/40/81 24/49/82 27/50/83 28/41/84
f 23/46/85 21/39/86 25/42/87 26/43/88
s 1
f 29/51/89 30/52/90 42/53/91 41/54/92
f 30/52/90 31/55/93 43/56/94 42/53/91
f 31/55/93 32/57/95 44/58/96 43/56/94
f 32/57/95 33/59/97 45/60/98 44/58/96
f 33/59/97 34/61/99 46/62/100 45/60/98
f 34/61/99 35/63/101 47/64/102 46/62/100
f 35/63/101 36/65/103 48/66/104 47/64/102
f 36/65/103 37/67/105 49/68/106 48/66/104
f 37/67/105 38/69/107 50/70/108 49/68/106
f 38/69/107 39/71/109 51/72/110 50/70/108
f 39/71/109 40/73/111 52/74/112 51/72/110
f 40/73/111 29/75/89 41/76/92 52/74/112
s 2
f 53/77/113 54/78/114 64/79/115 61/80/116
s off
f 73/81/117 74/82/118 75/83/119 76/84/120
s 3
f 62/85/121 63/86/122 60/87/123 59/88/124
s 4
f 54/78/125 60/89/126 63/90/127 64/79/128
s 5
f 59/88/129 53/77/130 61/80/131 62/85/132
f 62/85/132 61/80/131 55/91/133 57/92/134
s 3
f 57/92/135 58/93/136 63/86/122 62/85/121
s 4
f 64/79/128 63/90/127 58/94/137 56/95/138
s 2
f 61/80/116 64/79/115 56/95/139 55/91/140
s off
f 55/91/141 56/95/142 66/96/143 65/97/144
f 56/95/145 58/94/146 67/98/147 66/96/148
f 58/93/149 57/92/150 68/99/151 67/100/152
f 57/92/153 55/91/154 65/97/155 68/99/156
f 65/97/157 66/96/158 70/101/159 69/102/160
f 66/96/161 67/98/162 71/103/163 70/101/164
f 67/100/165 68/99/166 72/104/167 71/105/168
f 68/99/169 65/97/170 69/102/171 72/104/172
f 69/102/173 70/101/174 74/106/175 73/107/176
f 70/101/177 71/103/178 75/108/179 74/106/180
f 71/105/181 72/104/182 76/109/183 75/110/184
f 72/104/185 69/102/186 73/107/187 76/109/188
f 59/88/189 60/87/190 78/111/191 77/112/192
f 60/89/193 54/78/194 79/113/195 78/114/196
f 54/78/197 53/77/198 80/115/199 79/113/200
f 53/77/201 59/88/202 77/112/203 80/115/204
s 6
f 77/112/205 78/111/206 82/116/207 81/117/208
s 7
f 78/114/209 79/113/210 83/118/211 82/119/212
s 8
f 79/113/213 80/115/214 84/120/215 83/118/216
s 9
f 80/115/217 77/112/218 81/117/219 84/120/220
s 6
f 81/117/208 82/116/207 86/121/221 85/122/222
s 7
f 82/119/212 83/118/211 87/123/223 86/124/224
s 8
f 83/118/216 84/120/215 88/125/225 87/123/226
s 9
f 84/120/220 81/117/219 85/122/227 88/125/228
s 10
f 89/126/229 90/127/230 102/128/231 101/129/232
f 90/127/230 91/130/233 103/131/234 102/128/231
f 91/130/233 92/132/235 104/133/236 103/131/234
f 92/132/235 93/134/237 105/135/238 104/133/236
f 93/134/237 94/136/239 106/137/240 105/135/238
f 94/136/239 95/138/241 107/139/242 106/137/240
f 95/138/241 96/140/243 108/141/244 107/139/242
f 96/140/243 97/142/245 109/143/246 108/141/244
f 97/142/245 98/144/247 110/145/248 109/143/246
f 98/144/247 99/146/249 111/147/250 110/145/248
f 99/146/249 100/148/251 112/149/252 111/147/250
f 100/148/251 89/150/229 101/151/232 112/149/252
s 11
f 113/152/253 114/153/254 124/154/255 121/155/256
s off
f 133/156/257 134/157/258 135/158/259 136/159/260
s 12
f 122/160/261 123/161/262 120/162/263 119/163/264
s 13
f 114/153/265 120/164/266 123/165/267 124/154/268
s 14
f 119/163/269 113/152/270 121/155/271 122/160/272
f 122/160/272 121/155/271 115/166/273 117/167/274
s 12
f 117/167/275 118/168/276 123/161/262 122/160/261
s 13
f 124/154/268 123/165/267 118/169/277 116/170/278
s 11
f 121/155/256 124/154/255 116/170/279 115/166/280
s off
f 115/166/281 116/170/282 126/171/283 125/172/284
f 116/170/285 118/169/286 127/173/287 126/171/288
f 118/168/289 117/167/290 128/174/291 127/175/292
f 117/167/293 115/166/294 125/172/295 128/174/296
f 125/172/297 126/171/298 130/176/299 129/177/300
f 126/171/301 127/173/302 131/178/303 130/176/304
f 127/175/305 128/174/306 132/179/307 131/180/308
f 128/174/309 125/172/310 129/177/311 132/179/312
f 129/177/313 130/176/314 134/181/315 133/182/316
f 130/176/317 131/178/318 135/183/319 134/181/320
f 131/180/321 132/179/322 136/184/323 135/185/324
f 132/179/325 129/177/326 133/182/327 136/184/328
f 119/163/329 120/162/330 138/186/331 137/187/332
f 120/164/333 114/153/334 139/188/335 138/189/336
f 114/153/337 113/152/338 140/190/339 139/188/340
f 113/152/341 119/163/342 137/187/343 140/190/344
s 15
f 137/187/345 138/186/346 142/191/347 141/192/348
s 16
f 138/189/349 139/188/350 143/193/351 142/194/352
s 17
f 139/188/353 140/190/354 144/195/355 143/193/356
s 18
f 140/190/357 137/187/358 141/192/359 144/195/360
s 15
f 141/192/348 142/191/347 146/196/361 145/197/362
s 16
f 142/194/352 143/193/351 147/198/363 146/199/364
s 17
f 143/193/356 144/195/355 148/200/365 147/198/366
s 18
f 144/195/360 141/192/359 145/197/367 148/200/368
s off
f 149/201/369 150/202/370 156/203/371 153/204/372
f 154/205/373 155/206/374 152/207/375 151/208/376
f 161/209/377 162/210/378 163/211/379 164/212/380
f 150/202/381 152/213/382 155/214/383 156/203/384
f 151/208/385 149/201/386 153/204/387 154/205/388
f 154/215/389 153/216/390 157/217/391 158/218/392
f 155/219/393 154/220/394 158/218/395 159/221/396
f 156/222/397 155/223/398 159/224/399 160/225/400
f 153/226/401 156/227/402 160/225/403 157/217/404
f 151/208/405 152/207/406 162/228/407 161/229/408
f 152/213/409 150/202/410 163/230/411 162/231/412
f 150/202/413 149/201/414 164/232/415 163/233/416
f 149/201/417 151/208/418 161/209/419 164/212/420
f 158/218/421 157/217/422 165/234/423 166/235/424
f 159/221/425 158/218/426 166/235/427 167/236/428
f 160/225/429 159/224/430 167/237/431 168/238/432
f 157/217/433 160/225/434 168/238/435 165/234/436
s 19
f 181/239/437 178/240/438 180/241/439
f 180/241/439 178/240/438 179/242/440
f 180/241/439 179/242/440 183/243/441
f 183/243/441 179/242/440 182/244/442
f 183/243/441 182/244/442 185/245/443
f 185/245/443 182/244/442 184/246/444
f 185/245/443 184/246/444 187/247/445
f 187/247/445 184/246/444 186/248/446
f 187/247/445 186/248/446 189/249/447
f 189/249/447 186/248/446 188/250/448
f 189/249/447 188/250/448 191/251/449
f 191/251/449 188/250/448 190/252/450
f 191/251/449 190/252/450 193/253/451
f 193/253/451 190/252/450 192/254/452
f 192/254/452 195/255/453 193/253/451
f 193/253/451 195/255/453 194/256/454
s 20
f 177/257/455 181/258/456 176/259/457
f 176/259/457 181/258/456 180/260/458
f 183/261/459 175/262/460 180/260/458
f 180/260/458 175/262/460 176/259/457
f 185/263/461 174/264/462 183/261/459
f 183/261/459 174/264/462 175/262/460
f 187/265/463 173/266/464 185/263/461
f 185/263/461 173/266/464 174/264/462
f 173/266/464 187/265/463 172/267/465
f 172/267/465 187/265/463 189/268/466
f 172/267/465 189/268/466 171/269/467
f 171/269/467 189/268/466 191/270/468
f 170/271/469 171/269/467 193/272/470
f 193/272/470 171/269/467 191/270/468
f 170/271/469 193/272/470 169/273/471
f 169/273/471 193/272/470 194/274/472
s 24
f 177/257/473 176/259/474 196/275/475
f 170/271/476 169/273/477 197/276/478
f 171/269/479 170/271/476 197/276/478
f 172/267/480 171/269/479 197/276/478
f 173/266/481 172/267/480 197/276/478
f 196/275/475 174/264/482 197/276/478
f 174/264/482 173/266/481 197/276/478
f 175/262/483 174/264/482 196/275/475
f 176/259/474 175/262/483 196/275/475
s 20
f 194/274/472 198/277/484 169/273/471
f 169/273/471 198/277/484 197/276/485
s 19
f 194/256/454 195/255/453 198/278/486
f 198/278/486 195/255/453 199/279/487
s 27
f 181/239/488 209/280/489 178/240/490
f 178/240/490 209/280/489 208/281/491
f 209/280/489 211/282/492 208/281/491
f 208/281/491 211/282/492 210/283/493
f 211/282/492 213/284/494 210/283/493
f 210/283/493 213/284/494 212/285/495
f 213/284/494 215/286/496 212/285/495
f 212/285/495 215/286/496 214/287/497
f 215/286/496 217/288/498 214/287/497
f 214/287/497 217/288/498 216/289/499
f 217/288/498 219/290/500 216/289/499
f 216/289/499 219/290/500 218/291/501
f 219/290/500 221/292/502 218/291/501
f 218/291/501 221/292/502 220/293/503
f 220/293/503 221/292/502 223/294/504
f 223/294/504 221/292/502 222/295/505
s 28
f 209/296/506 181/258/507 207/297/508
f 207/297/508 181/258/507 177/257/509
f 211/298/510 209/296/506 206/299/511
f 206/299/511 209/296/506 207/297/508
f 213/300/512 211/298/510 205/301/513
f 205/301/513 211/298/510 206/299/511
f 215/302/514 213/300/512 204/303/515
f 204/303/515 213/300/512 205/301/513
f 217/304/516 215/302/514 203/305/517
f 203/305/517 215/302/514 204/303/515
f 219/306/518 217/304/516 202/307/519
f 202/307/519 217/304/516 203/305/517
f 201/308/520 221/309/521 202/307/519
f 202/307/519 221/309/521 219/306/518
f 222/310/522 221/309/521 200/311/523
f 200/311/523 221/309/521 201/308/520
s 24
f 177/257/473 196/275/475 207/297/524
f 201/308/525 224/312/526 200/311/527
f 202/307/528 224/312/526 201/308/525
f 203/305/529 224/312/526 202/307/528
f 204/303/530 224/312/526 203/305/529
f 196/275/475 224/312/526 205/301/531
f 205/301/531 224/312/526 204/303/530
f 206/299/532 196/275/475 205/301/531
f 207/297/524 196/275/475 206/299/532
s 28
f 224/312/533 225/313/534 200/311/523
f 200/311/523 225/313/534 222/310/522
s 27
f 222/295/505 225/314/535 223/294/504
f 223/294/504 225/314/535 226/315/536
s 31
f 227/316/537 228/317/538 238/318/539 235/319/540
s off
f 247/320/541 248/321/542 249/322/543 250/323/544
s 32
f 236/324/545 237/325/546 234/326/547 233/327/548
s 33
f 228/317/549 234/328/550 237/329/551 238/318/552
s 34
f 233/327/553 227/316/554 235/319/555 236/324/556
f 236/324/556 235/319/555 229/330/557 231/331/558
s 32
f 231/331/559 232/332/560 237/325/546 236/324/545
s 33
f 238/318/552 237/329/551 232/333/561 230/334/562
s 31
f 235/319/540 238/318/539 230/334/563 229/330/564
s off
f 229/330/565 230/334/566 240/335/567 239/336/568
f 230/334/569 232/333/570 241/337/571 240/335/572
f 232/332/573 231/331/574 242/338/575 241/339/576
f 231/331/577 229/330/578 239/336/579 242/338/580
f 239/336/581 240/335/582 244/340/583 243/341/584
f 240/335/585 241/337/586 245/342/587 244/340/588
f 241/339/589 242/338/590 246/343/591 245/344/592
f 242/338/593 239/336/594 243/341/595 246/343/596
f 243/341/597 244/340/598 248/345/599 247/346/600
f 244/340/601 245/342/602 249/347/603 248/345/604
f 245/344/605 246/343/606 250/348/607 249/349/608
f 246/343/609 243/341/610 247/346/611 250/348/612
f 233/327/613 234/326/614 252/350/615 251/351/616
f 234/328/617 228/317/618 253/352/619 252/353/620
f 228/317/621 227/316/622 254/354/623 253/352/624
f 227/316/625 233/327/626 251/351/627 254/354/628
s 35
f 251/351/629 252/350/630 256/355/631 255/356/632
s 36
f 252/353/633 253/352/634 257/357/635 256/358/636
s 37
f 253/352/637 254/354/638 258/359/639 257/357/640
s 38
f 254/354/641 251/351/642 255/356/643 258/359/644
s 35
f 255/356/632 256/355/631 260/360/645 259/361/646
s 36
f 256/358/636 257/357/635 261/362/647 260/363/648
s 37
f 257/357/640 258/359/639 262/364/649 261/362/650
s 38
f 258/359/644 255/356/643 259/361/651 262/364/652
s 39
f 263/365/653 264/366/654 276/367/655 275/368/656
f 264/366/654 265/369/657 277/370/658 276/367/655
f 265/369/657 266/371/659 278/372/660 277/370/658
f 266/371/659 267/373/661 279/374/662 278/372/660
f 267/373/661 268/375/663 280/376/664 279/374/662
f 268/375/663 269/377/665 281/378/666 280/376/664
f 269/377/665 270/379/667 282/380/668 281/378/666
f 270/379/667 271/381/669 283/382/670 282/380/668
f 271/381/669 272/383/671 284/384/672 283/382/670
f 272/383/671 273/385/673 285/386/674 284/384/672
f 273/385/673 274/387/675 286/388/676 285/386/674
f 274/387/675 263/389/653 275/390/656 286/388/676
s off
f 287/391/677 288/392/678 294/393/679 291/394/680
f 292/395/681 293/396/682 290/397/683 289/398/684
f 299/399/685 300/400/686 301/401/687 302/402/688
f 288/392/689 290/403/690 293/404/691 294/393/692
f 289/398/693 287/391/694 291/394/695 292/395/696
f 292/405/697 291/406/698 295/407/699 296/408/700
f 293/409/701 292/410/702 296/408/703 297/411/704
f 294/412/705 293/413/706 297/414/707 298/415/708
f 291/416/709 294/417/710 298/415/711 295/407/712
f 289/398/713 290/397/714 300/418/715 299/419/716
f 290/403/717 288/392/718 301/420/719 300/421/720
f 288/392/721 287/391/722 302/422/723 301/423/724
f 287/391/725 289/398/726 299/399/727 302/402/728
f 296/408/729 295/407/730 303/424/731 304/425/732
f 297/411/733 296/408/734 304/425/735 305/426/736
f 298/415/737 297/414/738 305/427/739 306/428/740
f 295/407/741 298/415/742 306/428/743 303/424/744
f 309/429/745 310/430/746 313/431/747 314/432/748
f 307/433/749 308/434/750 310/430/751 309/429/752
f 308/434/753 307/433/754 311/435/755 312/436/756
f 317/437/757 318/438/758 323/439/759 324/440/760
f 315/441/761 316/442/762 318/438/763 317/437/764
f 316/442/765 315/441/766 321/443/767 322/444/768
f 324/440/769 323/439/770 319/445/771 320/446/772
f 320/446/773 319/445/774 326/447/775 325/448/776
f 327/449/777 328/450/778 334/451/779 331/452/780
f 332/453/781 333/454/782 330/455/783 329/456/784
f 329/456/785 330/457/786 328/458/787 327/449/788
f 328/450/789 330/459/790 333/460/791 334/451/792
f 329/456/793 327/449/794 331/452/795 332/453/796
f 337/461/797 338/462/798 343/463/799 344/464/800
f 335/465/801 336/466/802 338/462/803 337/461/804
f 336/466/805 335/465/806 341/467/807 342/468/808
f 344/464/809 343/463/810 339/469/811 340/470/812
f 340/470/813 339/469/814 346/471/815 345/472/816
f 349/473/817 350/474/818 353/475/819 354/476/820
f 347/477/821 348/478/822 350/474/823 349/473/824
f 348/478/825 347/477/826 351/479/827 352/480/828
f 355/481/829 356/482/830 362/483/831 359/484/832
f 360/485/833 361/486/834 358/487/835 357/488/836
f 357/488/837 358/489/838 356/490/839 355/481/840
f 356/482/841 358/491/842 361/492/843 362/483/844
f 357/488/845 355/481/846 359/484/847 360/485/848
f 363/493/849 364/494/850 370/495/851 367/496/852
f 368/497/853 369/498/854 366/499/855 365/500/856
f 375/501/857 376/502/858 377/503/859 378/504/860
f 364/494/861 366/505/862 369/506/863 370/495/864
f 365/500/865 363/493/866 367/496/867 368/497/868
f 368/507/869 367/508/870 371/509/871 372/510/872
f 369/511/873 368/512/874 372/510/875 373/513/876
f 370/514/877 369/515/878 373/516/879 374/517/880
f 367/518/881 370/519/882 374/517/883 371/509/884
f 365/500/885 366/499/886 376/520/887 375/521/888
f 366/505/889 364/494/890 377/522/891 376/523/892
f 364/494/893 363/493/894 378/524/895 377/525/896
f 363/493/897 365/500/898 375/501/899 378/504/900
f 372/510/901 371/509/902 379/526/903 380/527/904
f 373/513/905 372/510/906 380/527/907 381/528/908
f 374/517/909 373/516/910 381/529/911 382/530/912
f 371/509/913 374/517/914 382/530/915 379/526/916
s 40
f 383/531/917 384/532/918 396/533/919 395/534/920
f 384/532/918 385/535/921 397/536/922 396/533/919
f 385/535/921 386/537/923 398/538/924 397/536/922
f 386/537/923 387/539/925 399/540/926 398/538/924
f 387/539/925 388/541/927 400/542/928 399/540/926
f 388/541/927 389/543/929 401/544/930 400/542/928
f 389/543/929 390/545/931 402/546/932 401/544/930
f 390/545/931 391/547/933 403/548/934 402/546/932
f 391/547/933 392/549/935 404/550/936 403/548/934
f 392/549/935 393/551/937 405/552/938 404/550/936
f 393/551/937 394/553/939 406/554/940 405/552/938
f 394/553/939 383/555/917 395/556/920 406/554/940
s 41
f 407/557/941 408/558/942 418/559/943 415/560/944
s off
f 427/561/945 428/562/946 429/563/947 430/564/948
s 42
f 416/565/949 417/566/950 414/567/951 413/568/952
s 43
f 408/558/953 414/569/954 417/570/955 418/559/956
s 44
f 413/568/957 407/557/958 415/560/959 416/565/960
f 416/565/960 415/560/959 409/571/961 411/572/962
s 42
f 411/572/963 412/573/964 417/566/950 416/565/949
s 43
f 418/559/956 417/570/955 412/574/965 410/575/966
s 41
f 415/560/944 418/559/943 410/575/967 409/571/968
s off
f 409/571/969 410/575/970 420/576/971 419/577/972
f 410/575/973 412/574/974 421/578/975 420/576/976
f 412/573/977 411/572/978 422/579/979 421/580/980
f 411/572/981 409/571/982 419/577/983 422/579/984
f 419/577/985 420/576/986 424/581/987 423/582/988
f 420/576/989 421/578/990 425/583/991 424/581/992
f 421/580/993 422/579/994 426/584/995 425/585/996
f 422/579/997 419/577/998 423/582/999 426/584/1000
f 423/582/1001 424/581/1002 428/586/1003 427/587/1004
f 424/581/1005 425/583/1006 429/588/1007 428/586/1008
f 425/585/1009 426/584/1010 430/589/1011 429/590/1012
f 426/584/1013 423/582/1014 427/587/1015 430/589/1016
f 413/568/1017 414/567/1018 432/591/1019 431/592/1020
f 414/569/1021 408/558/1022 433/593/1023 432/594/1024
f 408/558/1025 407/557/1026 434/595/1027 433/593/1028
f 407/557/1029 413/568/1030 431/592/1031 434/595/1032
s 45
f 431/592/1033 432/591/1034 436/596/1035 435/597/1036
s 46
f 432/594/1037 433/593/1038 437/598/1039 436/599/1040
s 47
f 433/593/1041 434/595/1042 438/600/1043 437/598/1044
s 48
f 434/595/1045 431/592/1046 435/597/1047 438/600/1048
s 45
f 435/597/1036 436/596/1035 440/601/1049 439/602/1050
s 46
f 436/599/1040 437/598/1039 441/603/1051 440/604/1052
s 47
f 437/598/1044 438/600/1043 442/605/1053 441/603/1054
s 48
f 438/600/1048 435/597/1047 439/602/1055 442/605/1056
s off
f 445/606/1057 446/607/1058 451/608/1059 452/609/1060
f 443/610/1061 444/611/1062 446/607/1063 445/606/1064
f 444/611/1065 443/610/1066 449/612/1067 450/613/1068
f 452/609/1069 451/608/1070 447/614/1071 448/615/1072
f 448/615/1073 447/614/1074 454/616/1075 453/617/1076
f 457/618/1077 458/619/1078 463/620/1079 464/621/1080
f 455/622/1081 456/623/1082 458/619/1083 457/618/1084
f 456/623/1085 455/622/1086 461/624/1087 462/625/1088
f 464/621/1089 463/620/1090 459/626/1091 460/627/1092
f 460/627/1093 459/626/1094 466/628/1095 465/629/1096
f 469/630/1097 470/631/1098 473/632/1099 474/633/1100
f 467/634/1101 468/635/1102 470/631/1103 469/630/1104
f 468/635/1105 467/634/1106 471/636/1107 472/637/1108
f 475/638/1109 476/639/1110 482/640/1111 479/641/1112
f 480/642/1113 481/643/1114 478/644/1115 477/645/1116
f 477/645/1117 478/646/1118 476/647/1119 475/638/1120
f 476/639/1121 478/648/1122 481/649/1123 482/640/1124
f 477/645/1125 475/638/1126 479/641/1127 480/642/1128
f 485/650/1129 486/651/1130 489/652/1131 490/653/1132
f 483/654/1133 484/655/1134 486/651/1135 485/650/1136
f 484/655/1137 483/654/1138 487/656/1139 488/657/1140
f 495/658/1141 496/659/1142 499/660/1143 500/661/1144
f 496/662/1145 495/663/1146 498/664/1147 497/665/1148
f 500/666/1149 499/667/1150 502/668/1151 501/669/1152
f 491/670/1153 492/671/1154 498/672/1155 495/673/1156
f 500/674/1157 501/675/1158 494/676/1159 493/677/1160
f 493/678/1161 491/679/1162 495/658/1163 500/661/1164
f 496/662/1165 497/665/1166 503/680/1167 504/681/1168
f 502/668/1169 499/667/1170 506/682/1171 505/683/1172
f 499/684/1173 496/685/1174 504/686/1175 506/687/1176
