# This file uses centimeters as units for non-parametric coordinates.

g Clock:default1
v 13.494907 -2.745066 7.832543
v 13.494907 2.745066 7.832543
v 13.494907 2.745066 -8.700000
v 13.494907 -2.745066 -8.700000
v 12.938982 2.745066 7.300000
v 12.938982 2.745066 -8.200000
v 12.938982 -2.225647 7.300000
v 12.938982 -2.225647 -8.200000
v -13.494907 -2.745066 7.832543
v -13.494907 2.745066 7.832543
v -12.938982 -2.225647 7.300000
v -12.938982 -2.225647 -8.200000
v -13.494907 2.745066 -8.700000
v -13.494907 -2.745066 -8.700000
v -12.938982 2.745066 7.300000
v -12.938982 2.745066 -8.200000
g default
v 12.966093 -2.283278 8.700000
v 12.966093 2.283278 8.700000
v -12.933907 2.283278 8.700000
v -12.933907 -2.283278 8.700000
vt 0.875288 0.331475
vt 0.834243 0.407477
vt 0.834243 0.464714
vt 0.661885 0.464714
vt 0.865738 0.378927
vt 0.865705 0.335839
vt 0.829973 0.462084
vt 0.667746 0.462084
vt 0.667745 0.410059
vt 0.829972 0.410059
vt 0.834581 0.407365
vt 0.611616 0.383481
vt 0.661547 0.464826
vt 0.661547 0.407365
vt 0.621327 0.336029
vt 0.621360 0.379116
vt 0.667745 0.462084
vt 0.667745 0.410059
vt 0.829973 0.410059
vt 0.829972 0.462084
vt 0.885128 0.472955
vt 0.885128 0.639780
vt 0.606606 0.639780
vt 0.606606 0.472955
vt 0.883074 0.471200
vt 0.883074 0.639354
vt 0.616027 0.326760
vt 0.608556 0.471200
vt 0.870735 0.388195
vt 0.824678 0.397597
vt 0.621324 0.393413
vt 0.830252 0.397085
vt 0.657218 0.403416
vt 0.880476 0.397634
vt 0.662451 0.402903
vt 0.657218 0.397085
vt 0.604019 0.464720
vt 0.604019 0.407259
vt 0.886501 0.407259
vt 0.886501 0.464720
vt 0.611487 0.462421
vt 0.611487 0.410396
vt 0.882332 0.410396
vt 0.882332 0.462421
vt 0.882332 0.410396
vt 0.882332 0.462421
vt 0.611487 0.462421
vt 0.611487 0.410396
vt 0.830252 0.403416
vt 0.865494 0.393224
vt 0.824678 0.402904
vt 0.834581 0.464826
vt 0.616074 0.388393
vt 0.611576 0.331679
vt 0.608556 0.639355
vt 0.870687 0.326563
vt 0.661885 0.407477
vt 0.875328 0.383277
vt 0.886294 0.402867
vt 0.662451 0.397597
vt 0.609631 0.397634
vt 0.603812 0.402867
vn 0.000000 0.000000 1.000000
vn 0.000000 0.000000 1.000000
vn 0.000000 0.000000 1.000000
vn 0.000000 0.000000 1.000000
vn 0.000000 1.000000 0.000000
vn 0.000000 1.000000 0.000000
vn 0.000000 1.000000 0.000000
vn 0.000000 1.000000 0.000000
vn 0.000000 0.000000 -1.000000
vn 0.000000 0.000000 -1.000000
vn 0.000000 0.000000 -1.000000
vn 0.000000 0.000000 -1.000000
vn 0.000000 -1.000000 0.000000
vn 0.000000 -1.000000 0.000000
vn 0.000000 -1.000000 0.000000
vn 0.000000 -1.000000 0.000000
vn 1.000000 0.000000 0.000000
vn 1.000000 0.000000 0.000000
vn 1.000000 0.000000 0.000000
vn 1.000000 0.000000 0.000000
vn 0.000000 1.000000 -0.000007
vn 0.000000 1.000000 -0.000007
vn 0.000000 1.000000 -0.000007
vn 0.000000 1.000000 -0.000007
vn 0.000000 1.000000 0.000000
vn 0.000000 1.000000 0.000000
vn 0.000000 1.000000 0.000000
vn 0.000000 1.000000 0.000000
vn 0.000000 1.000000 0.000005
vn 0.000000 1.000000 0.000005
vn 0.000000 1.000000 0.000007
vn 0.000000 1.000000 0.000007
vn 0.000000 0.000000 -1.000000
vn 0.000000 0.000000 -1.000000
vn 0.000000 0.000000 -1.000000
vn 0.000000 0.000000 -1.000000
vn -1.000000 0.000000 0.000000
vn -1.000000 0.000000 0.000000
vn -1.000000 0.000000 0.000000
vn -1.000000 0.000000 0.000000
vn 0.000000 0.000000 1.000000
vn 0.000000 0.000000 1.000000
vn 0.000000 0.000000 1.000000
vn 0.000000 0.000000 1.000000
vn -1.000000 0.000000 0.000000
vn -1.000000 0.000000 0.000000
vn -1.000000 0.000000 0.000000
vn -1.000000 0.000000 0.000000
vn 0.000000 1.000000 0.000000
vn 0.000000 1.000000 0.000000
vn 0.000000 1.000000 0.000000
vn 0.000000 1.000000 0.000000
vn 1.000000 0.000000 0.000000
vn 1.000000 0.000000 0.000000
vn 1.000000 0.000000 0.000000
vn 1.000000 0.000000 0.000000
vn 0.853850 0.000000 0.520519
vn 0.853850 0.000000 0.520519
vn 0.000000 0.000000 1.000000
vn 0.000000 0.000000 1.000000
vn 0.000000 0.882714 0.469910
vn 0.000000 0.882714 0.469910
vn 0.000000 0.000000 1.000000
vn 0.000000 0.000000 1.000000
vn -0.839700 0.000000 0.543050
vn -0.839700 0.000000 0.543050
vn 0.000000 0.000000 1.000000
vn 0.000000 0.000000 1.000000
vn 0.000000 -0.882714 0.469910
vn 0.000000 -0.882714 0.469910
vn 0.000000 0.000000 1.000000
vn 0.000000 0.000000 1.000000
s off
g Clock:Drawer Clock:GrandFatherClock Clock:drawer textureEditorIsolateSelectSet polySurface52 Clock:polySurface1
f 17/6/1 18/5/2 19/16/3 20/15/4
f 7/21/5 8/22/6 12/23/7 11/24/8
f 3/37/9 4/38/10 14/39/11 13/40/12
f 4/25/13 1/26/14 9/55/15 14/28/16
f 1/57/17 4/2/18 3/3/19 2/4/20
f 2/29/21 5/50/22 15/31/23 10/53/24
f 2/49/25 3/33/26 6/60/27 5/30/28
f 6/34/29 3/59/30 13/62/31 16/61/32
f 5/41/33 7/42/34 11/43/35 15/44/36
f 5/7/37 6/8/38 8/9/39 7/10/40
f 8/45/41 6/46/42 16/47/43 12/48/44
f 9/11/45 10/52/46 13/13/47 14/14/48
f 10/32/49 15/51/50 16/35/51 13/36/52
f 15/17/53 11/18/54 12/19/55 16/20/56
f 1/1/57 2/58/58 18/5/59 17/6/60
f 2/29/61 10/53/62 19/16/63 18/5/64
f 10/12/65 9/54/66 20/15/67 19/16/68
f 9/27/69 1/56/70 17/6/71 20/15/72
