# This file uses meters as units for non-parametric coordinates.

g default
v 2.547607 69.233727 -0.000007
v 2.547607 68.793648 -38.527496
v 2.547607 80.699287 -36.641827
v 2.547607 91.439537 -31.169401
v 2.547607 99.963036 -22.645897
v 2.547607 105.435463 -11.905658
v 2.547607 105.435463 11.905649
v 2.547607 99.963036 22.645891
v 2.547607 91.439537 31.169397
v 2.547607 80.699287 36.641830
v 2.547607 68.793648 38.527504
v 2.547607 -118.750000 -0.000007
v 2.452393 -118.750000 -50.000011
v 2.452393 -118.750000 50.000015
v -2.547607 -118.750000 -50.000011
v -2.547607 -118.750000 50.000015
v -2.547607 68.749992 -50.000011
v -2.547607 84.200844 -47.552837
v -2.547607 98.139259 -40.450863
v -2.547607 109.200859 -29.389275
v -2.547607 116.302834 -15.450860
v -2.547607 118.750008 -0.000007
v -2.547607 116.302834 15.450849
v -2.547607 109.200859 29.389267
v -2.547607 98.139259 40.450859
v -2.547607 84.200844 47.552841
v -2.547607 68.749992 50.000015
v -2.547607 -2.349030 50.000015
v 2.547607 -2.348114 38.527504
v 2.547607 -9.077911 -0.000007
v 2.547607 -2.348114 -38.527496
v -2.547607 -2.349030 -50.000011
v -2.547607 -35.757095 50.000015
v 2.547607 -35.811005 38.527504
v 2.547607 -35.810883 -0.000007
v 2.547607 -35.811005 -38.527496
v -2.547607 -35.757095 -50.000011
v 2.452393 -35.746399 -50.000011
v 2.452393 -2.336563 -50.000011
v 2.452393 68.749992 -50.000011
v 2.452393 84.200844 -47.552837
v 2.452393 98.139259 -40.450863
v 2.452393 109.200859 -29.389275
v 2.452393 116.302834 -15.450859
v 2.452393 118.750008 -0.000007
v 2.452393 116.302834 15.450849
v 2.452393 109.200859 29.389267
v 2.452393 98.139259 40.450859
v 2.452393 84.200844 47.552841
v 2.452393 68.749992 50.000015
v 2.452393 -2.336563 50.000015
v 2.452393 -35.746399 50.000015
v 2.547607 69.163658 4.458839
v 2.547607 -2.348450 4.458837
v 2.547607 -2.348450 -4.376028
v 2.547607 69.164604 -4.376028
v 2.547607 107.061729 -4.619261
v 2.547607 107.302544 -0.000007
v 2.547607 107.061729 4.619247
v -0.047607 67.572060 6.071967
v -0.047607 69.277290 36.914379
v -0.047607 0.221695 36.914379
v -0.047607 0.221375 6.071965
v -0.047607 102.449181 12.813574
v -0.047607 97.494987 22.536730
v -0.047607 89.778664 30.253071
v -0.047607 80.055504 35.207272
v -0.047607 103.921455 6.217184
v -0.047607 67.526283 -6.040457
v -0.047607 69.231697 -36.863068
v -0.047607 0.373169 -6.040456
v -0.047607 0.373474 -36.863068
v -0.047607 79.976860 -35.161198
v -0.047607 89.670219 -30.222191
v -0.047607 97.362907 -22.529501
v -0.047607 102.301918 -12.836148
v -0.047607 103.769676 -6.259980
v -2.547607 -9.097183 -50.000011
v 2.452393 -9.084991 -50.000011
v 2.547607 -9.077606 -38.527496
v 2.547607 -9.077606 38.527504
v 2.452393 -9.084991 50.000015
v -2.547607 -9.097183 50.000015
v -2.547607 -42.195374 -50.000015
v 2.452393 -42.185638 -50.000015
v 2.547607 -42.192688 -38.527496
v 2.547607 -42.192596 -4.376028
v 2.547607 -42.192596 4.458838
v 2.547607 -42.192688 38.527504
v 2.452393 -42.185638 50.000015
v -2.547607 -42.195374 50.000015
v -0.047607 -11.360107 -0.000006
v -0.047607 -33.528656 -0.000006
v -0.047607 -11.359833 36.934837
v -0.047607 -33.528748 36.934837
v -0.047607 -11.359833 -36.934830
v -0.047607 -33.528748 -36.934830
v 2.547607 -97.495270 -38.527496
v 2.547607 -97.495270 -4.376027
v 2.547607 -97.495270 4.458838
v 2.547607 -97.495270 38.527504
v -0.047607 -44.683044 -36.989605
v -0.047607 -44.682953 -5.913917
v -0.047607 -95.004913 -5.913917
v -0.047607 -95.004913 -36.989605
v -0.047607 -95.303314 5.809185
v -0.047607 -95.303314 37.177158
v -0.047607 -44.384583 5.809185
v -0.047607 -44.384659 37.177158
v 2.452393 66.842285 7.143300
v 2.452393 68.493629 35.598125
v 2.452393 1.620239 35.598125
v 2.452393 1.619934 7.143299
v 2.452393 100.617271 13.363023
v 2.452393 95.819633 22.333485
v 2.452393 88.347153 29.452486
v 2.452393 78.931244 34.023170
v 2.452393 102.043015 7.277276
v 2.452393 -12.617889 -0.000006
v 2.452393 -32.270844 -0.000006
v 2.452393 -12.617645 35.505150
v 2.452393 -32.270935 35.505150
v 2.452393 -12.617645 -35.505142
v 2.452393 -32.270935 -35.505142
v 2.452393 66.605392 -7.126837
v 2.452393 68.255730 -35.563396
v 2.452393 1.621155 -7.126837
v 2.452393 1.621460 -35.563396
v 2.452393 78.653854 -33.993271
v 2.452393 88.034142 -29.436605
v 2.452393 95.478378 -22.339424
v 2.452393 100.257866 -13.396458
v 2.452393 101.678223 -7.329367
v 2.452393 -46.755249 -35.399979
v 2.452393 -46.755157 -7.503542
v 2.452393 -92.932709 -7.503542
v 2.452393 -92.932709 -35.399979
v 2.452393 -92.939880 7.498393
v 2.452393 -92.939880 35.487949
v 2.452393 -46.748001 7.498393
v 2.452393 -46.748077 35.487949
vt 0.929685 0.987388
vt 0.953558 0.977747
vt 0.957721 0.984134
vt 0.931726 0.994789
vt 0.972587 0.960730
vt 0.978628 0.965393
vt 0.904739 0.989917
vt 0.904807 0.997636
vt 0.879762 0.987667
vt 0.877887 0.995075
vt 0.855752 0.978292
vt 0.851750 0.984761
vt 0.836481 0.961444
vt 0.830546 0.966248
vt 0.841071 0.800797
vt 0.892349 0.800878
vt 0.888637 0.804478
vt 0.844826 0.804661
vt 0.904023 0.779763
vt 0.842166 0.779420
vt 0.846076 0.775821
vt 0.904019 0.775228
vt 0.965806 0.779388
vt 0.961758 0.775822
vt 0.843044 0.742700
vt 0.904179 0.741759
vt 0.904175 0.746316
vt 0.847070 0.746319
vt 0.965199 0.742723
vt 0.961316 0.746347
vt 0.915707 0.800950
vt 0.966904 0.800982
vt 0.963184 0.804668
vt 0.919425 0.804400
vt 0.968567 0.932871
vt 0.972618 0.913638
vt 0.990135 0.913574
vt 0.985007 0.938570
vt 0.964281 0.930963
vt 0.967893 0.914212
vt 0.971123 0.795164
vt 0.989584 0.794268
vt 0.958905 0.950042
vt 0.956010 0.946003
vt 0.970304 0.784199
vt 0.988998 0.783206
vt 0.944231 0.963293
vt 0.943493 0.957774
vt 0.953264 0.942228
vt 0.960568 0.928210
vt 0.911183 0.795773
vt 0.904027 0.785227
vt 0.969521 0.737853
vt 0.988223 0.738232
vt 0.925549 0.970825
vt 0.927744 0.964861
vt 0.942281 0.953212
vt 0.919796 0.910061
vt 0.910913 0.913996
vt 0.915591 0.911499
vt 0.904332 0.914137
vt 0.970159 0.727493
vt 0.988508 0.727628
vt 0.912080 0.971724
vt 0.916403 0.965658
vt 0.928775 0.959974
vt 0.963506 0.912588
vt 0.904625 0.972172
vt 0.897626 0.914033
vt 0.896786 0.795783
vt 0.837761 0.784267
vt 0.904187 0.736264
vt 0.911144 0.726262
vt 0.970555 0.635763
vt 0.989094 0.600826
vt 0.920041 0.961593
vt 0.897164 0.971773
vt 0.892969 0.911632
vt 0.836877 0.795285
vt 0.838624 0.737830
vt 0.904149 0.600902
vt 0.911177 0.635053
vt 0.915344 0.721239
vt 0.965949 0.722209
vt 0.966375 0.640950
vt 0.892821 0.965951
vt 0.818512 0.794437
vt 0.819062 0.783324
vt 0.819920 0.738201
vt 0.837978 0.727452
vt 0.897099 0.726274
vt 0.896998 0.635003
vt 0.915440 0.640178
vt 0.919436 0.716867
vt 0.961831 0.717626
vt 0.962306 0.645453
vt 0.883634 0.971071
vt 0.881427 0.965304
vt 0.835985 0.914148
vt 0.840670 0.914765
vt 0.818393 0.914166
vt 0.819648 0.727586
vt 0.841900 0.722418
vt 0.893023 0.721747
vt 0.837796 0.635758
vt 0.819311 0.600821
vt 0.919597 0.644630
vt 0.864849 0.963715
vt 0.865555 0.958336
vt 0.880415 0.960626
vt 0.889168 0.962164
vt 0.840166 0.933425
vt 0.844421 0.931580
vt 0.823768 0.939303
vt 0.846031 0.717335
vt 0.888745 0.717162
vt 0.893013 0.639877
vt 0.841863 0.640435
vt 0.850011 0.950568
vt 0.852868 0.946626
vt 0.866806 0.953983
vt 0.888759 0.910507
vt 0.846136 0.645161
vt 0.888823 0.644810
vt 0.855663 0.943080
vt 0.848177 0.929075
vt 0.845057 0.913399
vt 0.997063 0.782940
vt 0.996305 0.738161
vt 0.997632 0.793891
vt 0.996539 0.727665
vt 0.997779 0.913877
vt 0.997140 0.600965
vt 0.992202 0.941072
vt 0.816584 0.941942
vt 0.810699 0.914546
vt 0.810458 0.794069
vt 0.811002 0.783034
vt 0.811841 0.738108
vt 0.811622 0.727617
vt 0.811261 0.600956
vn 0.999965 0.002570 -0.007902
vn 0.999965 0.001315 -0.008303
vn 0.999965 0.001315 -0.008303
vn 0.999966 0.002564 -0.007904
vn 0.999965 0.004891 -0.006730
vn 0.999965 0.004887 -0.006733
vn 0.999965 0.006736 -0.004892
vn 0.999965 0.006734 -0.004896
vn 0.999964 0.007512 -0.003828
vn 0.999965 0.007512 -0.003828
vn 0.999965 0.006736 0.004891
vn 0.999964 0.007513 0.003828
vn 0.999964 0.007513 0.003828
vn 0.999965 0.006734 0.004894
vn 0.999965 0.004891 0.006727
vn 0.999965 0.004887 0.006730
vn 0.999965 0.002570 0.007901
vn 0.999965 0.002564 0.007903
vn 0.999965 0.001315 0.008305
vn 0.999965 0.001315 0.008305
vn 1.000000 -0.000000 -0.000008
vn 1.000000 -0.000000 -0.000008
vn 1.000000 -0.000000 -0.000006
vn 1.000000 -0.000000 -0.000008
vn 1.000000 -0.000000 0.000012
vn 1.000000 -0.000000 0.000012
vn 1.000000 -0.000000 0.000008
vn 1.000000 -0.000000 0.000006
vn 0.999966 -0.000000 -0.008297
vn 0.999966 -0.000000 -0.008297
vn 0.999966 -0.000000 -0.008298
vn 0.999966 -0.000000 -0.008298
vn 0.999966 -0.000000 0.008297
vn 0.999966 -0.000000 0.008297
vn 0.999966 -0.000000 0.008298
vn 0.999966 -0.000000 0.008298
vn 0.999966 -0.000000 0.008298
vn 0.999966 -0.000000 0.008298
vn 0.999966 -0.000000 0.008296
vn 0.999966 -0.000000 0.008296
vn 0.999966 -0.000000 -0.008298
vn 0.999966 -0.000000 -0.008298
vn 0.999966 -0.000000 -0.008296
vn 0.999966 -0.000000 -0.008296
vn 0.000000 0.000000 -1.000000
vn 0.000000 0.000000 -1.000000
vn -0.000000 0.000000 -1.000000
vn -0.000000 0.000000 -1.000000
vn 0.000000 0.000000 -1.000000
vn 0.000000 0.000000 -1.000000
vn 0.000000 0.000000 -1.000000
vn 0.000000 0.000000 -1.000000
vn 0.000000 0.309019 -0.951056
vn 0.000000 0.156435 -0.987688
vn 0.000000 0.156435 -0.987688
vn 0.000000 0.309019 -0.951056
vn 0.000000 0.587788 -0.809015
vn 0.000000 0.587788 -0.809015
vn 0.000000 0.809018 -0.587783
vn 0.000000 0.809018 -0.587783
vn 0.000001 0.951057 -0.309016
vn 0.000001 0.951057 -0.309016
vn 0.000001 1.000000 0.000000
vn 0.000001 1.000000 0.000000
vn 0.000000 0.951057 0.309016
vn 0.000000 0.951057 0.309016
vn 0.000000 0.809018 0.587783
vn 0.000000 0.809018 0.587783
vn 0.000000 0.587789 0.809015
vn 0.000000 0.587789 0.809015
vn 0.000000 0.309019 0.951056
vn 0.000000 0.309019 0.951056
vn 0.000000 0.156435 0.987688
vn 0.000000 0.156435 0.987688
vn 0.000000 -0.000000 1.000000
vn 0.000000 -0.000000 1.000000
vn 0.000000 -0.000000 1.000000
vn 0.000000 -0.000000 1.000000
vn 0.000000 -0.000000 1.000000
vn 0.000000 -0.000000 1.000000
vn 0.000000 -0.000000 1.000000
vn 0.000000 -0.000000 1.000000
vn 1.000000 -0.000000 0.000002
vn 1.000000 -0.000000 0.000002
vn 1.000000 -0.000000 0.000002
vn 1.000000 -0.000000 0.000002
vn 1.000000 -0.000000 0.000000
vn 1.000000 -0.000000 0.000000
vn 1.000000 -0.000000 -0.000001
vn 1.000000 -0.000000 -0.000001
vn 0.999998 -0.001951 0.001076
vn 0.999999 -0.001308 0.000721
vn 0.999997 -0.002053 0.001132
vn 0.999997 -0.002053 0.001132
vn 0.999997 -0.002051 -0.001131
vn 0.999999 -0.001314 -0.000725
vn 0.999997 -0.001953 -0.001077
vn 0.999997 -0.002051 -0.001131
vn 1.000000 -0.000000 0.000001
vn 1.000000 -0.000000 0.000001
vn 1.000000 -0.000000 0.000000
vn 1.000000 -0.000000 0.000000
vn 1.000000 -0.000000 0.000000
vn 1.000000 -0.000000 0.000000
vn 1.000000 -0.000000 0.000000
vn 1.000000 -0.000000 0.000000
vn 1.000000 -0.000000 0.000011
vn 1.000000 -0.000000 0.000011
vn 1.000000 -0.000000 0.000011
vn 1.000000 -0.000000 0.000011
vn 0.999963 0.008515 -0.001525
vn 0.999963 0.008515 -0.001525
vn 0.999963 0.008515 -0.001525
vn 0.999963 0.008515 -0.001525
vn 0.999963 0.008515 0.001525
vn 0.999963 0.008515 0.001525
vn 0.999963 0.008515 0.001525
vn 0.999963 0.008515 0.001525
vn 0.999965 0.008317 -0.000435
vn 0.999965 0.008317 -0.000435
vn 0.999965 0.008317 -0.000435
vn 0.999965 0.008317 0.000443
vn 0.999965 0.008317 0.000443
vn 0.999965 0.008317 0.000443
vn 1.000000 -0.000000 0.000000
vn 1.000000 -0.000000 0.000000
vn 1.000000 -0.000000 0.000000
vn 1.000000 -0.000000 -0.000003
vn 1.000000 -0.000000 -0.000003
vn 1.000000 -0.000000 -0.000003
vn 1.000000 -0.000000 0.000000
vn 1.000000 -0.000000 0.000000
vn 1.000000 -0.000000 0.000000
vn 1.000000 -0.000000 0.000000
vn 1.000000 -0.000000 0.000000
vn 1.000000 -0.000000 0.000000
vn 1.000000 -0.000000 0.000018
vn 1.000000 -0.000000 0.000018
vn 1.000000 -0.000000 0.000018
vn 1.000000 -0.000000 0.000000
vn 1.000000 -0.000000 0.000000
vn 1.000000 -0.000000 0.000000
vn 1.000000 -0.000000 0.000000
vn 1.000000 -0.000000 0.000000
vn 1.000000 -0.000000 0.000000
vn 1.000000 -0.000000 0.000000
vn 1.000000 -0.000000 0.000000
vn 1.000000 -0.000000 0.000000
vn 1.000000 -0.000000 0.000000
vn 1.000000 -0.000000 0.000000
vn 1.000000 -0.000000 0.000000
vn 1.000000 -0.000000 0.000000
vn 1.000000 -0.000000 0.000000
vn 1.000000 -0.000000 0.000000
vn 0.525838 -0.014944 -0.850453
vn 0.527908 -0.000000 -0.849302
vn 0.527908 -0.000000 -0.849302
vn 0.524655 -0.023118 -0.851001
vn 0.703620 0.710576 -0.000007
vn 0.703620 0.710576 -0.000007
vn 0.703620 0.710576 -0.000007
vn 0.703620 0.710576 -0.000007
vn 0.527908 -0.000000 0.849302
vn 0.527908 -0.000000 0.849302
vn 0.527908 -0.000000 0.849302
vn 0.527908 -0.000000 0.849302
vn 0.697213 -0.677307 -0.234836
vn 0.631863 -0.645440 -0.429134
vn 0.612220 -0.622185 -0.487927
vn 0.676285 -0.676414 -0.291723
vn 0.556551 -0.506155 -0.658831
vn 0.547454 -0.475510 -0.688610
vn 0.516225 -0.269435 -0.812968
vn 0.515769 -0.260427 -0.816186
vn 0.723100 -0.674155 -0.150469
vn 0.723100 -0.674155 -0.150469
vn 0.528414 -0.003495 0.848980
vn 0.528414 -0.003495 0.848980
vn 0.528414 -0.003495 0.848980
vn 0.528414 -0.003495 0.848980
vn 0.539864 -0.000000 -0.841753
vn 0.539864 -0.000000 -0.841752
vn 0.539864 -0.000000 -0.841753
vn 0.539864 -0.000000 -0.841753
vn 0.723713 0.690101 0.000008
vn 0.723713 0.690101 0.000008
vn 0.723713 0.690101 0.000008
vn 0.723713 0.690101 0.000008
vn 0.539856 -0.000000 0.841757
vn 0.537991 -0.015068 0.842816
vn 0.537018 -0.022553 0.843269
vn 0.539856 -0.000000 0.841757
vn 0.532612 -0.267879 0.802848
vn 0.531810 -0.255976 0.807251
vn 0.576401 -0.499030 0.647094
vn 0.566353 -0.467262 0.678904
vn 0.651953 -0.631963 0.419024
vn 0.631995 -0.609366 0.478807
vn 0.715359 -0.660327 0.228538
vn 0.694963 -0.660182 0.284933
vn 0.740042 -0.656410 0.146504
vn 0.740042 -0.656410 0.146504
vn 0.540658 -0.005251 -0.841226
vn 0.540658 -0.005251 -0.841226
vn 0.540658 -0.005251 -0.841226
vn 0.540658 -0.005251 -0.841226
vn 1.000000 -0.000000 -0.000002
vn 1.000000 -0.000000 -0.000002
vn 1.000000 -0.000000 0.000002
vn 1.000000 -0.000000 0.000002
vn -0.000000 0.000000 -1.000000
vn -0.000000 -0.000000 -1.000000
vn 0.999966 -0.000000 -0.008298
vn 0.999966 -0.000000 -0.008298
vn 1.000000 -0.000000 0.000000
vn 1.000000 -0.000000 0.000000
vn 1.000000 -0.000000 0.000000
vn 1.000000 -0.000000 0.000000
vn 1.000000 -0.000000 0.000000
vn 1.000000 -0.000000 0.000000
vn 1.000000 -0.000000 0.000000
vn 1.000000 -0.000000 0.000000
vn 0.999966 -0.000000 0.008298
vn 0.999966 -0.000000 0.008298
vn 0.000000 -0.000000 1.000000
vn 0.000000 -0.000000 1.000000
vn 0.660370 -0.750940 0.000006
vn 0.660370 -0.750940 0.000006
vn 0.660370 -0.750940 0.000006
vn 0.660370 -0.750940 0.000006
vn 0.523059 -0.000000 -0.852297
vn 0.523059 -0.000000 -0.852297
vn 0.523059 -0.000000 -0.852297
vn 0.523059 -0.000000 -0.852297
vn 0.660377 0.750934 0.000003
vn 0.660377 0.750934 0.000003
vn 0.660377 0.750934 0.000003
vn 0.660377 0.750934 0.000003
vn 0.660368 -0.750942 -0.000006
vn 0.660368 -0.750942 -0.000006
vn 0.660368 -0.750942 -0.000006
vn 0.660368 -0.750942 -0.000006
vn 0.660373 0.750938 -0.000003
vn 0.660373 0.750938 -0.000003
vn 0.660373 0.750938 -0.000003
vn 0.660373 0.750938 -0.000003
vn 0.523058 -0.000000 0.852297
vn 0.523057 -0.000000 0.852297
vn 0.523057 -0.000000 0.852297
vn 0.523057 -0.000000 0.852297
vn 0.000000 -0.000000 -1.000000
vn 0.000000 -0.000000 -1.000000
vn 0.999966 -0.000000 -0.008298
vn 0.999966 -0.000000 -0.008298
vn 1.000000 -0.000000 0.000000
vn 1.000000 -0.000000 0.000000
vn 1.000000 -0.000000 0.000000
vn 1.000000 -0.000000 0.000000
vn 1.000000 -0.000000 -0.000002
vn 1.000000 -0.000000 -0.000002
vn 1.000000 -0.000000 -0.000002
vn 1.000000 -0.000000 -0.000002
vn 0.999966 -0.000000 0.008298
vn 0.999966 -0.000000 0.008298
vn 0.000000 -0.000000 1.000000
vn 0.000000 -0.000000 1.000000
vn 0.692377 -0.721536 0.000002
vn 0.692377 -0.721536 0.000002
vn 0.692377 -0.721536 0.000002
vn 0.692377 -0.721536 0.000002
vn 0.509802 -0.000000 -0.860292
vn 0.509802 -0.000000 -0.860292
vn 0.509802 -0.000000 -0.860292
vn 0.509802 -0.000000 -0.860292
vn 0.692384 0.721530 0.000000
vn 0.692384 0.721530 0.000000
vn 0.692384 0.721530 0.000000
vn 0.692384 0.721530 0.000000
vn 0.509801 -0.000000 0.860292
vn 0.509801 -0.000000 0.860292
vn 0.509801 -0.000000 0.860292
vn 0.509801 -0.000000 0.860292
vn 0.645256 0.763967 0.000000
vn 0.645256 0.763967 0.000000
vn 0.645256 0.763967 0.000000
vn 0.645256 0.763967 0.000000
vn 0.461577 -0.000000 0.887100
vn 0.461577 -0.000000 0.887100
vn 0.461577 -0.000000 0.887100
vn 0.461577 -0.000000 0.887100
vn 0.645261 -0.763962 -0.000002
vn 0.645261 -0.763962 -0.000002
vn 0.645261 -0.763962 -0.000002
vn 0.645261 -0.763962 -0.000002
vn 0.461576 -0.000000 -0.887101
vn 0.461576 -0.000000 -0.887101
vn 0.461576 -0.000000 -0.887101
vn 0.461576 -0.000000 -0.887101
vn 0.465877 -0.000000 0.884849
vn 0.465877 -0.000000 0.884850
vn 0.465877 -0.000000 0.884849
vn 0.465877 -0.000000 0.884849
vn 0.488221 -0.872720 0.000009
vn 0.488221 -0.872720 0.000009
vn 0.488221 -0.872720 0.000009
vn 0.488221 -0.872720 0.000009
vn 0.393891 0.000000 -0.919157
vn 0.393891 0.000000 -0.919157
vn 0.393891 0.000000 -0.919157
vn 0.393891 0.000000 -0.919157
vn 0.508077 0.763646 0.398374
vn 0.508077 0.763646 0.398374
vn 0.508077 0.763646 0.398374
vn 0.508077 0.763646 0.398374
vn 0.500293 0.605004 0.619417
vn 0.500293 0.605004 0.619417
vn 0.500293 0.605004 0.619417
vn 0.500293 0.605004 0.619417
vn 0.503723 0.384890 0.773384
vn 0.503723 0.384890 0.773384
vn 0.503723 0.384890 0.773384
vn 0.503723 0.384890 0.773384
vn 0.483610 0.133811 0.864995
vn 0.483610 0.133811 0.864995
vn 0.483610 0.133811 0.864995
vn 0.483610 0.133811 0.864995
vn 0.545998 0.816735 0.186629
vn 0.545998 0.816735 0.186629
vn 0.545998 0.816735 0.186629
vn 0.545998 0.816735 0.186629
vn 0.393725 0.003587 -0.919221
vn 0.393725 0.003587 -0.919221
vn 0.393725 0.003587 -0.919221
vn 0.393725 0.003587 -0.919221
vn 0.449439 0.893311 -0.000007
vn 0.449440 0.893311 -0.000007
vn 0.449439 0.893311 -0.000007
vn 0.449440 0.893311 -0.000007
vn 0.496430 -0.000000 0.868077
vn 0.496430 -0.000000 0.868077
vn 0.496430 -0.000000 0.868077
vn 0.496430 -0.000000 0.868077
vn 0.449444 -0.893309 -0.000002
vn 0.449444 -0.893309 -0.000002
vn 0.449444 -0.893309 -0.000002
vn 0.449444 -0.893309 -0.000002
vn 0.449443 0.893309 0.000007
vn 0.449443 0.893309 0.000007
vn 0.449443 0.893309 0.000007
vn 0.449443 0.893309 0.000007
vn 0.449444 -0.893309 0.000002
vn 0.449444 -0.893309 0.000002
vn 0.449444 -0.893309 0.000002
vn 0.449444 -0.893309 0.000002
vn 0.496430 -0.000000 -0.868077
vn 0.496430 -0.000000 -0.868077
vn 0.496430 -0.000000 -0.868077
vn 0.496430 -0.000000 -0.868077
vn 0.398550 -0.000000 0.917147
vn 0.398550 -0.000000 0.917147
vn 0.398550 -0.000000 0.917147
vn 0.398550 -0.000000 0.917147
vn 0.446637 -0.894715 -0.000009
vn 0.446637 -0.894715 -0.000009
vn 0.446637 -0.894715 -0.000009
vn 0.446637 -0.894715 -0.000009
vn 0.461263 -0.000000 -0.887263
vn 0.461263 -0.000000 -0.887263
vn 0.461263 -0.000000 -0.887263
vn 0.461263 -0.000000 -0.887263
vn 0.487290 0.133546 -0.862968
vn 0.487290 0.133546 -0.862968
vn 0.487290 0.133546 -0.862968
vn 0.487290 0.133546 -0.862968
vn 0.522940 0.379875 -0.763039
vn 0.522940 0.379875 -0.763039
vn 0.522940 0.379875 -0.763039
vn 0.522940 0.379875 -0.763039
vn 0.534038 0.590859 -0.604723
vn 0.534038 0.590859 -0.604723
vn 0.534038 0.590859 -0.604723
vn 0.534038 0.590859 -0.604723
vn 0.552259 0.739200 -0.385478
vn 0.552259 0.739200 -0.385478
vn 0.552259 0.739200 -0.385478
vn 0.552259 0.739200 -0.385478
vn 0.591579 0.786000 -0.179551
vn 0.591579 0.786000 -0.179551
vn 0.591579 0.786000 -0.179551
vn 0.591579 0.786000 -0.179551
vn 0.398668 0.005427 0.917079
vn 0.398668 0.005427 0.917079
vn 0.398668 0.005427 0.917079
vn 0.398668 0.005427 0.917079
vn 0.638161 0.769903 -0.000003
vn 0.638161 0.769903 -0.000003
vn 0.638161 0.769903 -0.000003
vn 0.638161 0.769903 -0.000003
vn 0.536565 -0.000000 0.843859
vn 0.536565 -0.000000 0.843859
vn 0.536565 -0.000000 0.843859
vn 0.536565 -0.000000 0.843859
vn 0.638154 -0.769909 0.000000
vn 0.638154 -0.769909 0.000000
vn 0.638154 -0.769909 0.000000
vn 0.638154 -0.769908 0.000000
vn 0.536565 -0.000000 -0.843859
vn 0.536565 -0.000000 -0.843859
vn 0.536565 -0.000000 -0.843859
vn 0.536565 -0.000000 -0.843859
vn 0.686979 -0.726677 0.000000
vn 0.686979 -0.726677 0.000000
vn 0.686979 -0.726677 0.000000
vn 0.686979 -0.726677 0.000000
vn 0.559865 -0.000000 -0.828584
vn 0.559865 -0.000000 -0.828584
vn 0.559865 -0.000000 -0.828584
vn 0.559865 -0.000000 -0.828584
vn 0.686978 0.726678 0.000001
vn 0.686978 0.726678 0.000001
vn 0.686978 0.726678 0.000001
vn 0.686978 0.726678 0.000001
vn 0.559858 -0.000000 0.828588
vn 0.559858 -0.000000 0.828588
vn 0.559858 -0.000000 0.828588
vn 0.559858 -0.000000 0.828588
s 1
g polySurface371 pPipe16
f 3/35/1 2/36/2 40/37/3 41/38/4
f 4/43/5 3/35/1 41/38/4 42/5/6
f 5/47/7 4/43/5 42/5/6 43/2/8
f 6/55/9 5/47/7 43/2/8 44/1/10
s 2
f 8/108/11 7/97/12 46/9/13 47/11/14
f 9/119/15 8/108/11 47/11/14 48/13/16
f 10/112/17 9/119/15 48/13/16 49/114/18
f 11/99/19 10/112/17 49/114/18 50/101/20
s 3
f 56/59/21 1/61/22 30/52/23 55/51/24
s 4
f 1/61/25 53/69/26 54/70/27 30/52/28
s 5
f 40/37/29 2/36/30 31/41/31 39/42/32
s 6
f 11/99/33 50/101/34 51/87/35 29/79/36
f 81/71/37 82/88/38 52/89/39 34/80/40
s 5
f 79/46/41 80/45/42 36/53/43 38/54/44
s 7
f 78/128/45 79/46/46 38/54/47 37/129/48
f 17/132/49 40/37/50 39/42/51 32/130/52
s 8
f 41/38/53 40/37/54 17/132/55 18/134/56
f 42/5/57 41/38/53 18/134/56 19/6/58
f 43/2/59 42/5/57 19/6/58 20/3/60
f 44/1/61 43/2/59 20/3/60 21/4/62
f 45/7/63 44/1/61 21/4/62 22/8/64
f 46/9/65 45/7/63 22/8/64 23/10/66
f 47/11/67 46/9/65 23/10/66 24/12/68
f 48/13/69 47/11/67 24/12/68 25/14/70
f 49/114/71 48/13/69 25/14/70 26/135/72
f 50/101/73 49/114/71 26/135/72 27/136/74
s 9
f 51/87/75 50/101/76 27/136/77 28/137/78
f 52/89/79 82/88/80 83/138/81 33/139/82
s off
f 110/122/83 111/127/84 112/18/85 113/17/86
s 10
f 120/27/87 119/22/88 121/21/89 122/28/90
s 11
f 12/81/91 100/92/92 101/105/93 14/106/94
s 12
f 98/74/95 99/82/96 12/81/97 13/75/98
s 10
f 123/24/99 119/22/88 120/27/87 124/30/100
s off
f 126/67/101 125/58/102 127/34/103 128/33/104
s 3
f 57/64/105 58/68/106 1/61/22 56/59/21
s off
f 58/68/107 59/77/108 53/69/109 1/61/110
f 44/1/111 45/7/112 57/64/113 6/55/114
f 45/7/115 46/9/116 7/97/117 59/77/118
f 57/64/119 45/7/120 58/68/121
f 45/7/122 59/77/123 58/68/124
f 126/67/125 129/50/126 125/58/127
f 129/50/128 130/49/129 125/58/130
f 130/49/131 131/57/132 125/58/133
f 131/57/134 132/66/135 125/58/136
f 132/66/137 133/76/138 125/58/139
f 114/110/140 115/121/141 110/122/142
f 115/121/143 116/125/144 110/122/145
f 116/125/146 117/126/147 110/122/148
f 117/126/149 111/127/150 110/122/151
f 118/111/152 114/110/153 110/122/154
s 13
f 11/99/155 29/79/156 62/15/157 61/100/158
s off
f 29/79/159 54/70/160 63/16/161 62/15/162
f 54/70/163 53/69/164 60/78/165 63/16/166
s 13
f 7/97/167 8/108/168 65/109/169 64/98/170
f 8/108/168 9/119/171 66/120/172 65/109/169
f 9/119/171 10/112/173 67/113/174 66/120/172
f 10/112/173 11/99/155 61/100/158 67/113/174
f 59/77/175 7/97/167 64/98/170 68/86/176
s off
f 53/69/177 59/77/178 68/86/179 60/78/180
f 56/59/181 55/51/182 71/31/183 69/60/184
f 55/51/185 31/41/186 72/32/187 71/31/188
s 15
f 31/41/189 2/36/190 70/40/191 72/32/192
f 2/36/190 3/35/193 73/39/194 70/40/191
f 3/35/193 4/43/195 74/44/196 73/39/194
f 4/43/195 5/47/197 75/48/198 74/44/196
f 5/47/197 6/55/199 76/56/200 75/48/198
f 6/55/199 57/64/201 77/65/202 76/56/200
s off
f 57/64/203 56/59/204 69/60/205 77/65/206
s 7
f 32/130/52 39/42/51 79/46/46 78/128/45
s 5
f 39/42/32 31/41/31 80/45/42 79/46/41
s 3
f 31/41/207 55/51/24 30/52/23 80/45/208
s 4
f 81/71/209 30/52/28 54/70/27 29/79/210
s 6
f 29/79/36 51/87/35 82/88/38 81/71/37
s 9
f 83/138/81 82/88/80 51/87/75 28/137/78
s 7
f 37/129/48 38/54/47 85/63/211 84/131/212
s 5
f 38/54/44 36/53/43 86/62/213 85/63/214
s 12
f 36/53/215 35/72/216 87/73/217 86/62/218
s 11
f 89/90/219 88/91/220 35/72/221 34/80/222
s 6
f 34/80/40 52/89/39 90/102/223 89/90/224
s 9
f 91/140/225 90/102/226 52/89/79 33/139/82
s off
f 30/52/227 81/71/228 94/20/229 92/19/230
f 81/71/231 34/80/232 95/25/233 94/20/234
f 34/80/235 35/72/236 93/26/237 95/25/238
f 80/45/239 30/52/240 92/19/241 96/23/242
f 35/72/243 36/53/244 97/29/245 93/26/246
f 36/53/247 80/45/248 96/23/249 97/29/250
s 7
f 84/131/212 85/63/211 13/75/251 15/133/252
s 5
f 85/63/214 86/62/213 98/74/253 13/75/254
s off
f 134/95/255 135/94/256 136/107/257 137/96/258
s 12
f 87/73/217 35/72/216 12/81/97 99/82/96
s 11
f 35/72/221 88/91/220 100/92/92 12/81/91
s off
f 139/123/259 138/124/260 140/116/261 141/115/262
s 6
f 89/90/224 90/102/223 14/106/263 101/105/264
s 9
f 16/141/265 14/106/266 90/102/226 91/140/225
s off
f 86/62/267 87/73/268 103/83/269 102/84/270
f 87/73/271 99/82/272 104/93/273 103/83/274
f 99/82/275 98/74/276 105/85/277 104/93/278
f 98/74/279 86/62/280 102/84/281 105/85/282
f 101/105/283 100/92/284 106/117/285 107/118/286
f 100/92/287 88/91/288 108/104/289 106/117/290
f 88/91/291 89/90/292 109/103/293 108/104/294
f 89/90/295 101/105/296 107/118/297 109/103/298
f 61/100/299 62/15/300 112/18/301 111/127/302
f 62/15/303 63/16/304 113/17/305 112/18/306
f 63/16/307 60/78/308 110/122/309 113/17/310
f 64/98/311 65/109/312 115/121/313 114/110/314
f 65/109/315 66/120/316 116/125/317 115/121/318
f 66/120/319 67/113/320 117/126/321 116/125/322
f 67/113/323 61/100/324 111/127/325 117/126/326
f 68/86/327 64/98/328 114/110/329 118/111/330
f 60/78/331 68/86/332 118/111/333 110/122/334
f 92/19/335 94/20/336 121/21/337 119/22/338
f 94/20/339 95/25/340 122/28/341 121/21/342
f 95/25/343 93/26/344 120/27/345 122/28/346
f 96/23/347 92/19/348 119/22/349 123/24/350
f 93/26/351 97/29/352 124/30/353 120/27/354
f 97/29/355 96/23/356 123/24/357 124/30/358
f 69/60/359 71/31/360 127/34/361 125/58/362
f 71/31/363 72/32/364 128/33/365 127/34/366
f 72/32/367 70/40/368 126/67/369 128/33/370
f 70/40/371 73/39/372 129/50/373 126/67/374
f 73/39/375 74/44/376 130/49/377 129/50/378
f 74/44/379 75/48/380 131/57/381 130/49/382
f 75/48/383 76/56/384 132/66/385 131/57/386
f 76/56/387 77/65/388 133/76/389 132/66/390
f 77/65/391 69/60/392 125/58/393 133/76/394
f 102/84/395 103/83/396 135/94/397 134/95/398
f 103/83/399 104/93/400 136/107/401 135/94/402
f 104/93/403 105/85/404 137/96/405 136/107/406
f 105/85/407 102/84/408 134/95/409 137/96/410
f 107/118/411 106/117/412 138/124/413 139/123/414
f 106/117/415 108/104/416 140/116/417 138/124/418
f 108/104/419 109/103/420 141/115/421 140/116/422
f 109/103/423 107/118/424 139/123/425 141/115/426
