# This file uses meters as units for non-parametric coordinates.

g default
v -69.412491 21.250000 3.382507
v 70.587509 21.250000 3.382507
v 70.587509 -98.750000 3.382507
v -69.412491 -98.750000 3.382507
v 55.587505 6.249992 13.382507
v -54.412487 6.249992 13.382507
v 55.587505 -98.750000 13.382507
v -54.412487 -98.750000 13.382507
v -59.411987 11.249489 3.382507
v -54.412487 6.249992 8.382019
v 60.587006 11.249489 3.382507
v 55.587505 6.249992 8.382019
v 55.587505 -98.750000 8.382019
v 60.587006 -98.750000 3.382507
v -59.411987 -98.750000 3.382507
v -54.412487 -98.750000 8.382019
v -47.500008 -96.250000 52.968170
v -50.000004 -98.750000 52.968170
v -50.000004 -98.750000 3.382507
v -47.500008 -96.250000 7.363434
v 49.999989 -98.750000 52.968170
v 47.499992 -96.250000 52.968201
v 47.499992 -96.250000 7.363434
v 49.999989 -98.750000 3.382507
v -150.000000 -108.750000 -81.617493
v -150.000000 -108.750000 78.382507
v 150.000000 -108.750000 -81.617493
v 150.000000 -108.750000 78.382507
v -145.000504 -98.750000 78.382507
v -150.000000 -103.749496 78.382507
v -150.000000 -103.749496 -81.617493
v -145.000504 -98.750000 -76.617981
v 150.000000 -103.749496 78.382507
v 145.000504 -98.750000 78.382568
v 145.000504 -98.750000 -76.617981
v 150.000000 -103.749496 -81.617493
v -102.176834 -100.394981 -20.795013
v -105.234985 -100.394981 -23.853149
v -109.412491 -100.394981 -24.972504
v -113.589996 -100.394981 -23.853149
v -116.648148 -100.394981 -20.795013
v -117.767509 -100.394981 -16.617493
v -116.648148 -100.394981 -12.439972
v -113.589996 -100.394981 -9.381836
v -109.412491 -100.394981 -8.262482
v -105.234985 -100.394981 -9.381836
v -102.176834 -100.394981 -12.439972
v -101.057472 -100.394981 -16.617493
v -102.176834 71.250000 -20.795013
v -105.234985 71.250000 -23.853149
v -109.412491 71.250000 -24.972504
v -113.589996 71.250000 -23.853149
v -116.648148 71.250000 -20.795013
v -117.767509 71.250000 -16.617493
v -116.648148 71.250000 -12.439972
v -113.589996 71.250000 -9.381836
v -109.412491 71.250000 -8.262482
v -105.234985 71.250000 -9.381836
v -102.176834 71.250000 -12.439972
v -101.057472 71.250000 -16.617493
v -99.950562 63.745117 -22.080383
v -103.949646 63.745117 -26.079407
v -109.412491 63.745117 -27.543182
v -114.875328 63.745117 -26.079407
v -118.874413 63.745117 -22.080383
v -120.338188 63.745117 -16.617493
v -118.874413 63.745117 -11.154633
v -114.875328 63.745117 -7.155579
v -109.412491 63.745117 -5.691803
v -103.949646 63.745117 -7.155579
v -99.950562 63.745117 -11.154633
v -98.486786 63.745117 -16.617493
v -99.950562 78.750000 -22.080383
v -103.949646 78.750000 -26.079407
v -109.412491 78.750000 -27.543182
v -114.875328 78.750000 -26.079407
v -118.874413 78.750000 -22.080383
v -120.338188 78.750000 -16.617493
v -118.874413 78.750000 -11.154633
v -114.875328 78.750000 -7.155579
v -109.412491 78.750000 -5.691803
v -103.949646 78.750000 -7.155579
v -99.950562 78.750000 -11.154633
v -98.486786 78.750000 -16.617493
v -102.143684 58.543442 -20.814148
v -105.215843 58.543442 -23.886292
v -109.412491 58.543442 -25.010773
v -113.609131 58.543442 -23.886292
v -116.681290 58.543442 -20.814148
v -117.805779 58.543442 -16.617493
v -116.681290 58.543442 -12.420837
v -113.609131 58.543442 -9.348694
v -109.412491 58.543442 -8.224213
v -105.215843 58.543442 -9.348694
v -102.143684 58.543442 -12.420837
v -101.019196 58.543442 -16.617493
v -118.874420 -63.750000 -22.080383
v -114.875336 -63.750000 -26.079407
v -109.412491 -63.750000 -27.543182
v -103.949654 -63.750000 -26.079407
v -99.950569 -63.750000 -22.080383
v -98.486794 -63.750000 -16.617493
v -99.950569 -63.750000 -11.154633
v -103.949654 -63.750000 -7.155579
v -109.412491 -63.750000 -5.691803
v -114.875336 -63.750000 -7.155579
v -118.874420 -63.750000 -11.154633
v -120.338196 -63.750000 -16.617493
v -118.874420 -68.750000 -22.080383
v -114.875336 -68.750000 -26.079407
v -109.412491 -68.750000 -27.543182
v -103.949654 -68.750000 -26.079407
v -99.950569 -68.750000 -22.080383
v -98.486794 -68.750000 -16.617493
v -99.950569 -68.750000 -11.154633
v -103.949654 -68.750000 -7.155579
v -109.412491 -68.750000 -5.691803
v -114.875336 -68.750000 -7.155579
v -118.874420 -68.750000 -11.154633
v -120.338196 -68.750000 -16.617493
v -116.681297 -61.250000 -20.814148
v -113.609138 -61.250000 -23.886292
v -109.412491 -61.250000 -25.010773
v -105.215851 -61.250000 -23.886292
v -102.143692 -61.250000 -20.814148
v -101.019203 -61.250000 -16.617493
v -102.143692 -61.250000 -12.420837
v -105.215851 -61.250000 -9.348694
v -109.412491 -61.250000 -8.224213
v -113.609138 -61.250000 -9.348694
v -116.681297 -61.250000 -12.420837
v -117.805786 -61.250000 -16.617493
v -121.912491 -98.750000 -4.117493
v -96.912491 -98.750000 -4.117493
v -121.912491 -68.750000 -4.117493
v -96.912491 -68.750000 -4.117493
v -121.912491 -68.750000 -29.117493
v -96.912491 -68.750000 -29.117493
v -121.912491 -98.750000 -29.117493
v -96.912491 -98.750000 -29.117493
v 97.061981 -98.750000 -4.117493
v 122.061981 -98.750000 -4.117493
v 97.061981 -68.750000 -4.117493
v 122.061981 -68.750000 -4.117493
v 97.061981 -68.750000 -29.117493
v 122.061981 -68.750000 -29.117493
v 97.061981 -98.750000 -29.117493
v 122.061981 -98.750000 -29.117493
v 100.100052 -63.750000 -22.080383
v 104.099136 -63.750000 -26.079407
v 109.561981 -63.750000 -27.543182
v 115.024818 -63.750000 -26.079407
v 119.023903 -63.750000 -22.080383
v 120.487679 -63.750000 -16.617493
v 119.023903 -63.750000 -11.154633
v 115.024818 -63.750000 -7.155579
v 109.561981 -63.750000 -5.691803
v 104.099136 -63.750000 -7.155579
v 100.100052 -63.750000 -11.154633
v 98.636276 -63.750000 -16.617493
v 100.100052 -68.750000 -22.080383
v 104.099136 -68.750000 -26.079407
v 109.561981 -68.750000 -27.543182
v 115.024818 -68.750000 -26.079407
v 119.023903 -68.750000 -22.080383
v 120.487679 -68.750000 -16.617493
v 119.023903 -68.750000 -11.154633
v 115.024818 -68.750000 -7.155579
v 109.561981 -68.750000 -5.691803
v 104.099136 -68.750000 -7.155579
v 100.100052 -68.750000 -11.154633
v 98.636276 -68.750000 -16.617493
v 102.293175 -61.250000 -20.814148
v 105.365334 -61.250000 -23.886292
v 109.561981 -61.250000 -25.010773
v 113.758621 -61.250000 -23.886292
v 116.830780 -61.250000 -20.814148
v 117.955269 -61.250000 -16.617493
v 116.830780 -61.250000 -12.420837
v 113.758621 -61.250000 -9.348694
v 109.561981 -61.250000 -8.224213
v 105.365334 -61.250000 -9.348694
v 102.293175 -61.250000 -12.420837
v 101.168686 -61.250000 -16.617493
v 116.797638 -100.394981 -20.795013
v 113.739487 -100.394981 -23.853149
v 109.561981 -100.394981 -24.972504
v 105.384476 -100.394981 -23.853149
v 102.326324 -100.394981 -20.795013
v 101.206963 -100.394981 -16.617493
v 102.326324 -100.394981 -12.439972
v 105.384476 -100.394981 -9.381836
v 109.561981 -100.394981 -8.262482
v 113.739487 -100.394981 -9.381836
v 116.797638 -100.394981 -12.439972
v 117.917000 -100.394981 -16.617493
v 116.797638 71.250000 -20.795013
v 113.739487 71.250000 -23.853149
v 109.561981 71.250000 -24.972504
v 105.384476 71.250000 -23.853149
v 102.326324 71.250000 -20.795013
v 101.206963 71.250000 -16.617493
v 102.326324 71.250000 -12.439972
v 105.384476 71.250000 -9.381836
v 109.561981 71.250000 -8.262482
v 113.739487 71.250000 -9.381836
v 116.797638 71.250000 -12.439972
v 117.917000 71.250000 -16.617493
v 119.023911 63.745117 -22.080383
v 115.024826 63.745117 -26.079407
v 109.561981 63.745117 -27.543182
v 104.099144 63.745117 -26.079407
v 100.100060 63.745117 -22.080383
v 98.636284 63.745117 -16.617493
v 100.100060 63.745117 -11.154633
v 104.099144 63.745117 -7.155579
v 109.561981 63.745117 -5.691803
v 115.024826 63.745117 -7.155579
v 119.023911 63.745117 -11.154633
v 120.487686 63.745117 -16.617493
v 119.023911 78.750000 -22.080383
v 115.024826 78.750000 -26.079407
v 109.561981 78.750000 -27.543182
v 104.099144 78.750000 -26.079407
v 100.100060 78.750000 -22.080383
v 98.636284 78.750000 -16.617493
v 100.100060 78.750000 -11.154633
v 104.099144 78.750000 -7.155579
v 109.561981 78.750000 -5.691803
v 115.024826 78.750000 -7.155579
v 119.023911 78.750000 -11.154633
v 120.487686 78.750000 -16.617493
v 116.830788 58.543442 -20.814148
v 113.758629 58.543442 -23.886292
v 109.561981 58.543442 -25.010773
v 105.365341 58.543442 -23.886292
v 102.293182 58.543442 -20.814148
v 101.168694 58.543442 -16.617493
v 102.293182 58.543442 -12.420837
v 105.365341 58.543442 -9.348694
v 109.561981 58.543442 -8.224213
v 113.758629 58.543442 -9.348694
v 116.830788 58.543442 -12.420837
v 117.955276 58.543442 -16.617493
v -129.412491 78.750000 -31.617493
v -129.412491 78.750000 78.382507
v 130.587509 78.750000 -31.617493
v 130.587509 78.750000 78.382507
v -124.412491 86.250000 78.382507
v -129.412491 83.750000 78.382507
v -129.412491 83.750000 -31.617493
v -124.412491 86.250000 -26.617493
v 130.587509 83.750000 78.382507
v 125.587509 86.250000 78.382568
v 125.587509 86.250000 -26.617493
v 130.587509 83.750000 -31.617493
v -124.412491 101.249985 78.382507
v -124.412491 101.249985 -26.617493
v 125.587509 101.249985 78.382568
v 125.587509 101.249985 -26.617493
v -132.114746 105.356461 81.617493
v -132.114746 105.356461 -29.852478
v 133.289764 105.356461 81.617493
v 133.289764 105.356461 -29.852478
v -132.114746 108.750000 81.617493
v -132.114746 108.750000 -29.852478
v 133.289764 108.750000 81.617493
v 133.289764 108.750000 -29.852478
v -119.412498 78.750000 78.382507
v 120.587517 78.750000 78.382507
v -119.412498 78.750000 -1.617493
v 120.587502 78.750000 -1.617493
v 120.587517 -98.750000 -1.617493
v -119.412498 -98.750000 -1.617493
v 120.587517 -98.750000 78.382507
v -119.412498 -98.750000 78.382507
v -69.412491 21.250000 58.382507
v 70.587509 21.250000 58.382507
v 70.587509 -98.750000 58.382507
v -69.412491 -98.750000 58.382507
v -39.412487 78.750000 -1.617493
v 40.587505 78.750000 -1.617493
v 40.587505 31.250000 -1.617493
v -39.412487 31.250000 -1.617493
v -39.412487 78.750000 18.382446
v 40.587505 78.750000 18.382446
v 40.587505 31.250000 18.382446
v -39.412487 31.250000 18.382446
v -69.412491 21.250000 3.381958
v -74.411995 26.249496 -1.617493
v 70.587509 21.250000 3.381958
v 75.587013 26.249496 -1.617493
v 70.587509 -98.750000 3.381958
v 75.587013 -98.750000 -1.617493
v -74.411995 -98.750000 -1.617493
v -69.412491 -98.750000 3.381958
vt 0.989497 0.066299
vt 0.989497 0.024328
vt 0.945528 0.066299
vt 0.943530 0.024328
vt 0.945528 0.024328
vt 0.995493 0.072295
vt 0.991496 0.068297
vt 0.939532 0.072295
vt 0.939532 0.024328
vt 0.943530 0.068297
vt 0.995493 0.024328
vt 0.991496 0.024328
vt 0.986759 0.062745
vt 0.948799 0.062745
vt 0.948799 0.061019
vt 0.986759 0.061019
vt 0.941650 0.074897
vt 0.992558 0.074897
vt 0.992558 0.077321
vt 0.941650 0.077321
vt 0.992558 0.074897
vt 0.941650 0.074897
vt 0.941650 0.072473
vt 0.992558 0.072473
vt 0.695544 0.257810
vt 0.691391 0.257810
vt 0.691391 0.182046
vt 0.695544 0.175432
vt 0.533565 0.182046
vt 0.529412 0.175432
vt 0.533565 0.257810
vt 0.529412 0.257810
vt 0.844063 0.259375
vt 0.833395 0.259375
vt 0.833395 0.025509
vt 0.844063 0.017966
vt 0.840938 0.014842
vt 0.395840 0.025509
vt 0.388296 0.014842
vt 0.395840 0.259375
vt 0.385172 0.259375
vt 0.385172 0.017966
vt 0.851608 0.017966
vt 0.851608 0.259375
vt 0.377627 0.259375
vt 0.377627 0.017966
vt 0.388297 0.007297
vt 0.840938 0.007297
vt 0.858606 0.279189
vt 0.869607 0.279189
vt 0.869607 0.665908
vt 0.858606 0.665908
vt 0.880608 0.279189
vt 0.880608 0.665908
vt 0.891609 0.279189
vt 0.891609 0.665908
vt 0.902610 0.279189
vt 0.902610 0.665908
vt 0.913612 0.279189
vt 0.913612 0.665908
vt 0.924613 0.279189
vt 0.924613 0.665908
vt 0.935614 0.279189
vt 0.935614 0.665908
vt 0.946615 0.279189
vt 0.946615 0.665908
vt 0.957616 0.279189
vt 0.957616 0.665908
vt 0.968617 0.279189
vt 0.968617 0.665908
vt 0.979619 0.279189
vt 0.979619 0.665908
vt 0.990620 0.279189
vt 0.990620 0.665908
vt 0.926180 0.180015
vt 0.936589 0.179460
vt 0.938865 0.209137
vt 0.926965 0.209783
vt 0.946977 0.178363
vt 0.950688 0.207863
vt 0.957335 0.176719
vt 0.962384 0.205981
vt 0.967678 0.174499
vt 0.973894 0.203542
vt 0.978048 0.171629
vt 0.985150 0.200681
vt 0.988540 0.167940
vt 0.996087 0.197764
vt 0.863821 0.170462
vt 0.874239 0.173976
vt 0.867966 0.203528
vt 0.856715 0.200736
vt 0.884596 0.176549
vt 0.879507 0.205981
vt 0.894962 0.178342
vt 0.891249 0.207882
vt 0.905351 0.179479
vt 0.903111 0.209158
vt 0.915762 0.180026
vt 0.915033 0.209792
vt 0.925945 0.168496
vt 0.935721 0.167975
vt 0.945456 0.166958
vt 0.955101 0.165446
vt 0.964574 0.163424
vt 0.973707 0.160815
vt 0.982099 0.157318
vt 0.869977 0.160075
vt 0.878223 0.163287
vt 0.887322 0.165482
vt 0.896784 0.167030
vt 0.906428 0.168032
vt 0.916166 0.168517
vt 0.900653 0.241459
vt 0.912065 0.244731
vt 0.909951 0.255836
vt 0.896692 0.252044
vt 0.923866 0.246023
vt 0.923661 0.257327
vt 0.935715 0.245300
vt 0.937424 0.256475
vt 0.947272 0.242582
vt 0.950839 0.253307
vt 0.958210 0.237949
vt 0.963511 0.247918
vt 0.968237 0.231531
vt 0.975049 0.240481
vt 0.977165 0.223477
vt 0.985083 0.231318
vt 0.985006 0.213695
vt 0.993564 0.221415
vt 0.865111 0.210403
vt 0.871947 0.220760
vt 0.863427 0.228262
vt 0.855558 0.217419
vt 0.880291 0.229364
vt 0.873060 0.238034
vt 0.889958 0.236295
vt 0.884269 0.246054
vt 0.903607 0.233977
vt 0.913707 0.236854
vt 0.924150 0.237982
vt 0.934635 0.237327
vt 0.944860 0.234909
vt 0.954537 0.230803
vt 0.963399 0.225139
vt 0.971184 0.218119
vt 0.977377 0.209980
vt 0.872899 0.207556
vt 0.878273 0.215997
vt 0.885598 0.223377
vt 0.894143 0.229437
vt 0.877947 0.010289
vt 0.934089 0.010289
vt 0.934089 0.077660
vt 0.877947 0.077660
vt 0.876065 0.089281
vt 0.932207 0.089281
vt 0.932207 0.145424
vt 0.876065 0.145424
vt 0.877947 0.010289
vt 0.934090 0.010289
vt 0.934090 0.077660
vt 0.877947 0.077660
vt 0.937132 0.084021
vt 0.993274 0.084021
vt 0.993274 0.151392
vt 0.937132 0.151392
vt 0.937132 0.084021
vt 0.993274 0.084021
vt 0.993274 0.151392
vt 0.937132 0.151392
vt 0.877947 0.010289
vt 0.934089 0.010289
vt 0.934089 0.077660
vt 0.877947 0.077660
vt 0.876065 0.089281
vt 0.932207 0.089281
vt 0.932207 0.145424
vt 0.876065 0.145424
vt 0.877947 0.010289
vt 0.934090 0.010289
vt 0.934090 0.077660
vt 0.877947 0.077660
vt 0.937132 0.084021
vt 0.993274 0.084021
vt 0.993274 0.151392
vt 0.937132 0.151392
vt 0.937132 0.084021
vt 0.993274 0.084021
vt 0.993274 0.151392
vt 0.937132 0.151392
vt 0.900653 0.241459
vt 0.912065 0.244731
vt 0.909951 0.255836
vt 0.896692 0.252044
vt 0.923866 0.246023
vt 0.923661 0.257327
vt 0.935715 0.245300
vt 0.937424 0.256475
vt 0.947272 0.242582
vt 0.950839 0.253307
vt 0.958210 0.237949
vt 0.963511 0.247918
vt 0.968237 0.231531
vt 0.975049 0.240481
vt 0.977165 0.223477
vt 0.985083 0.231318
vt 0.985006 0.213695
vt 0.993564 0.221415
vt 0.865111 0.210403
vt 0.871947 0.220760
vt 0.863427 0.228262
vt 0.855558 0.217419
vt 0.880291 0.229364
vt 0.873060 0.238034
vt 0.889958 0.236295
vt 0.884269 0.246054
vt 0.903607 0.233977
vt 0.913707 0.236854
vt 0.924150 0.237982
vt 0.934635 0.237327
vt 0.944860 0.234909
vt 0.954537 0.230803
vt 0.963399 0.225139
vt 0.971184 0.218119
vt 0.977377 0.209980
vt 0.872899 0.207556
vt 0.878273 0.215997
vt 0.885598 0.223377
vt 0.894143 0.229437
vt 0.858606 0.279189
vt 0.869607 0.279189
vt 0.869607 0.665908
vt 0.858606 0.665908
vt 0.880608 0.279189
vt 0.880608 0.665908
vt 0.891609 0.279189
vt 0.891609 0.665908
vt 0.902610 0.279189
vt 0.902610 0.665908
vt 0.913612 0.279189
vt 0.913612 0.665908
vt 0.924613 0.279189
vt 0.924613 0.665908
vt 0.935614 0.279189
vt 0.935614 0.665908
vt 0.946615 0.279189
vt 0.946615 0.665908
vt 0.957616 0.279189
vt 0.957616 0.665908
vt 0.968617 0.279189
vt 0.968617 0.665908
vt 0.979619 0.279189
vt 0.979619 0.665908
vt 0.990620 0.279189
vt 0.990620 0.665908
vt 0.926180 0.180015
vt 0.936589 0.179460
vt 0.938865 0.209137
vt 0.926965 0.209783
vt 0.946977 0.178363
vt 0.950688 0.207863
vt 0.957335 0.176719
vt 0.962384 0.205981
vt 0.967678 0.174499
vt 0.973894 0.203542
vt 0.978048 0.171629
vt 0.985150 0.200681
vt 0.988540 0.167940
vt 0.996087 0.197764
vt 0.863821 0.170462
vt 0.874239 0.173976
vt 0.867966 0.203528
vt 0.856715 0.200736
vt 0.884596 0.176549
vt 0.879507 0.205981
vt 0.894962 0.178342
vt 0.891249 0.207882
vt 0.905351 0.179479
vt 0.903111 0.209158
vt 0.915762 0.180026
vt 0.915033 0.209792
vt 0.925945 0.168496
vt 0.935721 0.167975
vt 0.945456 0.166958
vt 0.955101 0.165446
vt 0.964574 0.163425
vt 0.973707 0.160815
vt 0.982099 0.157318
vt 0.869977 0.160075
vt 0.878223 0.163287
vt 0.887322 0.165482
vt 0.896784 0.167030
vt 0.906428 0.168032
vt 0.916166 0.168517
vt 0.987270 0.918628
vt 0.986589 0.930992
vt 0.759263 0.926354
vt 0.761515 0.914436
vt 0.236664 0.925759
vt 0.234337 0.914112
vt 0.008486 0.931908
vt 0.007682 0.919576
vt 0.761852 0.903039
vt 0.988218 0.907290
vt 0.006600 0.908265
vt 0.233904 0.902722
vt 0.994071 0.682733
vt 0.994071 0.904080
vt 0.467055 0.904080
vt 0.467055 0.682733
vt 0.989832 0.681368
vt 0.473548 0.681368
vt 0.473548 0.899796
vt 0.989832 0.899796
vt 0.985687 0.964087
vt 0.758807 0.960839
vt 0.236704 0.960330
vt 0.010627 0.964699
vt 0.992227 0.984226
vt 0.769669 0.973695
vt 0.225652 0.973109
vt 0.004888 0.983925
vt 0.991976 0.991952
vt 0.769526 0.981428
vt 0.225702 0.980843
vt 0.005043 0.991649
vt 0.605436 0.535746
vt 0.310479 0.535746
vt 0.310479 0.282926
vt 0.605436 0.282926
vt 0.007920 0.278745
vt 0.182960 0.278745
vt 0.182960 0.667113
vt 0.007920 0.667113
vt 0.007928 0.278745
vt 0.182968 0.278745
vt 0.182968 0.667113
vt 0.007928 0.667113
vt 0.416842 0.781189
vt 0.241803 0.781189
vt 0.241802 0.677259
vt 0.416842 0.677259
vt 0.721051 0.671104
vt 0.195933 0.671104
vt 0.370973 0.671104
vt 0.546012 0.671104
vt 0.461524 0.832562
vt 0.291503 0.832562
vt 0.291503 0.790057
vt 0.461524 0.790057
vt 0.420003 0.782179
vt 0.420003 0.678249
vt 0.463763 0.678249
vt 0.463763 0.782179
vt 0.291503 0.790057
vt 0.461524 0.790057
vt 0.461524 0.832562
vt 0.291503 0.832562
vt 0.463763 0.678249
vt 0.463763 0.782179
vt 0.420003 0.782179
vt 0.420003 0.678249
vt 0.613093 0.545470
vt 0.623169 0.555956
vt 0.294132 0.556743
vt 0.306774 0.545470
vt 0.611084 0.543835
vt 0.611084 0.281276
vt 0.622307 0.282005
vt 0.304088 0.546226
vt 0.293772 0.283201
vt 0.304088 0.283667
vt 0.195933 0.282735
vt 0.721051 0.282735
vt 0.729241 0.543572
vt 0.729241 0.281013
vt 0.849582 0.281013
vt 0.849582 0.543572
vt 0.849582 0.281013
vt 0.849582 0.543572
vt 0.729241 0.543572
vt 0.729241 0.281013
vt 0.370973 0.567174
vt 0.546012 0.567174
vt 0.003822 0.790090
vt 0.282536 0.790090
vt 0.282536 0.899586
vt 0.003822 0.899586
vn 0.707108 0.000000 -0.707106
vn 0.707108 0.000000 -0.707106
vn 0.707108 0.000000 -0.707106
vn 0.707108 0.000000 -0.707106
vn 0.000000 -0.707108 -0.707106
vn 0.000000 -0.707108 -0.707106
vn 0.000000 -0.707108 -0.707106
vn 0.000000 -0.707108 -0.707106
vn -0.707108 0.000000 -0.707106
vn -0.707108 0.000000 -0.707106
vn -0.707108 0.000000 -0.707106
vn -0.707108 0.000000 -0.707106
vn 0.000000 0.000000 -1.000000
vn 0.000000 0.000000 -1.000000
vn 0.000000 0.000000 -1.000000
vn 0.000000 0.000000 -1.000000
vn 0.000000 0.000000 -1.000000
vn 0.000000 0.000000 -1.000000
vn 0.000000 0.000000 -1.000000
vn 0.000000 0.000000 -1.000000
vn 0.000000 -1.000000 0.000000
vn 0.000000 -1.000000 0.000000
vn 0.000000 -1.000000 0.000000
vn 0.000000 -1.000000 0.000000
vn 1.000000 0.000000 0.000000
vn 1.000000 0.000000 0.000000
vn 1.000000 0.000000 0.000000
vn 1.000000 0.000000 0.000000
vn -1.000000 0.000000 0.000000
vn -1.000000 0.000000 0.000000
vn -1.000000 0.000000 0.000000
vn -1.000000 0.000000 0.000000
vn -0.707107 0.707107 0.000000
vn -0.707107 0.707107 0.000000
vn -0.707107 0.707107 0.000000
vn -0.707107 0.707107 0.000000
vn 0.000000 0.846858 -0.531820
vn 0.000000 0.846858 -0.531820
vn 0.000000 0.846858 -0.531820
vn 0.000000 0.846858 -0.531820
vn 0.707108 0.707106 0.000000
vn 0.707108 0.707106 0.000000
vn 0.707108 0.707106 0.000000
vn 0.707108 0.707106 0.000000
vn 0.000000 1.000000 0.000000
vn 0.000000 1.000000 0.000000
vn 0.000000 1.000000 0.000000
vn 0.000000 1.000000 0.000000
vn -0.707107 0.707107 0.000000
vn -0.707107 0.707107 0.000000
vn -0.707107 0.707107 0.000000
vn -0.707107 0.707107 0.000000
vn 0.000000 0.707107 -0.707106
vn 0.000000 0.707107 -0.707106
vn 0.000000 0.707107 -0.707106
vn 0.000000 0.707107 -0.707106
vn 0.707107 0.707107 0.000000
vn 0.707107 0.707107 0.000000
vn 0.707107 0.707107 0.000000
vn 0.707107 0.707107 0.000000
vn -1.000000 0.000000 0.000000
vn -1.000000 0.000000 0.000000
vn -1.000000 0.000000 0.000000
vn -1.000000 0.000000 0.000000
vn 1.000000 0.000000 0.000000
vn 1.000000 0.000000 0.000000
vn 1.000000 0.000000 0.000000
vn 1.000000 0.000000 0.000000
vn 0.000000 0.000000 -1.000000
vn 0.000000 0.000000 -1.000000
vn 0.000000 0.000000 -1.000000
vn 0.000000 0.000000 -1.000000
vn 0.000000 1.000000 0.000000
vn 0.000000 1.000000 0.000000
vn 0.000000 1.000000 0.000000
vn 0.000000 1.000000 0.000000
vn 0.866025 0.000000 -0.500000
vn 0.499998 0.000000 -0.866026
vn 0.499998 0.000000 -0.866026
vn 0.866025 0.000000 -0.500000
vn 0.000000 0.000000 -1.000000
vn 0.000000 0.000000 -1.000000
vn -0.499998 0.000000 -0.866026
vn -0.499998 0.000000 -0.866026
vn -0.866025 0.000000 -0.500000
vn -0.866025 0.000000 -0.500000
vn -1.000000 0.000000 0.000000
vn -1.000000 0.000000 0.000000
vn -0.866025 0.000000 0.500000
vn -0.866025 0.000000 0.500000
vn -0.499998 0.000000 0.866026
vn -0.499998 0.000000 0.866026
vn 0.000000 0.000000 1.000000
vn 0.000000 0.000000 1.000000
vn 0.499998 0.000000 0.866026
vn 0.499998 0.000000 0.866026
vn 0.866025 0.000000 0.500000
vn 0.866025 0.000000 0.500000
vn 1.000000 0.000000 0.000000
vn 1.000000 0.000000 0.000000
vn 0.866025 0.000000 -0.500002
vn 0.499997 0.000000 -0.866027
vn 0.499997 0.000000 -0.866027
vn 0.866025 0.000000 -0.500002
vn 0.000000 0.000000 -1.000000
vn 0.000000 0.000000 -1.000000
vn -0.499997 0.000000 -0.866027
vn -0.499997 0.000000 -0.866027
vn -0.866025 0.000000 -0.500002
vn -0.866025 0.000000 -0.500002
vn -1.000000 0.000000 0.000000
vn -1.000000 0.000000 0.000000
vn -0.866025 0.000000 0.500002
vn -0.866025 0.000000 0.500002
vn -0.499999 0.000000 0.866026
vn -0.499999 0.000000 0.866026
vn 0.000000 0.000000 1.000000
vn 0.000000 0.000000 1.000000
vn 0.499999 0.000000 0.866026
vn 0.499999 0.000000 0.866026
vn 0.866025 0.000000 0.500002
vn 0.866025 0.000000 0.500002
vn 1.000000 0.000000 0.000000
vn 1.000000 0.000000 0.000000
vn 0.449552 -0.437726 -0.778652
vn 0.778650 -0.437727 -0.449556
vn 0.778650 -0.437727 -0.449554
vn 0.449552 -0.437726 -0.778652
vn 0.000000 -0.437725 -0.899109
vn 0.000000 -0.437725 -0.899109
vn -0.449552 -0.437726 -0.778652
vn -0.449552 -0.437726 -0.778652
vn -0.778649 -0.437727 -0.449556
vn -0.778650 -0.437727 -0.449555
vn -0.899108 -0.437727 -0.000000
vn -0.899108 -0.437727 -0.000000
vn -0.778650 -0.437726 0.449555
vn -0.778650 -0.437726 0.449555
vn -0.449554 -0.437724 0.778652
vn -0.449554 -0.437724 0.778652
vn -0.000000 -0.437725 0.899109
vn -0.000000 -0.437725 0.899109
vn 0.449553 -0.437724 0.778652
vn 0.449553 -0.437724 0.778652
vn 0.778651 -0.437724 0.449556
vn 0.778651 -0.437724 0.449556
vn 0.899109 -0.437725 0.000000
vn 0.899109 -0.437725 0.000000
vn -0.866024 0.000000 -0.500002
vn -0.499996 0.000000 -0.866028
vn -0.499996 0.000000 -0.866028
vn -0.866024 0.000000 -0.500002
vn 0.000000 0.000000 -1.000000
vn 0.000000 0.000000 -1.000000
vn 0.499997 0.000000 -0.866027
vn 0.499997 0.000000 -0.866027
vn 0.866024 0.000000 -0.500002
vn 0.866024 0.000000 -0.500002
vn 1.000000 0.000000 0.000000
vn 1.000000 0.000000 0.000000
vn 0.866024 0.000000 0.500002
vn 0.866024 0.000000 0.500002
vn 0.499999 0.000000 0.866026
vn 0.499999 0.000000 0.866026
vn 0.000000 0.000000 1.000000
vn 0.000000 0.000000 1.000000
vn -0.499999 0.000000 0.866026
vn -0.499999 0.000000 0.866026
vn -0.866024 0.000000 0.500002
vn -0.866024 0.000000 0.500002
vn -1.000000 0.000000 0.000000
vn -1.000000 0.000000 0.000000
vn -0.351268 0.711646 -0.608417
vn -0.608415 0.711646 -0.351271
vn -0.608415 0.711646 -0.351269
vn -0.351267 0.711646 -0.608417
vn 0.000000 0.711645 -0.702539
vn 0.000000 0.711645 -0.702539
vn 0.351268 0.711644 -0.608419
vn 0.351268 0.711644 -0.608419
vn 0.608415 0.711646 -0.351271
vn 0.608416 0.711646 -0.351270
vn 0.702538 0.711647 0.000000
vn 0.702538 0.711647 0.000000
vn 0.608416 0.711645 0.351271
vn 0.608416 0.711645 0.351271
vn 0.351270 0.711644 0.608419
vn 0.351269 0.711644 0.608419
vn -0.000000 0.711645 0.702539
vn 0.000000 0.711645 0.702539
vn -0.351269 0.711645 0.608418
vn -0.351268 0.711645 0.608418
vn -0.608417 0.711644 0.351271
vn -0.608417 0.711644 0.351271
vn -0.702539 0.711645 -0.000001
vn -0.702539 0.711645 -0.000000
vn 0.000000 0.000000 1.000000
vn 0.000000 0.000000 1.000000
vn 0.000000 0.000000 1.000000
vn 0.000000 0.000000 1.000000
vn 0.000000 1.000000 0.000000
vn 0.000000 1.000000 0.000000
vn 0.000000 1.000000 0.000000
vn 0.000000 1.000000 0.000000
vn 0.000000 0.000000 -1.000000
vn 0.000000 0.000000 -1.000000
vn 0.000000 0.000000 -1.000000
vn 0.000000 0.000000 -1.000000
vn 1.000000 0.000000 0.000000
vn 1.000000 0.000000 0.000000
vn 1.000000 0.000000 0.000000
vn 1.000000 0.000000 0.000000
vn -1.000000 0.000000 0.000000
vn -1.000000 0.000000 0.000000
vn -1.000000 0.000000 0.000000
vn -1.000000 0.000000 0.000000
vn 0.000000 0.000000 1.000000
vn 0.000000 0.000000 1.000000
vn 0.000000 0.000000 1.000000
vn 0.000000 0.000000 1.000000
vn 0.000000 1.000000 0.000000
vn 0.000000 1.000000 0.000000
vn 0.000000 1.000000 0.000000
vn 0.000000 1.000000 0.000000
vn 0.000000 0.000000 -1.000000
vn 0.000000 0.000000 -1.000000
vn 0.000000 0.000000 -1.000000
vn 0.000000 0.000000 -1.000000
vn 1.000000 0.000000 0.000000
vn 1.000000 0.000000 0.000000
vn 1.000000 0.000000 0.000000
vn 1.000000 0.000000 0.000000
vn -1.000000 0.000000 0.000000
vn -1.000000 0.000000 0.000000
vn -1.000000 0.000000 0.000000
vn -1.000000 0.000000 0.000000
vn -0.866024 0.000000 -0.500002
vn -0.499996 0.000000 -0.866028
vn -0.499996 0.000000 -0.866028
vn -0.866024 0.000000 -0.500002
vn 0.000000 0.000000 -1.000000
vn 0.000000 0.000000 -1.000000
vn 0.499997 0.000000 -0.866027
vn 0.499997 0.000000 -0.866027
vn 0.866024 0.000000 -0.500002
vn 0.866024 0.000000 -0.500002
vn 1.000000 0.000000 0.000000
vn 1.000000 0.000000 0.000000
vn 0.866024 0.000000 0.500002
vn 0.866024 0.000000 0.500002
vn 0.499999 0.000000 0.866026
vn 0.499999 0.000000 0.866026
vn 0.000000 0.000000 1.000000
vn 0.000000 0.000000 1.000000
vn -0.499999 0.000000 0.866026
vn -0.499999 0.000000 0.866026
vn -0.866024 0.000000 0.500002
vn -0.866024 0.000000 0.500002
vn -1.000000 0.000000 0.000000
vn -1.000000 0.000000 0.000000
vn -0.351268 0.711645 -0.608418
vn -0.608415 0.711646 -0.351271
vn -0.608416 0.711646 -0.351269
vn -0.351268 0.711645 -0.608418
vn -0.000000 0.711645 -0.702540
vn -0.000000 0.711645 -0.702540
vn 0.351268 0.711644 -0.608418
vn 0.351268 0.711644 -0.608419
vn 0.608415 0.711646 -0.351271
vn 0.608416 0.711646 -0.351270
vn 0.702539 0.711645 0.000000
vn 0.702539 0.711645 0.000000
vn 0.608417 0.711644 0.351271
vn 0.608417 0.711644 0.351271
vn 0.351269 0.711644 0.608418
vn 0.351269 0.711644 0.608418
vn -0.000000 0.711645 0.702539
vn -0.000000 0.711645 0.702539
vn -0.351269 0.711644 0.608419
vn -0.351269 0.711644 0.608419
vn -0.608417 0.711645 0.351271
vn -0.608417 0.711645 0.351271
vn -0.702539 0.711645 -0.000001
vn -0.702539 0.711645 -0.000000
vn 0.866025 0.000000 -0.500000
vn 0.499998 0.000000 -0.866026
vn 0.499998 0.000000 -0.866026
vn 0.866025 0.000000 -0.500000
vn 0.000000 0.000000 -1.000000
vn 0.000000 0.000000 -1.000000
vn -0.499998 0.000000 -0.866026
vn -0.499998 0.000000 -0.866026
vn -0.866025 0.000000 -0.500000
vn -0.866025 0.000000 -0.500000
vn -1.000000 0.000000 0.000000
vn -1.000000 0.000000 0.000000
vn -0.866025 0.000000 0.500000
vn -0.866025 0.000000 0.500000
vn -0.499998 0.000000 0.866026
vn -0.499998 0.000000 0.866026
vn 0.000000 0.000000 1.000000
vn 0.000000 0.000000 1.000000
vn 0.499998 0.000000 0.866026
vn 0.499998 0.000000 0.866026
vn 0.866025 0.000000 0.500000
vn 0.866025 0.000000 0.500000
vn 1.000000 0.000000 0.000000
vn 1.000000 0.000000 0.000000
vn 0.866025 0.000000 -0.500002
vn 0.499997 0.000000 -0.866027
vn 0.499997 0.000000 -0.866027
vn 0.866025 0.000000 -0.500002
vn 0.000000 0.000000 -1.000000
vn 0.000000 0.000000 -1.000000
vn -0.499997 0.000000 -0.866027
vn -0.499997 0.000000 -0.866027
vn -0.866025 0.000000 -0.500002
vn -0.866025 0.000000 -0.500002
vn -1.000000 0.000000 0.000000
vn -1.000000 0.000000 0.000000
vn -0.866025 0.000000 0.500002
vn -0.866025 0.000000 0.500002
vn -0.499999 0.000000 0.866026
vn -0.499999 0.000000 0.866026
vn 0.000000 0.000000 1.000000
vn 0.000000 0.000000 1.000000
vn 0.499999 0.000000 0.866026
vn 0.499999 0.000000 0.866026
vn 0.866025 0.000000 0.500002
vn 0.866025 0.000000 0.500002
vn 1.000000 0.000000 0.000000
vn 1.000000 0.000000 0.000000
vn 0.449553 -0.437725 -0.778652
vn 0.778650 -0.437726 -0.449556
vn 0.778651 -0.437726 -0.449555
vn 0.449552 -0.437725 -0.778653
vn 0.000000 -0.437725 -0.899109
vn 0.000000 -0.437725 -0.899109
vn -0.449553 -0.437725 -0.778652
vn -0.449552 -0.437725 -0.778653
vn -0.778650 -0.437726 -0.449556
vn -0.778650 -0.437726 -0.449555
vn -0.899108 -0.437726 -0.000000
vn -0.899108 -0.437726 -0.000000
vn -0.778651 -0.437725 0.449555
vn -0.778651 -0.437725 0.449555
vn -0.449554 -0.437724 0.778652
vn -0.449554 -0.437724 0.778652
vn 0.000000 -0.437725 0.899109
vn -0.000000 -0.437725 0.899109
vn 0.449553 -0.437725 0.778652
vn 0.449553 -0.437725 0.778652
vn 0.778651 -0.437725 0.449556
vn 0.778651 -0.437725 0.449556
vn 0.899109 -0.437725 0.000000
vn 0.899109 -0.437725 0.000000
vn -0.447214 0.894427 0.000000
vn -0.447214 0.894427 0.000000
vn -0.447214 0.894427 0.000000
vn -0.447214 0.894427 0.000000
vn 0.000000 0.894427 -0.447214
vn 0.000000 0.894427 -0.447214
vn 0.000000 0.894427 -0.447214
vn 0.000000 0.894427 -0.447214
vn 0.447214 0.894427 0.000000
vn 0.447214 0.894427 0.000000
vn 0.447214 0.894427 0.000000
vn 0.447214 0.894427 0.000000
vn -1.000000 0.000000 0.000000
vn -1.000000 0.000000 0.000000
vn -1.000000 0.000000 0.000000
vn -1.000000 0.000000 0.000000
vn 1.000000 0.000000 0.000000
vn 1.000000 0.000000 0.000000
vn 1.000000 0.000000 0.000000
vn 1.000000 0.000000 0.000000
vn 0.000000 0.000000 -1.000000
vn 0.000000 0.000000 -1.000000
vn 0.000000 0.000000 -1.000000
vn 0.000000 0.000000 -1.000000
vn 0.000000 1.000000 0.000000
vn 0.000000 1.000000 0.000000
vn 0.000000 1.000000 0.000000
vn 0.000000 1.000000 0.000000
vn 0.000000 -1.000000 0.000000
vn 0.000000 -1.000000 0.000000
vn 0.000000 -1.000000 0.000000
vn 0.000000 -1.000000 0.000000
vn -1.000000 0.000000 0.000000
vn -1.000000 0.000000 0.000000
vn -1.000000 0.000000 0.000000
vn -1.000000 0.000000 0.000000
vn 1.000000 0.000000 0.000000
vn 1.000000 0.000000 0.000000
vn 1.000000 0.000000 0.000000
vn 1.000000 0.000000 0.000000
vn 0.000000 0.000000 -1.000000
vn 0.000000 0.000000 -1.000000
vn 0.000000 0.000000 -1.000000
vn 0.000000 0.000000 -1.000000
vn -0.470464 -0.882419 0.000000
vn -0.470464 -0.882419 0.000000
vn -0.470464 -0.882419 0.000000
vn -0.470464 -0.882419 0.000000
vn 0.470464 -0.882419 0.000000
vn 0.470464 -0.882419 0.000000
vn 0.470464 -0.882419 0.000000
vn 0.470464 -0.882419 0.000000
vn 0.000000 -0.618823 -0.785531
vn 0.000000 -0.618823 -0.785531
vn 0.000000 -0.618823 -0.785531
vn 0.000000 -0.618823 -0.785531
vn -1.000000 0.000000 0.000000
vn -1.000000 0.000000 0.000000
vn -1.000000 0.000000 0.000000
vn -1.000000 0.000000 0.000000
vn 1.000000 0.000000 0.000000
vn 1.000000 0.000000 0.000000
vn 1.000000 0.000000 0.000000
vn 1.000000 0.000000 0.000000
vn 0.000000 0.000000 -1.000000
vn 0.000000 0.000000 -1.000000
vn 0.000000 0.000000 -1.000000
vn 0.000000 0.000000 -1.000000
vn 0.000000 0.000000 -1.000000
vn 0.000000 0.000000 -1.000000
vn 0.000000 0.000000 -1.000000
vn 0.000000 0.000000 -1.000000
vn 1.000000 0.000000 -0.000000
vn 1.000000 0.000000 -0.000000
vn 1.000000 0.000000 -0.000000
vn 1.000000 0.000000 -0.000000
vn -1.000000 0.000000 0.000000
vn -1.000000 0.000000 0.000000
vn -1.000000 0.000000 0.000000
vn -1.000000 0.000000 0.000000
vn 0.000000 0.000000 -1.000000
vn 0.000000 0.000000 -1.000000
vn 0.000000 0.000000 -1.000000
vn 0.000000 0.000000 -1.000000
vn 0.000000 0.000000 1.000000
vn 0.000000 0.000000 0.000000
vn 0.000000 0.000000 1.000000
vn 0.000000 0.000000 1.000000
vn 0.000000 -1.000000 0.000000
vn 0.000000 -1.000000 0.000000
vn 0.000000 -1.000000 0.000000
vn 0.000000 -1.000000 0.000000
vn -1.000000 0.000000 0.000000
vn -1.000000 0.000000 0.000000
vn -1.000000 0.000000 0.000000
vn -1.000000 0.000000 0.000000
vn 0.000000 1.000000 0.000000
vn 0.000000 1.000000 0.000000
vn 0.000000 1.000000 0.000000
vn 0.000000 1.000000 0.000000
vn 1.000000 0.000000 0.000000
vn 1.000000 0.000000 0.000000
vn 1.000000 0.000000 0.000000
vn 1.000000 0.000000 0.000000
vn 0.000000 -0.707104 -0.707110
vn 0.000000 -0.707104 -0.707110
vn 0.000000 -0.707104 -0.707110
vn 0.000000 -0.707104 -0.707110
vn 0.707103 0.000000 -0.707111
vn 0.707103 0.000000 -0.707111
vn 0.707103 0.000000 -0.707111
vn 0.707103 0.000000 -0.707111
vn -0.707103 0.000000 -0.707111
vn -0.707103 0.000000 -0.707111
vn -0.707103 0.000000 -0.707111
vn -0.707103 0.000000 -0.707111
vn 0.000000 0.000000 -1.000000
vn 0.000000 0.000000 -1.000000
vn 0.000000 0.000000 -1.000000
vn 0.000000 0.000000 -1.000000
vn -0.000000 0.000000 -1.000000
vn -0.000000 0.000000 -1.000000
vn -0.000000 0.000000 -1.000000
vn -0.000000 0.000000 -1.000000
vn -1.000000 0.000000 0.000000
vn -1.000000 0.000000 0.000000
vn -1.000000 0.000000 0.000000
vn -1.000000 0.000000 0.000000
vn 1.000000 0.000000 0.000000
vn 1.000000 0.000000 0.000000
vn 1.000000 0.000000 0.000000
vn 1.000000 0.000000 0.000000
vn 0.000000 0.000000 -1.000000
vn 0.000000 0.000000 -1.000000
vn 0.000000 0.000000 -1.000000
vn 0.000000 0.000000 -1.000000
vn 0.000000 -1.000000 0.000000
vn 0.000000 -1.000000 0.000000
vn 0.000000 -1.000000 0.000000
vn 0.000000 -1.000000 0.000000
s off
g polySurface299
f 9/7/1 10/1/2 16/2/3 15/12/4
f 10/1/5 9/7/6 11/10/7 12/3/8
f 12/3/9 11/10/10 14/4/11 13/5/12
s 1
f 1/6/13 2/8/14 11/10/15 9/7/16
f 2/8/14 3/9/17 14/4/18 11/10/15
f 4/11/19 1/6/13 9/7/16 15/12/20
s off
f 10/13/21 12/14/22 5/15/23 6/16/24
f 16/17/25 10/18/26 6/19/27 8/20/28
f 12/21/29 13/22/30 7/23/31 5/24/32
f 18/25/33 17/26/34 20/27/35 19/28/36
f 19/28/37 20/27/38 23/29/39 24/30/40
f 22/31/41 21/32/42 24/30/43 23/29/44
f 20/27/45 17/26/46 22/31/47 23/29/48
f 30/33/49 29/34/50 32/35/51 31/36/52
f 31/37/53 32/35/54 35/38/55 36/39/56
f 34/40/57 33/41/58 36/42/59 35/38/60
f 25/43/61 26/44/62 30/33/63 31/36/64
f 28/45/65 27/46/66 36/42/67 33/41/68
f 31/37/69 36/39/70 27/47/71 25/48/72
f 32/35/73 29/34/74 34/40/75 35/38/76
s 2
f 37/49/77 38/50/78 50/51/79 49/52/80
f 38/50/78 39/53/81 51/54/82 50/51/79
f 39/53/81 40/55/83 52/56/84 51/54/82
f 40/55/83 41/57/85 53/58/86 52/56/84
f 41/57/85 42/59/87 54/60/88 53/58/86
f 42/59/87 43/61/89 55/62/90 54/60/88
f 43/61/89 44/63/91 56/64/92 55/62/90
f 44/63/91 45/65/93 57/66/94 56/64/92
f 45/65/93 46/67/95 58/68/96 57/66/94
f 46/67/95 47/69/97 59/70/98 58/68/96
f 47/69/97 48/71/99 60/72/100 59/70/98
f 48/71/99 37/73/77 49/74/80 60/72/100
s 3
f 61/75/101 62/76/102 74/77/103 73/78/104
f 62/76/102 63/79/105 75/80/106 74/77/103
f 63/79/105 64/81/107 76/82/108 75/80/106
f 64/81/107 65/83/109 77/84/110 76/82/108
f 65/83/109 66/85/111 78/86/112 77/84/110
f 66/85/111 67/87/113 79/88/114 78/86/112
f 67/89/113 68/90/115 80/91/116 79/92/114
f 68/90/115 69/93/117 81/94/118 80/91/116
f 69/93/117 70/95/119 82/96/120 81/94/118
f 70/95/119 71/97/121 83/98/122 82/96/120
f 71/97/121 72/99/123 84/100/124 83/98/122
f 72/99/123 61/75/101 73/78/104 84/100/124
s 4
f 62/76/125 61/75/126 85/101/127 86/102/128
f 63/79/129 62/76/125 86/102/128 87/103/130
f 64/81/131 63/79/129 87/103/130 88/104/132
f 65/83/133 64/81/131 88/104/132 89/105/134
f 66/85/135 65/83/133 89/105/134 90/106/136
f 67/87/137 66/85/135 90/106/136 91/107/138
f 68/90/139 67/89/137 91/108/138 92/109/140
f 69/93/141 68/90/139 92/109/140 93/110/142
f 70/95/143 69/93/141 93/110/142 94/111/144
f 71/97/145 70/95/143 94/111/144 95/112/146
f 72/99/147 71/97/145 95/112/146 96/113/148
f 61/75/126 72/99/147 96/113/148 85/101/127
s 5
f 97/114/149 98/115/150 110/116/151 109/117/152
f 98/115/150 99/118/153 111/119/154 110/116/151
f 99/118/153 100/120/155 112/121/156 111/119/154
f 100/120/155 101/122/157 113/123/158 112/121/156
f 101/122/157 102/124/159 114/125/160 113/123/158
f 102/124/159 103/126/161 115/127/162 114/125/160
f 103/126/161 104/128/163 116/129/164 115/127/162
f 104/128/163 105/130/165 117/131/166 116/129/164
f 105/132/165 106/133/167 118/134/168 117/135/166
f 106/133/167 107/136/169 119/137/170 118/134/168
f 107/136/169 108/138/171 120/139/172 119/137/170
f 108/138/171 97/114/149 109/117/152 120/139/172
s 6
f 98/115/173 97/114/174 121/140/175 122/141/176
f 99/118/177 98/115/173 122/141/176 123/142/178
f 100/120/179 99/118/177 123/142/178 124/143/180
f 101/122/181 100/120/179 124/143/180 125/144/182
f 102/124/183 101/122/181 125/144/182 126/145/184
f 103/126/185 102/124/183 126/145/184 127/146/186
f 104/128/187 103/126/185 127/146/186 128/147/188
f 105/130/189 104/128/187 128/147/188 129/148/190
f 106/133/191 105/132/189 129/149/190 130/150/192
f 107/136/193 106/133/191 130/150/192 131/151/194
f 108/138/195 107/136/193 131/151/194 132/152/196
f 97/114/174 108/138/195 132/152/196 121/140/175
s off
f 133/153/197 134/154/198 136/155/199 135/156/200
f 135/157/201 136/158/202 138/159/203 137/160/204
f 137/161/205 138/162/206 140/163/207 139/164/208
f 134/165/209 140/166/210 138/167/211 136/168/212
f 139/169/213 133/170/214 135/171/215 137/172/216
f 141/173/217 142/174/218 144/175/219 143/176/220
f 143/177/221 144/178/222 146/179/223 145/180/224
f 145/181/225 146/182/226 148/183/227 147/184/228
f 142/185/229 148/186/230 146/187/231 144/188/232
f 147/189/233 141/190/234 143/191/235 145/192/236
s 7
f 149/193/237 150/194/238 162/195/239 161/196/240
f 150/194/238 151/197/241 163/198/242 162/195/239
f 151/197/241 152/199/243 164/200/244 163/198/242
f 152/199/243 153/201/245 165/202/246 164/200/244
f 153/201/245 154/203/247 166/204/248 165/202/246
f 154/203/247 155/205/249 167/206/250 166/204/248
f 155/205/249 156/207/251 168/208/252 167/206/250
f 156/207/251 157/209/253 169/210/254 168/208/252
f 157/211/253 158/212/255 170/213/256 169/214/254
f 158/212/255 159/215/257 171/216/258 170/213/256
f 159/215/257 160/217/259 172/218/260 171/216/258
f 160/217/259 149/193/237 161/196/240 172/218/260
s 8
f 150/194/261 149/193/262 173/219/263 174/220/264
f 151/197/265 150/194/261 174/220/264 175/221/266
f 152/199/267 151/197/265 175/221/266 176/222/268
f 153/201/269 152/199/267 176/222/268 177/223/270
f 154/203/271 153/201/269 177/223/270 178/224/272
f 155/205/273 154/203/271 178/224/272 179/225/274
f 156/207/275 155/205/273 179/225/274 180/226/276
f 157/209/277 156/207/275 180/226/276 181/227/278
f 158/212/279 157/211/277 181/228/278 182/229/280
f 159/215/281 158/212/279 182/229/280 183/230/282
f 160/217/283 159/215/281 183/230/282 184/231/284
f 149/193/262 160/217/283 184/231/284 173/219/263
s 9
f 185/232/285 186/233/286 198/234/287 197/235/288
f 186/233/286 187/236/289 199/237/290 198/234/287
f 187/236/289 188/238/291 200/239/292 199/237/290
f 188/238/291 189/240/293 201/241/294 200/239/292
f 189/240/293 190/242/295 202/243/296 201/241/294
f 190/242/295 191/244/297 203/245/298 202/243/296
f 191/244/297 192/246/299 204/247/300 203/245/298
f 192/246/299 193/248/301 205/249/302 204/247/300
f 193/248/301 194/250/303 206/251/304 205/249/302
f 194/250/303 195/252/305 207/253/306 206/251/304
f 195/252/305 196/254/307 208/255/308 207/253/306
f 196/254/307 185/256/285 197/257/288 208/255/308
s 10
f 209/258/309 210/259/310 222/260/311 221/261/312
f 210/259/310 211/262/313 223/263/314 222/260/311
f 211/262/313 212/264/315 224/265/316 223/263/314
f 212/264/315 213/266/317 225/267/318 224/265/316
f 213/266/317 214/268/319 226/269/320 225/267/318
f 214/268/319 215/270/321 227/271/322 226/269/320
f 215/272/321 216/273/323 228/274/324 227/275/322
f 216/273/323 217/276/325 229/277/326 228/274/324
f 217/276/325 218/278/327 230/279/328 229/277/326
f 218/278/327 219/280/329 231/281/330 230/279/328
f 219/280/329 220/282/331 232/283/332 231/281/330
f 220/282/331 209/258/309 221/261/312 232/283/332
s 11
f 210/259/333 209/258/334 233/284/335 234/285/336
f 211/262/337 210/259/333 234/285/336 235/286/338
f 212/264/339 211/262/337 235/286/338 236/287/340
f 213/266/341 212/264/339 236/287/340 237/288/342
f 214/268/343 213/266/341 237/288/342 238/289/344
f 215/270/345 214/268/343 238/289/344 239/290/346
f 216/273/347 215/272/345 239/291/346 240/292/348
f 217/276/349 216/273/347 240/292/348 241/293/350
f 218/278/351 217/276/349 241/293/350 242/294/352
f 219/280/353 218/278/351 242/294/352 243/295/354
f 220/282/355 219/280/353 243/295/354 244/296/356
f 209/258/334 220/282/355 244/296/356 233/284/335
s off
f 250/297/357 249/298/358 252/299/359 251/300/360
f 251/300/361 252/299/362 255/301/363 256/302/364
f 254/303/365 253/304/366 256/302/367 255/301/368
f 245/305/369 246/306/370 250/297/371 251/300/372
f 248/307/373 247/308/374 256/302/375 253/304/376
f 251/300/377 256/302/378 247/308/379 245/305/380
f 266/309/381 265/310/382 267/311/383 268/312/384
f 245/313/385 247/314/386 248/315/387 246/316/388
f 252/299/389 249/298/390 257/317/391 258/318/392
f 254/303/393 255/301/394 260/319/395 259/320/396
f 255/301/397 252/299/398 258/318/399 260/319/400
f 258/318/401 257/317/402 261/321/403 262/322/404
f 259/320/405 260/319/406 264/323/407 263/324/408
f 260/319/409 258/318/410 262/322/411 264/323/412
f 262/322/413 261/321/414 265/325/415 266/326/416
f 263/324/417 264/323/418 268/327/419 267/328/420
f 264/323/421 262/322/422 266/326/423 268/327/424
f 277/329/425 278/330/426 279/331/427 280/332/428
f 275/333/429 273/334/430 272/335/431 270/336/432
f 274/337/433 276/338/434 269/339/435 271/340/436
f 285/341/437 286/342/438 287/343/439 288/344/440
f 271/345/441 272/346/442 282/347/443 281/348/444
f 281/349/445 282/350/446 286/351/447 285/352/448
f 282/353/449 283/354/450 287/355/451 286/356/452
f 283/357/453 284/358/454 288/359/455 287/360/456
f 284/361/457 281/362/458 285/363/459 288/364/460
f 289/365/461 290/366/462 292/367/463 291/368/464
f 290/366/465 289/369/466 296/370/467 295/371/468
f 291/372/469 292/367/470 294/373/471 293/374/472
s 12
f 272/346/473 273/375/474 294/373/475 292/367/476
f 274/376/477 271/345/478 290/366/479 295/371/480
s off
f 291/377/481 293/378/482 279/379/483 278/380/484
f 296/381/485 289/382/486 277/383/487 280/384/488
s 12
f 272/346/473 292/367/476 283/385/489 282/347/490
f 292/367/476 290/366/479 284/386/491 283/385/489
f 290/366/479 271/345/478 281/348/492 284/386/491
s off
f 289/387/493 291/388/494 278/389/495 277/390/496
