# This file uses meters as units for non-parametric coordinates.

g default
v 113.063652 -64.267746 -65.277328
v 65.277328 -64.267746 -113.063652
v 0.000000 -64.267746 -130.554657
v -65.277328 -64.267746 -113.063652
v -113.063652 -64.267746 -65.277328
v -130.554657 -64.267746 0.000000
v -113.063652 -64.267746 65.277328
v -65.277328 -64.267746 113.063652
v 0.000000 -64.267746 130.554657
v 65.277328 -64.267746 113.063652
v 113.063652 -64.267746 65.277328
v 130.554657 -64.267746 0.000000
v 113.063652 64.267746 -65.277328
v 65.277328 64.267746 -113.063652
v 0.000000 64.267746 -130.554657
v -65.277328 64.267746 -113.063652
v -113.063652 64.267746 -65.277328
v -130.554657 64.267746 0.000000
v -113.063652 64.267746 65.277328
v -65.277328 64.267746 113.063652
v 0.000000 64.267746 130.554657
v 65.277328 64.267746 113.063652
v 113.063652 64.267746 65.277328
v 130.554657 64.267746 0.000000
v 0.000000 -64.267746 0.000000
vt 0.811506 0.015973
vt 0.811509 0.015973
vt 0.811500 0.015973
vt 0.811494 0.015973
vt 0.811509 0.015973
vt 0.811507 0.015973
vt 0.811506 0.015973
vt 0.811507 0.015973
vt 0.811508 0.015973
vt 0.811509 0.015973
vt 0.811498 0.015973
vt 0.811509 0.015973
vt 0.875693 0.007113
vt 0.875693 0.007113
vt 0.875693 0.007112
vt 0.875693 0.007113
vt 0.875693 0.007112
vt 0.875693 0.007113
vt 0.875693 0.007113
vt 0.875693 0.007112
vt 0.875693 0.007113
vt 0.875693 0.007113
vt 0.875693 0.007113
vt 0.875693 0.007113
vt 0.875715 0.186283
vt 0.577150 0.006900
vt 0.577172 0.186070
vt 0.577172 0.186070
vt 0.577172 0.186071
vt 0.577172 0.186069
vt 0.577172 0.186071
vt 0.577172 0.186069
vt 0.577172 0.186069
vt 0.577172 0.186071
vt 0.577172 0.186070
vt 0.577172 0.186070
vt 0.577172 0.186069
vt 0.577172 0.186070
vt 0.718200 0.354286
vt 0.875715 0.186283
vt 0.577150 0.006900
vt 0.875715 0.186283
vt 0.577150 0.006901
vt 0.875715 0.186282
vt 0.577150 0.006900
vt 0.875715 0.186283
vt 0.577150 0.006900
vt 0.875715 0.186283
vt 0.577150 0.006899
vt 0.875715 0.186283
vt 0.577150 0.006900
vt 0.875715 0.186283
vt 0.577150 0.006900
vt 0.875715 0.186283
vt 0.577150 0.006900
vt 0.875715 0.186283
vt 0.577150 0.006900
vt 0.875715 0.186283
vt 0.577150 0.006900
vt 0.875715 0.186283
vt 0.577150 0.006900
vt 0.718200 0.354286
vt 0.718200 0.354286
vt 0.718200 0.354286
vt 0.718200 0.354286
vt 0.718200 0.354286
vt 0.718200 0.354286
vt 0.718199 0.354286
vt 0.718200 0.354286
vt 0.718199 0.354286
vt 0.718199 0.354286
vt 0.718200 0.354286
vt 0.637518 0.015973
vt 0.637507 0.015973
vt 0.637508 0.015973
vt 0.637509 0.015973
vt 0.637509 0.015973
vt 0.637509 0.015973
vt 0.637507 0.015973
vt 0.637522 0.015973
vt 0.637516 0.015973
vt 0.637507 0.015973
vt 0.637510 0.015973
vt 0.637507 0.015973
vn -0.797542 0.389746 0.460461
vn -0.866025 0.000000 0.500000
vn -0.500000 0.000000 0.866025
vn -0.460461 0.389746 0.797542
vn 0.000000 0.000000 1.000000
vn 0.000000 0.389746 0.920923
vn 0.500000 0.000000 0.866025
vn 0.460461 0.389746 0.797542
vn 0.866025 0.000000 0.500000
vn 0.797542 0.389746 0.460461
vn 1.000000 0.000000 0.000000
vn 0.920923 0.389746 0.000000
vn 0.866025 0.000000 -0.500000
vn 0.797542 0.389746 -0.460461
vn 0.500000 0.000000 -0.866025
vn 0.460461 0.389746 -0.797542
vn 0.000000 0.000000 -1.000000
vn 0.000000 0.389746 -0.920923
vn -0.500000 0.000000 -0.866025
vn -0.460461 0.389746 -0.797542
vn -0.866025 0.000000 -0.500000
vn -0.797542 0.389746 -0.460461
vn -1.000000 0.000000 0.000000
vn -0.920923 0.389746 0.000000
vn 0.000000 1.000000 0.000000
s 1
g pCylinder25
f 1/13/1 13/26/2 14/27/3 2/60/4
f 2/14/4 14/61/3 15/28/5 3/58/6
f 3/15/6 15/59/5 16/29/7 4/56/8
f 4/16/8 16/57/7 17/30/9 5/54/10
f 5/17/10 17/55/9 18/31/11 6/52/12
f 6/18/12 18/53/11 19/32/13 7/50/14
f 7/19/14 19/51/13 20/33/15 8/48/16
f 8/20/16 20/49/15 21/34/17 9/46/18
f 9/21/18 21/47/17 22/35/19 10/44/20
f 10/22/20 22/45/19 23/36/21 11/42/22
f 11/23/22 23/43/21 24/37/23 12/40/24
f 12/24/24 24/41/23 13/38/2 1/25/1
f 2/83/4 25/71/25 1/1/1
f 3/82/6 25/70/25 2/2/4
f 4/81/8 25/69/25 3/3/6
f 5/80/10 25/68/25 4/4/8
f 6/79/12 25/67/25 5/5/10
f 7/78/14 25/66/25 6/6/12
f 8/77/16 25/65/25 7/7/14
f 9/76/18 25/64/25 8/8/16
f 10/75/20 25/63/25 9/9/18
f 11/74/22 25/62/25 10/10/20
f 12/73/24 25/39/25 11/11/22
f 1/84/1 25/72/25 12/12/24
